2.HLSImplementation/SineLUT/sine_generator_lut.vcd
$comment Generated by Amaranth $end
$date 2024-06-13 14:54:40.573102 $end
$timescale 1 fs $end
$scope module bench $end
$scope module top $end
$var wire 1 ! clk $end
$var wire 1 " rst $end
$var wire 1 # rst$2 $end
$var wire 1 $ sample_clock_ce $end
$var wire 64 % phase $end
$var wire 64 & phase_inc_carrGen $end
$var wire 8 ' rd_port__addr $end
$var wire 12 ( sinewave $end
$var wire 12 ) rd_port__data $end
$var wire 12 + \memory[0] $end
$var wire 12 , \memory[1] $end
$var wire 12 - \memory[2] $end
$var wire 12 . \memory[3] $end
$var wire 12 / \memory[4] $end
$var wire 12 0 \memory[5] $end
$var wire 12 1 \memory[6] $end
$var wire 12 2 \memory[7] $end
$var wire 12 3 \memory[8] $end
$var wire 12 4 \memory[9] $end
$var wire 12 5 \memory[10] $end
$var wire 12 6 \memory[11] $end
$var wire 12 7 \memory[12] $end
$var wire 12 8 \memory[13] $end
$var wire 12 9 \memory[14] $end
$var wire 12 : \memory[15] $end
$var wire 12 ; \memory[16] $end
$var wire 12 < \memory[17] $end
$var wire 12 = \memory[18] $end
$var wire 12 > \memory[19] $end
$var wire 12 ? \memory[20] $end
$var wire 12 @ \memory[21] $end
$var wire 12 A \memory[22] $end
$var wire 12 B \memory[23] $end
$var wire 12 C \memory[24] $end
$var wire 12 D \memory[25] $end
$var wire 12 E \memory[26] $end
$var wire 12 F \memory[27] $end
$var wire 12 G \memory[28] $end
$var wire 12 H \memory[29] $end
$var wire 12 I \memory[30] $end
$var wire 12 J \memory[31] $end
$var wire 12 K \memory[32] $end
$var wire 12 L \memory[33] $end
$var wire 12 M \memory[34] $end
$var wire 12 N \memory[35] $end
$var wire 12 O \memory[36] $end
$var wire 12 P \memory[37] $end
$var wire 12 Q \memory[38] $end
$var wire 12 R \memory[39] $end
$var wire 12 S \memory[40] $end
$var wire 12 T \memory[41] $end
$var wire 12 U \memory[42] $end
$var wire 12 V \memory[43] $end
$var wire 12 W \memory[44] $end
$var wire 12 X \memory[45] $end
$var wire 12 Y \memory[46] $end
$var wire 12 Z \memory[47] $end
$var wire 12 [ \memory[48] $end
$var wire 12 \ \memory[49] $end
$var wire 12 ] \memory[50] $end
$var wire 12 ^ \memory[51] $end
$var wire 12 _ \memory[52] $end
$var wire 12 ` \memory[53] $end
$var wire 12 a \memory[54] $end
$var wire 12 b \memory[55] $end
$var wire 12 c \memory[56] $end
$var wire 12 d \memory[57] $end
$var wire 12 e \memory[58] $end
$var wire 12 f \memory[59] $end
$var wire 12 g \memory[60] $end
$var wire 12 h \memory[61] $end
$var wire 12 i \memory[62] $end
$var wire 12 j \memory[63] $end
$var wire 12 k \memory[64] $end
$var wire 12 l \memory[65] $end
$var wire 12 m \memory[66] $end
$var wire 12 n \memory[67] $end
$var wire 12 o \memory[68] $end
$var wire 12 p \memory[69] $end
$var wire 12 q \memory[70] $end
$var wire 12 r \memory[71] $end
$var wire 12 s \memory[72] $end
$var wire 12 t \memory[73] $end
$var wire 12 u \memory[74] $end
$var wire 12 v \memory[75] $end
$var wire 12 w \memory[76] $end
$var wire 12 x \memory[77] $end
$var wire 12 y \memory[78] $end
$var wire 12 z \memory[79] $end
$var wire 12 { \memory[80] $end
$var wire 12 | \memory[81] $end
$var wire 12 } \memory[82] $end
$var wire 12 ~ \memory[83] $end
$var wire 12 !! \memory[84] $end
$var wire 12 "! \memory[85] $end
$var wire 12 #! \memory[86] $end
$var wire 12 $! \memory[87] $end
$var wire 12 %! \memory[88] $end
$var wire 12 &! \memory[89] $end
$var wire 12 '! \memory[90] $end
$var wire 12 (! \memory[91] $end
$var wire 12 )! \memory[92] $end
$var wire 12 *! \memory[93] $end
$var wire 12 +! \memory[94] $end
$var wire 12 ,! \memory[95] $end
$var wire 12 -! \memory[96] $end
$var wire 12 .! \memory[97] $end
$var wire 12 /! \memory[98] $end
$var wire 12 0! \memory[99] $end
$var wire 12 1! \memory[100] $end
$var wire 12 2! \memory[101] $end
$var wire 12 3! \memory[102] $end
$var wire 12 4! \memory[103] $end
$var wire 12 5! \memory[104] $end
$var wire 12 6! \memory[105] $end
$var wire 12 7! \memory[106] $end
$var wire 12 8! \memory[107] $end
$var wire 12 9! \memory[108] $end
$var wire 12 :! \memory[109] $end
$var wire 12 ;! \memory[110] $end
$var wire 12 <! \memory[111] $end
$var wire 12 =! \memory[112] $end
$var wire 12 >! \memory[113] $end
$var wire 12 ?! \memory[114] $end
$var wire 12 @! \memory[115] $end
$var wire 12 A! \memory[116] $end
$var wire 12 B! \memory[117] $end
$var wire 12 C! \memory[118] $end
$var wire 12 D! \memory[119] $end
$var wire 12 E! \memory[120] $end
$var wire 12 F! \memory[121] $end
$var wire 12 G! \memory[122] $end
$var wire 12 H! \memory[123] $end
$var wire 12 I! \memory[124] $end
$var wire 12 J! \memory[125] $end
$var wire 12 K! \memory[126] $end
$var wire 12 L! \memory[127] $end
$var wire 12 M! \memory[128] $end
$var wire 12 N! \memory[129] $end
$var wire 12 O! \memory[130] $end
$var wire 12 P! \memory[131] $end
$var wire 12 Q! \memory[132] $end
$var wire 12 R! \memory[133] $end
$var wire 12 S! \memory[134] $end
$var wire 12 T! \memory[135] $end
$var wire 12 U! \memory[136] $end
$var wire 12 V! \memory[137] $end
$var wire 12 W! \memory[138] $end
$var wire 12 X! \memory[139] $end
$var wire 12 Y! \memory[140] $end
$var wire 12 Z! \memory[141] $end
$var wire 12 [! \memory[142] $end
$var wire 12 \! \memory[143] $end
$var wire 12 ]! \memory[144] $end
$var wire 12 ^! \memory[145] $end
$var wire 12 _! \memory[146] $end
$var wire 12 `! \memory[147] $end
$var wire 12 a! \memory[148] $end
$var wire 12 b! \memory[149] $end
$var wire 12 c! \memory[150] $end
$var wire 12 d! \memory[151] $end
$var wire 12 e! \memory[152] $end
$var wire 12 f! \memory[153] $end
$var wire 12 g! \memory[154] $end
$var wire 12 h! \memory[155] $end
$var wire 12 i! \memory[156] $end
$var wire 12 j! \memory[157] $end
$var wire 12 k! \memory[158] $end
$var wire 12 l! \memory[159] $end
$var wire 12 m! \memory[160] $end
$var wire 12 n! \memory[161] $end
$var wire 12 o! \memory[162] $end
$var wire 12 p! \memory[163] $end
$var wire 12 q! \memory[164] $end
$var wire 12 r! \memory[165] $end
$var wire 12 s! \memory[166] $end
$var wire 12 t! \memory[167] $end
$var wire 12 u! \memory[168] $end
$var wire 12 v! \memory[169] $end
$var wire 12 w! \memory[170] $end
$var wire 12 x! \memory[171] $end
$var wire 12 y! \memory[172] $end
$var wire 12 z! \memory[173] $end
$var wire 12 {! \memory[174] $end
$var wire 12 |! \memory[175] $end
$var wire 12 }! \memory[176] $end
$var wire 12 ~! \memory[177] $end
$var wire 12 !" \memory[178] $end
$var wire 12 "" \memory[179] $end
$var wire 12 #" \memory[180] $end
$var wire 12 $" \memory[181] $end
$var wire 12 %" \memory[182] $end
$var wire 12 &" \memory[183] $end
$var wire 12 '" \memory[184] $end
$var wire 12 (" \memory[185] $end
$var wire 12 )" \memory[186] $end
$var wire 12 *" \memory[187] $end
$var wire 12 +" \memory[188] $end
$var wire 12 ," \memory[189] $end
$var wire 12 -" \memory[190] $end
$var wire 12 ." \memory[191] $end
$var wire 12 /" \memory[192] $end
$var wire 12 0" \memory[193] $end
$var wire 12 1" \memory[194] $end
$var wire 12 2" \memory[195] $end
$var wire 12 3" \memory[196] $end
$var wire 12 4" \memory[197] $end
$var wire 12 5" \memory[198] $end
$var wire 12 6" \memory[199] $end
$var wire 12 7" \memory[200] $end
$var wire 12 8" \memory[201] $end
$var wire 12 9" \memory[202] $end
$var wire 12 :" \memory[203] $end
$var wire 12 ;" \memory[204] $end
$var wire 12 <" \memory[205] $end
$var wire 12 =" \memory[206] $end
$var wire 12 >" \memory[207] $end
$var wire 12 ?" \memory[208] $end
$var wire 12 @" \memory[209] $end
$var wire 12 A" \memory[210] $end
$var wire 12 B" \memory[211] $end
$var wire 12 C" \memory[212] $end
$var wire 12 D" \memory[213] $end
$var wire 12 E" \memory[214] $end
$var wire 12 F" \memory[215] $end
$var wire 12 G" \memory[216] $end
$var wire 12 H" \memory[217] $end
$var wire 12 I" \memory[218] $end
$var wire 12 J" \memory[219] $end
$var wire 12 K" \memory[220] $end
$var wire 12 L" \memory[221] $end
$var wire 12 M" \memory[222] $end
$var wire 12 N" \memory[223] $end
$var wire 12 O" \memory[224] $end
$var wire 12 P" \memory[225] $end
$var wire 12 Q" \memory[226] $end
$var wire 12 R" \memory[227] $end
$var wire 12 S" \memory[228] $end
$var wire 12 T" \memory[229] $end
$var wire 12 U" \memory[230] $end
$var wire 12 V" \memory[231] $end
$var wire 12 W" \memory[232] $end
$var wire 12 X" \memory[233] $end
$var wire 12 Y" \memory[234] $end
$var wire 12 Z" \memory[235] $end
$var wire 12 [" \memory[236] $end
$var wire 12 \" \memory[237] $end
$var wire 12 ]" \memory[238] $end
$var wire 12 ^" \memory[239] $end
$var wire 12 _" \memory[240] $end
$var wire 12 `" \memory[241] $end
$var wire 12 a" \memory[242] $end
$var wire 12 b" \memory[243] $end
$var wire 12 c" \memory[244] $end
$var wire 12 d" \memory[245] $end
$var wire 12 e" \memory[246] $end
$var wire 12 f" \memory[247] $end
$var wire 12 g" \memory[248] $end
$var wire 12 h" \memory[249] $end
$var wire 12 i" \memory[250] $end
$var wire 12 j" \memory[251] $end
$var wire 12 k" \memory[252] $end
$var wire 12 l" \memory[253] $end
$var wire 12 m" \memory[254] $end
$var wire 12 n" \memory[255] $end
$scope module memory $end
$var wire 1 ! clk $end
$var wire 1 " rst $end
$var wire 8 ' rd_port__addr $end
$var wire 12 ) rd_port__data $end
$var wire 1 * rd_port__en $end
$upscope $end
$upscope $end
$upscope $end
$enddefinitions $end
#0
$dumpvars
0!
0"
1#
0$
b0 %
b0 &
b0 '
b0 (
b0 )
1*
b11001 +
b1001011 ,
b1111101 -
b10101111 .
b11100001 /
b100010011 0
b101000101 1
b101110110 2
b110100111 3
b111011000 4
b1000001001 5
b1000111010 6
b1001101010 7
b1010011001 8
b1011001001 9
b1011111000 :
b1100100110 ;
b1101010100 <
b1110000001 =
b1110101110 >
b1111011011 ?
b10000000110 @
b10000110001 A
b10001011100 B
b10010000110 C
b10010101111 D
b10011010111 E
b10011111111 F
b10100100101 G
b10101001011 H
b10101110001 I
b10110010101 J
b10110111001 K
b10111011011 L
b10111111101 M
b11000011110 N
b11000111110 O
b11001011101 P
b11001111011 Q
b11010010111 R
b11010110011 S
b11011001110 T
b11011101000 U
b11100000001 V
b11100011000 W
b11100101111 X
b11101000101 Y
b11101011001 Z
b11101101100 [
b11101111110 \
b11110001111 ]
b11110011111 ^
b11110101110 _
b11110111011 `
b11111000111 a
b11111010010 b
b11111011100 c
b11111100101 d
b11111101100 e
b11111110010 f
b11111110111 g
b11111111011 h
b11111111101 i
b11111111110 j
b11111111110 k
b11111111101 l
b11111111011 m
b11111110111 n
b11111110010 o
b11111101100 p
b11111100101 q
b11111011100 r
b11111010010 s
b11111000111 t
b11110111011 u
b11110101110 v
b11110011111 w
b11110001111 x
b11101111110 y
b11101101100 z
b11101011001 {
b11101000101 |
b11100101111 }
b11100011000 ~
b11100000001 !!
b11011101000 "!
b11011001110 #!
b11010110011 $!
b11010010111 %!
b11001111011 &!
b11001011101 '!
b11000111110 (!
b11000011110 )!
b10111111101 *!
b10111011011 +!
b10110111001 ,!
b10110010101 -!
b10101110001 .!
b10101001011 /!
b10100100101 0!
b10011111111 1!
b10011010111 2!
b10010101111 3!
b10010000110 4!
b10001011100 5!
b10000110001 6!
b10000000110 7!
b1111011011 8!
b1110101110 9!
b1110000001 :!
b1101010100 ;!
b1100100110 <!
b1011111000 =!
b1011001001 >!
b1010011001 ?!
b1001101010 @!
b1000111010 A!
b1000001001 B!
b111011000 C!
b110100111 D!
b101110110 E!
b101000101 F!
b100010011 G!
b11100001 H!
b10101111 I!
b1111101 J!
b1001011 K!
b11001 L!
b111111100111 M!
b111110110101 N!
b111110000011 O!
b111101010001 P!
b111100011111 Q!
b111011101101 R!
b111010111011 S!
b111010001010 T!
b111001011001 U!
b111000101000 V!
b110111110111 W!
b110111000110 X!
b110110010110 Y!
b110101100111 Z!
b110100110111 [!
b110100001000 \!
b110011011010 ]!
b110010101100 ^!
b110001111111 _!
b110001010010 `!
b110000100101 a!
b101111111010 b!
b101111001111 c!
b101110100100 d!
b101101111010 e!
b101101010001 f!
b101100101001 g!
b101100000001 h!
b101011011011 i!
b101010110101 j!
b101010001111 k!
b101001101011 l!
b101001000111 m!
b101000100101 n!
b101000000011 o!
b100111100010 p!
b100111000010 q!
b100110100011 r!
b100110000101 s!
b100101101001 t!
b100101001101 u!
b100100110010 v!
b100100011000 w!
b100011111111 x!
b100011101000 y!
b100011010001 z!
b100010111011 {!
b100010100111 |!
b100010010100 }!
b100010000010 ~!
b100001110001 !"
b100001100001 ""
b100001010010 #"
b100001000101 $"
b100000111001 %"
b100000101110 &"
b100000100100 '"
b100000011011 ("
b100000010100 )"
b100000001110 *"
b100000001001 +"
b100000000101 ,"
b100000000011 -"
b100000000010 ."
b100000000010 /"
b100000000011 0"
b100000000101 1"
b100000001001 2"
b100000001110 3"
b100000010100 4"
b100000011011 5"
b100000100100 6"
b100000101110 7"
b100000111001 8"
b100001000101 9"
b100001010010 :"
b100001100001 ;"
b100001110001 <"
b100010000010 ="
b100010010100 >"
b100010100111 ?"
b100010111011 @"
b100011010001 A"
b100011101000 B"
b100011111111 C"
b100100011000 D"
b100100110010 E"
b100101001101 F"
b100101101001 G"
b100110000101 H"
b100110100011 I"
b100111000010 J"
b100111100010 K"
b101000000011 L"
b101000100101 M"
b101001000111 N"
b101001101011 O"
b101010001111 P"
b101010110101 Q"
b101011011011 R"
b101100000001 S"
b101100101001 T"
b101101010001 U"
b101101111010 V"
b101110100100 W"
b101111001111 X"
b101111111010 Y"
b110000100101 Z"
b110001010010 ["
b110001111111 \"
b110010101100 ]"
b110011011010 ^"
b110100001000 _"
b110100110111 `"
b110101100111 a"
b110110010110 b"
b110111000110 c"
b110111110111 d"
b111000101000 e"
b111001011001 f"
b111010001010 g"
b111010111011 h"
b111011101101 i"
b111100011111 j"
b111101010001 k"
b111110000011 l"
b111110110101 m"
b111111100111 n"
$end
#6250000
1!
b11001 )
b11001 (
0#
#12500000
0!
#18750000
1!
1$
b10000000000000000000000000000000000000000000000000000000000 &
#25000000
0!
#31250000
1!
b10000000000000000000000000000000000000000000000000000000000 %
b100 '
#37500000
0!
#43750000
1!
b11100001 )
b100000000000000000000000000000000000000000000000000000000000 %
b11100001 (
b1000 '
#50000000
0!
#56250000
1!
b110100111 )
b110000000000000000000000000000000000000000000000000000000000 %
b110100111 (
b1100 '
#62500000
0!
#68750000
1!
b1001101010 )
b1000000000000000000000000000000000000000000000000000000000000 %
b1001101010 (
b10000 '
#75000000
0!
#81250000
1!
b1100100110 )
b1010000000000000000000000000000000000000000000000000000000000 %
b1100100110 (
b10100 '
#87500000
0!
#93750000
1!
b1111011011 )
b1100000000000000000000000000000000000000000000000000000000000 %
b1111011011 (
b11000 '
#100000000
0!
#106250000
1!
b10010000110 )
b1110000000000000000000000000000000000000000000000000000000000 %
b10010000110 (
b11100 '
#112500000
0!
#118750000
1!
b10100100101 )
b10000000000000000000000000000000000000000000000000000000000000 %
b10100100101 (
b100000 '
#125000000
0!
#131250000
1!
b10110111001 )
b10010000000000000000000000000000000000000000000000000000000000 %
b10110111001 (
b100100 '
#137500000
0!
#143750000
1!
b11000111110 )
b10100000000000000000000000000000000000000000000000000000000000 %
b11000111110 (
b101000 '
#150000000
0!
#156250000
1!
b11010110011 )
b10110000000000000000000000000000000000000000000000000000000000 %
b11010110011 (
b101100 '
#162500000
0!
#168750000
1!
b11100011000 )
b11000000000000000000000000000000000000000000000000000000000000 %
b11100011000 (
b110000 '
#175000000
0!
#181250000
1!
b11101101100 )
b11010000000000000000000000000000000000000000000000000000000000 %
b11101101100 (
b110100 '
#187500000
0!
#193750000
1!
b11110101110 )
b11100000000000000000000000000000000000000000000000000000000000 %
b11110101110 (
b111000 '
#200000000
0!
#206250000
1!
b11111011100 )
b11110000000000000000000000000000000000000000000000000000000000 %
b11111011100 (
b111100 '
#212500000
0!
#218750000
1!
b11111110111 )
b100000000000000000000000000000000000000000000000000000000000000 %
b11111110111 (
b1000000 '
#225000000
0!
#231250000
1!
b11111111110 )
b100010000000000000000000000000000000000000000000000000000000000 %
b11111111110 (
b1000100 '
#237500000
0!
#243750000
1!
b11111110010 )
b100100000000000000000000000000000000000000000000000000000000000 %
b11111110010 (
b1001000 '
#250000000
0!
#256250000
1!
b11111010010 )
b100110000000000000000000000000000000000000000000000000000000000 %
b11111010010 (
b1001100 '
#262500000
0!
#268750000
1!
b11110011111 )
b101000000000000000000000000000000000000000000000000000000000000 %
b11110011111 (
b1010000 '
#275000000
0!
#281250000
1!
b11101011001 )
b101010000000000000000000000000000000000000000000000000000000000 %
b11101011001 (
b1010100 '
#287500000
0!
#293750000
1!
b11100000001 )
b101100000000000000000000000000000000000000000000000000000000000 %
b11100000001 (
b1011000 '
#300000000
0!
#306250000
1!
b11010010111 )
b101110000000000000000000000000000000000000000000000000000000000 %
b11010010111 (
b1011100 '
#312500000
0!
#318750000
1!
b11000011110 )
b110000000000000000000000000000000000000000000000000000000000000 %
b11000011110 (
b1100000 '
#325000000
0!
#331250000
1!
b10110010101 )
b110010000000000000000000000000000000000000000000000000000000000 %
b10110010101 (
b1100100 '
#337500000
0!
#343750000
1!
b10011111111 )
b110100000000000000000000000000000000000000000000000000000000000 %
b10011111111 (
b1101000 '
#350000000
0!
#356250000
1!
b10001011100 )
b110110000000000000000000000000000000000000000000000000000000000 %
b10001011100 (
b1101100 '
#362500000
0!
#368750000
1!
b1110101110 )
b111000000000000000000000000000000000000000000000000000000000000 %
b1110101110 (
b1110000 '
#375000000
0!
#381250000
1!
b1011111000 )
b111010000000000000000000000000000000000000000000000000000000000 %
b1011111000 (
b1110100 '
#387500000
0!
#393750000
1!
b1000111010 )
b111100000000000000000000000000000000000000000000000000000000000 %
b1000111010 (
b1111000 '
#400000000
0!
#406250000
1!
b101110110 )
b111110000000000000000000000000000000000000000000000000000000000 %
b101110110 (
b1111100 '
#412500000
0!
#418750000
1!
b10101111 )
b1000000000000000000000000000000000000000000000000000000000000000 %
b10101111 (
b10000000 '
#425000000
0!
#431250000
1!
b111111100111 )
b1000010000000000000000000000000000000000000000000000000000000000 %
b111111100111 (
b10000100 '
#437500000
0!
#443750000
1!
b111100011111 )
b1000100000000000000000000000000000000000000000000000000000000000 %
b111100011111 (
b10001000 '
#450000000
0!
#456250000
1!
b111001011001 )
b1000110000000000000000000000000000000000000000000000000000000000 %
b111001011001 (
b10001100 '
#462500000
0!
#468750000
1!
b110110010110 )
b1001000000000000000000000000000000000000000000000000000000000000 %
b110110010110 (
b10010000 '
#475000000
0!
#481250000
1!
b110011011010 )
b1001010000000000000000000000000000000000000000000000000000000000 %
b110011011010 (
b10010100 '
#487500000
0!
#493750000
1!
b110000100101 )
b1001100000000000000000000000000000000000000000000000000000000000 %
b110000100101 (
b10011000 '
#500000000
0!
#506250000
1!
b101101111010 )
b1001110000000000000000000000000000000000000000000000000000000000 %
b101101111010 (
b10011100 '
#512500000
0!
#518750000
1!
b101011011011 )
b1010000000000000000000000000000000000000000000000000000000000000 %
b101011011011 (
b10100000 '
#525000000
0!
#531250000
1!
b101001000111 )
b1010010000000000000000000000000000000000000000000000000000000000 %
b101001000111 (
b10100100 '
#537500000
0!
#543750000
1!
b100111000010 )
b1010100000000000000000000000000000000000000000000000000000000000 %
b100111000010 (
b10101000 '
#550000000
0!
#556250000
1!
b100101001101 )
b1010110000000000000000000000000000000000000000000000000000000000 %
b100101001101 (
b10101100 '
#562500000
0!
#568750000
1!
b100011101000 )
b1011000000000000000000000000000000000000000000000000000000000000 %
b100011101000 (
b10110000 '
#575000000
0!
#581250000
1!
b100010010100 )
b1011010000000000000000000000000000000000000000000000000000000000 %
b100010010100 (
b10110100 '
#587500000
0!
#593750000
1!
b100001010010 )
b1011100000000000000000000000000000000000000000000000000000000000 %
b100001010010 (
b10111000 '
#600000000
0!
#606250000
1!
b100000100100 )
b1011110000000000000000000000000000000000000000000000000000000000 %
b100000100100 (
b10111100 '
#612500000
0!
#618750000
1!
b100000001001 )
b1100000000000000000000000000000000000000000000000000000000000000 %
b100000001001 (
b11000000 '
#625000000
0!
#631250000
1!
b100000000010 )
b1100010000000000000000000000000000000000000000000000000000000000 %
b100000000010 (
b11000100 '
#637500000
0!
#643750000
1!
b100000001110 )
b1100100000000000000000000000000000000000000000000000000000000000 %
b100000001110 (
b11001000 '
#650000000
0!
#656250000
1!
b100000101110 )
b1100110000000000000000000000000000000000000000000000000000000000 %
b100000101110 (
b11001100 '
#662500000
0!
#668750000
1!
b100001100001 )
b1101000000000000000000000000000000000000000000000000000000000000 %
b100001100001 (
b11010000 '
#675000000
0!
#681250000
1!
b100010100111 )
b1101010000000000000000000000000000000000000000000000000000000000 %
b100010100111 (
b11010100 '
#687500000
0!
#693750000
1!
b100011111111 )
b1101100000000000000000000000000000000000000000000000000000000000 %
b100011111111 (
b11011000 '
#700000000
0!
#706250000
1!
b100101101001 )
b1101110000000000000000000000000000000000000000000000000000000000 %
b100101101001 (
b11011100 '
#712500000
0!
#718750000
1!
b100111100010 )
b1110000000000000000000000000000000000000000000000000000000000000 %
b100111100010 (
b11100000 '
#725000000
0!
#731250000
1!
b101001101011 )
b1110010000000000000000000000000000000000000000000000000000000000 %
b101001101011 (
b11100100 '
#737500000
0!
#743750000
1!
b101100000001 )
b1110100000000000000000000000000000000000000000000000000000000000 %
b101100000001 (
b11101000 '
#750000000
0!
#756250000
1!
b101110100100 )
b1110110000000000000000000000000000000000000000000000000000000000 %
b101110100100 (
b11101100 '
#762500000
0!
#768750000
1!
b110001010010 )
b1111000000000000000000000000000000000000000000000000000000000000 %
b110001010010 (
b11110000 '
#775000000
0!
#781250000
1!
b110100001000 )
b1111010000000000000000000000000000000000000000000000000000000000 %
b110100001000 (
b11110100 '
#787500000
0!
#793750000
1!
b110111000110 )
b1111100000000000000000000000000000000000000000000000000000000000 %
b110111000110 (
b11111000 '
#800000000
0!
#806250000
1!
b111010001010 )
b1111110000000000000000000000000000000000000000000000000000000000 %
b111010001010 (
b11111100 '
#812500000
0!
#818750000
1!
b111101010001 )
b0 %
b111101010001 (
b0 '
#825000000
0!
#831250000
1!
b11001 )
b10000000000000000000000000000000000000000000000000000000000 %
b11001 (
b100 '
#837500000
0!
#843750000
1!
b11100001 )
b100000000000000000000000000000000000000000000000000000000000 %
b11100001 (
b1000 '
#850000000
0!
#856250000
1!
b110100111 )
b110000000000000000000000000000000000000000000000000000000000 %
b110100111 (
b1100 '
#862500000
0!
#868750000
1!
b1001101010 )
b1000000000000000000000000000000000000000000000000000000000000 %
b1001101010 (
b10000 '
#875000000
0!
#881250000
1!
b1100100110 )
b1010000000000000000000000000000000000000000000000000000000000 %
b1100100110 (
b10100 '
#887500000
0!
#893750000
1!
b1111011011 )
b1100000000000000000000000000000000000000000000000000000000000 %
b1111011011 (
b11000 '
#900000000
0!
#906250000
1!
b10010000110 )
b1110000000000000000000000000000000000000000000000000000000000 %
b10010000110 (
b11100 '
#912500000
0!
#918750000
1!
b10100100101 )
b10000000000000000000000000000000000000000000000000000000000000 %
b10100100101 (
b100000 '
#925000000
0!
#931250000
1!
b10110111001 )
b10010000000000000000000000000000000000000000000000000000000000 %
b10110111001 (
b100100 '
#937500000
0!
#943750000
1!
b11000111110 )
b10100000000000000000000000000000000000000000000000000000000000 %
b11000111110 (
b101000 '
#950000000
0!
#956250000
1!
b11010110011 )
b10110000000000000000000000000000000000000000000000000000000000 %
b11010110011 (
b101100 '
#962500000
0!
#968750000
1!
b11100011000 )
b11000000000000000000000000000000000000000000000000000000000000 %
b11100011000 (
b110000 '
#975000000
0!
#981250000
1!
b11101101100 )
b11010000000000000000000000000000000000000000000000000000000000 %
b11101101100 (
b110100 '
#987500000
0!
#993750000
1!
b11110101110 )
b11100000000000000000000000000000000000000000000000000000000000 %
b11110101110 (
b111000 '
#1000000000
0!
#1006250000
1!
b11111011100 )
b11110000000000000000000000000000000000000000000000000000000000 %
b11111011100 (
b111100 '
#1012500000
0!
#1018750000
1!
b11111110111 )
b100000000000000000000000000000000000000000000000000000000000000 %
b11111110111 (
b1000000 '
#1025000000
0!
#1031250000
1!
b11111111110 )
b100010000000000000000000000000000000000000000000000000000000000 %
b11111111110 (
b1000100 '
#1037500000
0!
#1043750000
1!
b11111110010 )
b100100000000000000000000000000000000000000000000000000000000000 %
b11111110010 (
b1001000 '
#1050000000
0!
#1056250000
1!
b11111010010 )
b100110000000000000000000000000000000000000000000000000000000000 %
b11111010010 (
b1001100 '
#1062500000
0!
#1068750000
1!
b11110011111 )
b101000000000000000000000000000000000000000000000000000000000000 %
b11110011111 (
b1010000 '
#1075000000
0!
#1081250000
1!
b11101011001 )
b101010000000000000000000000000000000000000000000000000000000000 %
b11101011001 (
b1010100 '
#1087500000
0!
#1093750000
1!
b11100000001 )
b101100000000000000000000000000000000000000000000000000000000000 %
b11100000001 (
b1011000 '
#1100000000
0!
#1106250000
1!
b11010010111 )
b101110000000000000000000000000000000000000000000000000000000000 %
b11010010111 (
b1011100 '
#1112500000
0!
#1118750000
1!
b11000011110 )
b110000000000000000000000000000000000000000000000000000000000000 %
b11000011110 (
b1100000 '
#1125000000
0!
#1131250000
1!
b10110010101 )
b110010000000000000000000000000000000000000000000000000000000000 %
b10110010101 (
b1100100 '
#1137500000
0!
#1143750000
1!
b10011111111 )
b110100000000000000000000000000000000000000000000000000000000000 %
b10011111111 (
b1101000 '
#1150000000
0!
#1156250000
1!
b10001011100 )
b110110000000000000000000000000000000000000000000000000000000000 %
b10001011100 (
b1101100 '
#1162500000
0!
#1168750000
1!
b1110101110 )
b111000000000000000000000000000000000000000000000000000000000000 %
b1110101110 (
b1110000 '
#1175000000
0!
#1181250000
1!
b1011111000 )
b111010000000000000000000000000000000000000000000000000000000000 %
b1011111000 (
b1110100 '
#1187500000
0!
#1193750000
1!
b1000111010 )
b111100000000000000000000000000000000000000000000000000000000000 %
b1000111010 (
b1111000 '
#1200000000
0!
#1206250000
1!
b101110110 )
b111110000000000000000000000000000000000000000000000000000000000 %
b101110110 (
b1111100 '
#1212500000
0!
#1218750000
1!
b10101111 )
b1000000000000000000000000000000000000000000000000000000000000000 %
b10101111 (
b10000000 '
#1225000000
0!
#1231250000
1!
b111111100111 )
b1000010000000000000000000000000000000000000000000000000000000000 %
b111111100111 (
b10000100 '
#1237500000
0!
#1243750000
1!
b111100011111 )
b1000100000000000000000000000000000000000000000000000000000000000 %
b111100011111 (
b10001000 '
#1250000000
0!
#1256250000
1!
b111001011001 )
b1000110000000000000000000000000000000000000000000000000000000000 %
b111001011001 (
b10001100 '
#1262500000
0!
#1268750000
1!
b110110010110 )
b1001000000000000000000000000000000000000000000000000000000000000 %
b110110010110 (
b10010000 '
#1275000000
0!
#1281250000
1!
b110011011010 )
b1001010000000000000000000000000000000000000000000000000000000000 %
b110011011010 (
b10010100 '
#1287500000
0!
#1293750000
1!
b110000100101 )
b1001100000000000000000000000000000000000000000000000000000000000 %
b110000100101 (
b10011000 '
#1300000000
0!
#1306250000
1!
b101101111010 )
b1001110000000000000000000000000000000000000000000000000000000000 %
b101101111010 (
b10011100 '
#1312500000
0!
#1318750000
1!
b101011011011 )
b1010000000000000000000000000000000000000000000000000000000000000 %
b101011011011 (
b10100000 '
#1325000000
0!
#1331250000
1!
b101001000111 )
b1010010000000000000000000000000000000000000000000000000000000000 %
b101001000111 (
b10100100 '
#1337500000
0!
#1343750000
1!
b100111000010 )
b1010100000000000000000000000000000000000000000000000000000000000 %
b100111000010 (
b10101000 '
#1350000000
0!
#1356250000
1!
b100101001101 )
b1010110000000000000000000000000000000000000000000000000000000000 %
b100101001101 (
b10101100 '
#1362500000
0!
#1368750000
1!
b100011101000 )
b1011000000000000000000000000000000000000000000000000000000000000 %
b100011101000 (
b10110000 '
#1375000000
0!
#1381250000
1!
b100010010100 )
b1011010000000000000000000000000000000000000000000000000000000000 %
b100010010100 (
b10110100 '
#1387500000
0!
#1393750000
1!
b100001010010 )
b1011100000000000000000000000000000000000000000000000000000000000 %
b100001010010 (
b10111000 '
#1400000000
0!
#1406250000
1!
b100000100100 )
b1011110000000000000000000000000000000000000000000000000000000000 %
b100000100100 (
b10111100 '
#1412500000
0!
#1418750000
1!
b100000001001 )
b1100000000000000000000000000000000000000000000000000000000000000 %
b100000001001 (
b11000000 '
#1425000000
0!
#1431250000
1!
b100000000010 )
b1100010000000000000000000000000000000000000000000000000000000000 %
b100000000010 (
b11000100 '
#1437500000
0!
#1443750000
1!
b100000001110 )
b1100100000000000000000000000000000000000000000000000000000000000 %
b100000001110 (
b11001000 '
#1450000000
0!
#1456250000
1!
b100000101110 )
b1100110000000000000000000000000000000000000000000000000000000000 %
b100000101110 (
b11001100 '
#1462500000
0!
#1468750000
1!
b100001100001 )
b1101000000000000000000000000000000000000000000000000000000000000 %
b100001100001 (
b11010000 '
#1475000000
0!
#1481250000
1!
b100010100111 )
b1101010000000000000000000000000000000000000000000000000000000000 %
b100010100111 (
b11010100 '
#1487500000
0!
#1493750000
1!
b100011111111 )
b1101100000000000000000000000000000000000000000000000000000000000 %
b100011111111 (
b11011000 '
#1500000000
0!
#1506250000
1!
b100101101001 )
b1101110000000000000000000000000000000000000000000000000000000000 %
b100101101001 (
b11011100 '
#1512500000
0!
#1518750000
1!
b100111100010 )
b1110000000000000000000000000000000000000000000000000000000000000 %
b100111100010 (
b11100000 '
