2.HLSImplementation/SineLUT/sine_cosine_generator_lut.vcd
$comment Generated by Amaranth $end
$date 2024-09-09 14:26:36.113346 $end
$timescale 1 fs $end
$scope module bench $end
$scope module top $end
$var wire 1 ! clk $end
$var wire 1 " rst $end
$var wire 1 # rst$2 $end
$var wire 1 $ sample_clock_ce $end
$var wire 64 % phase_accumulator $end
$var wire 64 & phase_increment $end
$var wire 8 ' rd_port_sine__addr $end
$var wire 12 ( sinewave $end
$var wire 12 ) rd_port_sine__data $end
$var wire 8 * rd_port_cosine__addr $end
$var wire 12 + cosinewave $end
$var wire 12 , rd_port_cosine__data $end
$var wire 12 / \memory[0] $end
$var wire 12 0 \memory[1] $end
$var wire 12 1 \memory[2] $end
$var wire 12 2 \memory[3] $end
$var wire 12 3 \memory[4] $end
$var wire 12 4 \memory[5] $end
$var wire 12 5 \memory[6] $end
$var wire 12 6 \memory[7] $end
$var wire 12 7 \memory[8] $end
$var wire 12 8 \memory[9] $end
$var wire 12 9 \memory[10] $end
$var wire 12 : \memory[11] $end
$var wire 12 ; \memory[12] $end
$var wire 12 < \memory[13] $end
$var wire 12 = \memory[14] $end
$var wire 12 > \memory[15] $end
$var wire 12 ? \memory[16] $end
$var wire 12 @ \memory[17] $end
$var wire 12 A \memory[18] $end
$var wire 12 B \memory[19] $end
$var wire 12 C \memory[20] $end
$var wire 12 D \memory[21] $end
$var wire 12 E \memory[22] $end
$var wire 12 F \memory[23] $end
$var wire 12 G \memory[24] $end
$var wire 12 H \memory[25] $end
$var wire 12 I \memory[26] $end
$var wire 12 J \memory[27] $end
$var wire 12 K \memory[28] $end
$var wire 12 L \memory[29] $end
$var wire 12 M \memory[30] $end
$var wire 12 N \memory[31] $end
$var wire 12 O \memory[32] $end
$var wire 12 P \memory[33] $end
$var wire 12 Q \memory[34] $end
$var wire 12 R \memory[35] $end
$var wire 12 S \memory[36] $end
$var wire 12 T \memory[37] $end
$var wire 12 U \memory[38] $end
$var wire 12 V \memory[39] $end
$var wire 12 W \memory[40] $end
$var wire 12 X \memory[41] $end
$var wire 12 Y \memory[42] $end
$var wire 12 Z \memory[43] $end
$var wire 12 [ \memory[44] $end
$var wire 12 \ \memory[45] $end
$var wire 12 ] \memory[46] $end
$var wire 12 ^ \memory[47] $end
$var wire 12 _ \memory[48] $end
$var wire 12 ` \memory[49] $end
$var wire 12 a \memory[50] $end
$var wire 12 b \memory[51] $end
$var wire 12 c \memory[52] $end
$var wire 12 d \memory[53] $end
$var wire 12 e \memory[54] $end
$var wire 12 f \memory[55] $end
$var wire 12 g \memory[56] $end
$var wire 12 h \memory[57] $end
$var wire 12 i \memory[58] $end
$var wire 12 j \memory[59] $end
$var wire 12 k \memory[60] $end
$var wire 12 l \memory[61] $end
$var wire 12 m \memory[62] $end
$var wire 12 n \memory[63] $end
$var wire 12 o \memory[64] $end
$var wire 12 p \memory[65] $end
$var wire 12 q \memory[66] $end
$var wire 12 r \memory[67] $end
$var wire 12 s \memory[68] $end
$var wire 12 t \memory[69] $end
$var wire 12 u \memory[70] $end
$var wire 12 v \memory[71] $end
$var wire 12 w \memory[72] $end
$var wire 12 x \memory[73] $end
$var wire 12 y \memory[74] $end
$var wire 12 z \memory[75] $end
$var wire 12 { \memory[76] $end
$var wire 12 | \memory[77] $end
$var wire 12 } \memory[78] $end
$var wire 12 ~ \memory[79] $end
$var wire 12 !! \memory[80] $end
$var wire 12 "! \memory[81] $end
$var wire 12 #! \memory[82] $end
$var wire 12 $! \memory[83] $end
$var wire 12 %! \memory[84] $end
$var wire 12 &! \memory[85] $end
$var wire 12 '! \memory[86] $end
$var wire 12 (! \memory[87] $end
$var wire 12 )! \memory[88] $end
$var wire 12 *! \memory[89] $end
$var wire 12 +! \memory[90] $end
$var wire 12 ,! \memory[91] $end
$var wire 12 -! \memory[92] $end
$var wire 12 .! \memory[93] $end
$var wire 12 /! \memory[94] $end
$var wire 12 0! \memory[95] $end
$var wire 12 1! \memory[96] $end
$var wire 12 2! \memory[97] $end
$var wire 12 3! \memory[98] $end
$var wire 12 4! \memory[99] $end
$var wire 12 5! \memory[100] $end
$var wire 12 6! \memory[101] $end
$var wire 12 7! \memory[102] $end
$var wire 12 8! \memory[103] $end
$var wire 12 9! \memory[104] $end
$var wire 12 :! \memory[105] $end
$var wire 12 ;! \memory[106] $end
$var wire 12 <! \memory[107] $end
$var wire 12 =! \memory[108] $end
$var wire 12 >! \memory[109] $end
$var wire 12 ?! \memory[110] $end
$var wire 12 @! \memory[111] $end
$var wire 12 A! \memory[112] $end
$var wire 12 B! \memory[113] $end
$var wire 12 C! \memory[114] $end
$var wire 12 D! \memory[115] $end
$var wire 12 E! \memory[116] $end
$var wire 12 F! \memory[117] $end
$var wire 12 G! \memory[118] $end
$var wire 12 H! \memory[119] $end
$var wire 12 I! \memory[120] $end
$var wire 12 J! \memory[121] $end
$var wire 12 K! \memory[122] $end
$var wire 12 L! \memory[123] $end
$var wire 12 M! \memory[124] $end
$var wire 12 N! \memory[125] $end
$var wire 12 O! \memory[126] $end
$var wire 12 P! \memory[127] $end
$var wire 12 Q! \memory[128] $end
$var wire 12 R! \memory[129] $end
$var wire 12 S! \memory[130] $end
$var wire 12 T! \memory[131] $end
$var wire 12 U! \memory[132] $end
$var wire 12 V! \memory[133] $end
$var wire 12 W! \memory[134] $end
$var wire 12 X! \memory[135] $end
$var wire 12 Y! \memory[136] $end
$var wire 12 Z! \memory[137] $end
$var wire 12 [! \memory[138] $end
$var wire 12 \! \memory[139] $end
$var wire 12 ]! \memory[140] $end
$var wire 12 ^! \memory[141] $end
$var wire 12 _! \memory[142] $end
$var wire 12 `! \memory[143] $end
$var wire 12 a! \memory[144] $end
$var wire 12 b! \memory[145] $end
$var wire 12 c! \memory[146] $end
$var wire 12 d! \memory[147] $end
$var wire 12 e! \memory[148] $end
$var wire 12 f! \memory[149] $end
$var wire 12 g! \memory[150] $end
$var wire 12 h! \memory[151] $end
$var wire 12 i! \memory[152] $end
$var wire 12 j! \memory[153] $end
$var wire 12 k! \memory[154] $end
$var wire 12 l! \memory[155] $end
$var wire 12 m! \memory[156] $end
$var wire 12 n! \memory[157] $end
$var wire 12 o! \memory[158] $end
$var wire 12 p! \memory[159] $end
$var wire 12 q! \memory[160] $end
$var wire 12 r! \memory[161] $end
$var wire 12 s! \memory[162] $end
$var wire 12 t! \memory[163] $end
$var wire 12 u! \memory[164] $end
$var wire 12 v! \memory[165] $end
$var wire 12 w! \memory[166] $end
$var wire 12 x! \memory[167] $end
$var wire 12 y! \memory[168] $end
$var wire 12 z! \memory[169] $end
$var wire 12 {! \memory[170] $end
$var wire 12 |! \memory[171] $end
$var wire 12 }! \memory[172] $end
$var wire 12 ~! \memory[173] $end
$var wire 12 !" \memory[174] $end
$var wire 12 "" \memory[175] $end
$var wire 12 #" \memory[176] $end
$var wire 12 $" \memory[177] $end
$var wire 12 %" \memory[178] $end
$var wire 12 &" \memory[179] $end
$var wire 12 '" \memory[180] $end
$var wire 12 (" \memory[181] $end
$var wire 12 )" \memory[182] $end
$var wire 12 *" \memory[183] $end
$var wire 12 +" \memory[184] $end
$var wire 12 ," \memory[185] $end
$var wire 12 -" \memory[186] $end
$var wire 12 ." \memory[187] $end
$var wire 12 /" \memory[188] $end
$var wire 12 0" \memory[189] $end
$var wire 12 1" \memory[190] $end
$var wire 12 2" \memory[191] $end
$var wire 12 3" \memory[192] $end
$var wire 12 4" \memory[193] $end
$var wire 12 5" \memory[194] $end
$var wire 12 6" \memory[195] $end
$var wire 12 7" \memory[196] $end
$var wire 12 8" \memory[197] $end
$var wire 12 9" \memory[198] $end
$var wire 12 :" \memory[199] $end
$var wire 12 ;" \memory[200] $end
$var wire 12 <" \memory[201] $end
$var wire 12 =" \memory[202] $end
$var wire 12 >" \memory[203] $end
$var wire 12 ?" \memory[204] $end
$var wire 12 @" \memory[205] $end
$var wire 12 A" \memory[206] $end
$var wire 12 B" \memory[207] $end
$var wire 12 C" \memory[208] $end
$var wire 12 D" \memory[209] $end
$var wire 12 E" \memory[210] $end
$var wire 12 F" \memory[211] $end
$var wire 12 G" \memory[212] $end
$var wire 12 H" \memory[213] $end
$var wire 12 I" \memory[214] $end
$var wire 12 J" \memory[215] $end
$var wire 12 K" \memory[216] $end
$var wire 12 L" \memory[217] $end
$var wire 12 M" \memory[218] $end
$var wire 12 N" \memory[219] $end
$var wire 12 O" \memory[220] $end
$var wire 12 P" \memory[221] $end
$var wire 12 Q" \memory[222] $end
$var wire 12 R" \memory[223] $end
$var wire 12 S" \memory[224] $end
$var wire 12 T" \memory[225] $end
$var wire 12 U" \memory[226] $end
$var wire 12 V" \memory[227] $end
$var wire 12 W" \memory[228] $end
$var wire 12 X" \memory[229] $end
$var wire 12 Y" \memory[230] $end
$var wire 12 Z" \memory[231] $end
$var wire 12 [" \memory[232] $end
$var wire 12 \" \memory[233] $end
$var wire 12 ]" \memory[234] $end
$var wire 12 ^" \memory[235] $end
$var wire 12 _" \memory[236] $end
$var wire 12 `" \memory[237] $end
$var wire 12 a" \memory[238] $end
$var wire 12 b" \memory[239] $end
$var wire 12 c" \memory[240] $end
$var wire 12 d" \memory[241] $end
$var wire 12 e" \memory[242] $end
$var wire 12 f" \memory[243] $end
$var wire 12 g" \memory[244] $end
$var wire 12 h" \memory[245] $end
$var wire 12 i" \memory[246] $end
$var wire 12 j" \memory[247] $end
$var wire 12 k" \memory[248] $end
$var wire 12 l" \memory[249] $end
$var wire 12 m" \memory[250] $end
$var wire 12 n" \memory[251] $end
$var wire 12 o" \memory[252] $end
$var wire 12 p" \memory[253] $end
$var wire 12 q" \memory[254] $end
$var wire 12 r" \memory[255] $end
$scope module memory $end
$var wire 1 ! clk $end
$var wire 1 " rst $end
$var wire 8 ' rd_port_sine__addr $end
$var wire 12 ) rd_port_sine__data $end
$var wire 8 * rd_port_cosine__addr $end
$var wire 12 , rd_port_cosine__data $end
$var wire 1 - rd_port_sine__en $end
$var wire 1 . rd_port_cosine__en $end
$upscope $end
$upscope $end
$upscope $end
$enddefinitions $end
#0
$dumpvars
0!
0"
1#
0$
b0 %
b0 &
b0 '
b0 (
b0 )
b1000000 *
b0 +
b0 ,
1-
1.
b11001 /
b1001011 0
b1111101 1
b10101111 2
b11100001 3
b100010011 4
b101000101 5
b101110110 6
b110100111 7
b111011000 8
b1000001001 9
b1000111010 :
b1001101010 ;
b1010011001 <
b1011001001 =
b1011111000 >
b1100100110 ?
b1101010100 @
b1110000001 A
b1110101110 B
b1111011011 C
b10000000110 D
b10000110001 E
b10001011100 F
b10010000110 G
b10010101111 H
b10011010111 I
b10011111111 J
b10100100101 K
b10101001011 L
b10101110001 M
b10110010101 N
b10110111001 O
b10111011011 P
b10111111101 Q
b11000011110 R
b11000111110 S
b11001011101 T
b11001111011 U
b11010010111 V
b11010110011 W
b11011001110 X
b11011101000 Y
b11100000001 Z
b11100011000 [
b11100101111 \
b11101000101 ]
b11101011001 ^
b11101101100 _
b11101111110 `
b11110001111 a
b11110011111 b
b11110101110 c
b11110111011 d
b11111000111 e
b11111010010 f
b11111011100 g
b11111100101 h
b11111101100 i
b11111110010 j
b11111110111 k
b11111111011 l
b11111111101 m
b11111111110 n
b11111111110 o
b11111111101 p
b11111111011 q
b11111110111 r
b11111110010 s
b11111101100 t
b11111100101 u
b11111011100 v
b11111010010 w
b11111000111 x
b11110111011 y
b11110101110 z
b11110011111 {
b11110001111 |
b11101111110 }
b11101101100 ~
b11101011001 !!
b11101000101 "!
b11100101111 #!
b11100011000 $!
b11100000001 %!
b11011101000 &!
b11011001110 '!
b11010110011 (!
b11010010111 )!
b11001111011 *!
b11001011101 +!
b11000111110 ,!
b11000011110 -!
b10111111101 .!
b10111011011 /!
b10110111001 0!
b10110010101 1!
b10101110001 2!
b10101001011 3!
b10100100101 4!
b10011111111 5!
b10011010111 6!
b10010101111 7!
b10010000110 8!
b10001011100 9!
b10000110001 :!
b10000000110 ;!
b1111011011 <!
b1110101110 =!
b1110000001 >!
b1101010100 ?!
b1100100110 @!
b1011111000 A!
b1011001001 B!
b1010011001 C!
b1001101010 D!
b1000111010 E!
b1000001001 F!
b111011000 G!
b110100111 H!
b101110110 I!
b101000101 J!
b100010011 K!
b11100001 L!
b10101111 M!
b1111101 N!
b1001011 O!
b11001 P!
b111111100111 Q!
b111110110101 R!
b111110000011 S!
b111101010001 T!
b111100011111 U!
b111011101101 V!
b111010111011 W!
b111010001010 X!
b111001011001 Y!
b111000101000 Z!
b110111110111 [!
b110111000110 \!
b110110010110 ]!
b110101100111 ^!
b110100110111 _!
b110100001000 `!
b110011011010 a!
b110010101100 b!
b110001111111 c!
b110001010010 d!
b110000100101 e!
b101111111010 f!
b101111001111 g!
b101110100100 h!
b101101111010 i!
b101101010001 j!
b101100101001 k!
b101100000001 l!
b101011011011 m!
b101010110101 n!
b101010001111 o!
b101001101011 p!
b101001000111 q!
b101000100101 r!
b101000000011 s!
b100111100010 t!
b100111000010 u!
b100110100011 v!
b100110000101 w!
b100101101001 x!
b100101001101 y!
b100100110010 z!
b100100011000 {!
b100011111111 |!
b100011101000 }!
b100011010001 ~!
b100010111011 !"
b100010100111 ""
b100010010100 #"
b100010000010 $"
b100001110001 %"
b100001100001 &"
b100001010010 '"
b100001000101 ("
b100000111001 )"
b100000101110 *"
b100000100100 +"
b100000011011 ,"
b100000010100 -"
b100000001110 ."
b100000001001 /"
b100000000101 0"
b100000000011 1"
b100000000010 2"
b100000000010 3"
b100000000011 4"
b100000000101 5"
b100000001001 6"
b100000001110 7"
b100000010100 8"
b100000011011 9"
b100000100100 :"
b100000101110 ;"
b100000111001 <"
b100001000101 ="
b100001010010 >"
b100001100001 ?"
b100001110001 @"
b100010000010 A"
b100010010100 B"
b100010100111 C"
b100010111011 D"
b100011010001 E"
b100011101000 F"
b100011111111 G"
b100100011000 H"
b100100110010 I"
b100101001101 J"
b100101101001 K"
b100110000101 L"
b100110100011 M"
b100111000010 N"
b100111100010 O"
b101000000011 P"
b101000100101 Q"
b101001000111 R"
b101001101011 S"
b101010001111 T"
b101010110101 U"
b101011011011 V"
b101100000001 W"
b101100101001 X"
b101101010001 Y"
b101101111010 Z"
b101110100100 ["
b101111001111 \"
b101111111010 ]"
b110000100101 ^"
b110001010010 _"
b110001111111 `"
b110010101100 a"
b110011011010 b"
b110100001000 c"
b110100110111 d"
b110101100111 e"
b110110010110 f"
b110111000110 g"
b110111110111 h"
b111000101000 i"
b111001011001 j"
b111010001010 k"
b111010111011 l"
b111011101101 m"
b111100011111 n"
b111101010001 o"
b111110000011 p"
b111110110101 q"
b111111100111 r"
$end
#6250000
1!
b11111111110 ,
b11001 )
b11001 (
b11111111110 +
0#
#12500000
0!
#18750000
1!
1$
b10000000000000000000000000000000000000000000000000000000000 &
#25000000
0!
#31250000
1!
b10000000000000000000000000000000000000000000000000000000000 %
b100 '
b1000100 *
#37500000
0!
#43750000
1!
b11111110010 ,
b100000000000000000000000000000000000000000000000000000000000 %
b11100001 )
b11100001 (
b1000 '
b11111110010 +
b1001000 *
#50000000
0!
#56250000
1!
b11111010010 ,
b110000000000000000000000000000000000000000000000000000000000 %
b110100111 )
b110100111 (
b1100 '
b11111010010 +
b1001100 *
#62500000
0!
#68750000
1!
b11110011111 ,
b1000000000000000000000000000000000000000000000000000000000000 %
b1001101010 )
b1001101010 (
b10000 '
b11110011111 +
b1010000 *
#75000000
0!
#81250000
1!
b11101011001 ,
b1010000000000000000000000000000000000000000000000000000000000 %
b1100100110 )
b1100100110 (
b10100 '
b11101011001 +
b1010100 *
#87500000
0!
#93750000
1!
b11100000001 ,
b1100000000000000000000000000000000000000000000000000000000000 %
b1111011011 )
b1111011011 (
b11000 '
b11100000001 +
b1011000 *
#100000000
0!
#106250000
1!
b11010010111 ,
b1110000000000000000000000000000000000000000000000000000000000 %
b10010000110 )
b10010000110 (
b11100 '
b11010010111 +
b1011100 *
#112500000
0!
#118750000
1!
b11000011110 ,
b10000000000000000000000000000000000000000000000000000000000000 %
b10100100101 )
b10100100101 (
b100000 '
b11000011110 +
b1100000 *
#125000000
0!
#131250000
1!
b10110010101 ,
b10010000000000000000000000000000000000000000000000000000000000 %
b10110111001 )
b10110111001 (
b100100 '
b10110010101 +
b1100100 *
#137500000
0!
#143750000
1!
b10011111111 ,
b10100000000000000000000000000000000000000000000000000000000000 %
b11000111110 )
b11000111110 (
b101000 '
b10011111111 +
b1101000 *
#150000000
0!
#156250000
1!
b10001011100 ,
b10110000000000000000000000000000000000000000000000000000000000 %
b11010110011 )
b11010110011 (
b101100 '
b10001011100 +
b1101100 *
#162500000
0!
#168750000
1!
b1110101110 ,
b11000000000000000000000000000000000000000000000000000000000000 %
b11100011000 )
b11100011000 (
b110000 '
b1110101110 +
b1110000 *
#175000000
0!
#181250000
1!
b1011111000 ,
b11010000000000000000000000000000000000000000000000000000000000 %
b11101101100 )
b11101101100 (
b110100 '
b1011111000 +
b1110100 *
#187500000
0!
#193750000
1!
b1000111010 ,
b11100000000000000000000000000000000000000000000000000000000000 %
b11110101110 )
b11110101110 (
b111000 '
b1000111010 +
b1111000 *
#200000000
0!
#206250000
1!
b101110110 ,
b11110000000000000000000000000000000000000000000000000000000000 %
b11111011100 )
b11111011100 (
b111100 '
b101110110 +
b1111100 *
#212500000
0!
#218750000
1!
b10101111 ,
b100000000000000000000000000000000000000000000000000000000000000 %
b11111110111 )
b11111110111 (
b1000000 '
b10101111 +
b10000000 *
#225000000
0!
#231250000
1!
b111111100111 ,
b100010000000000000000000000000000000000000000000000000000000000 %
b11111111110 )
b11111111110 (
b1000100 '
b111111100111 +
b10000100 *
#237500000
0!
#243750000
1!
b111100011111 ,
b100100000000000000000000000000000000000000000000000000000000000 %
b11111110010 )
b11111110010 (
b1001000 '
b111100011111 +
b10001000 *
#250000000
0!
#256250000
1!
b111001011001 ,
b100110000000000000000000000000000000000000000000000000000000000 %
b11111010010 )
b11111010010 (
b1001100 '
b111001011001 +
b10001100 *
#262500000
0!
#268750000
1!
b110110010110 ,
b101000000000000000000000000000000000000000000000000000000000000 %
b11110011111 )
b11110011111 (
b1010000 '
b110110010110 +
b10010000 *
#275000000
0!
#281250000
1!
b110011011010 ,
b101010000000000000000000000000000000000000000000000000000000000 %
b11101011001 )
b11101011001 (
b1010100 '
b110011011010 +
b10010100 *
#287500000
0!
#293750000
1!
b110000100101 ,
b101100000000000000000000000000000000000000000000000000000000000 %
b11100000001 )
b11100000001 (
b1011000 '
b110000100101 +
b10011000 *
#300000000
0!
#306250000
1!
b101101111010 ,
b101110000000000000000000000000000000000000000000000000000000000 %
b11010010111 )
b11010010111 (
b1011100 '
b101101111010 +
b10011100 *
#312500000
0!
#318750000
1!
b101011011011 ,
b110000000000000000000000000000000000000000000000000000000000000 %
b11000011110 )
b11000011110 (
b1100000 '
b101011011011 +
b10100000 *
#325000000
0!
#331250000
1!
b101001000111 ,
b110010000000000000000000000000000000000000000000000000000000000 %
b10110010101 )
b10110010101 (
b1100100 '
b101001000111 +
b10100100 *
#337500000
0!
#343750000
1!
b100111000010 ,
b110100000000000000000000000000000000000000000000000000000000000 %
b10011111111 )
b10011111111 (
b1101000 '
b100111000010 +
b10101000 *
#350000000
0!
#356250000
1!
b100101001101 ,
b110110000000000000000000000000000000000000000000000000000000000 %
b10001011100 )
b10001011100 (
b1101100 '
b100101001101 +
b10101100 *
#362500000
0!
#368750000
1!
b100011101000 ,
b111000000000000000000000000000000000000000000000000000000000000 %
b1110101110 )
b1110101110 (
b1110000 '
b100011101000 +
b10110000 *
#375000000
0!
#381250000
1!
b100010010100 ,
b111010000000000000000000000000000000000000000000000000000000000 %
b1011111000 )
b1011111000 (
b1110100 '
b100010010100 +
b10110100 *
#387500000
0!
#393750000
1!
b100001010010 ,
b111100000000000000000000000000000000000000000000000000000000000 %
b1000111010 )
b1000111010 (
b1111000 '
b100001010010 +
b10111000 *
#400000000
0!
#406250000
1!
b100000100100 ,
b111110000000000000000000000000000000000000000000000000000000000 %
b101110110 )
b101110110 (
b1111100 '
b100000100100 +
b10111100 *
#412500000
0!
#418750000
1!
b100000001001 ,
b1000000000000000000000000000000000000000000000000000000000000000 %
b10101111 )
b10101111 (
b10000000 '
b100000001001 +
b11000000 *
#425000000
0!
#431250000
1!
b100000000010 ,
b1000010000000000000000000000000000000000000000000000000000000000 %
b111111100111 )
b111111100111 (
b10000100 '
b100000000010 +
b11000100 *
#437500000
0!
#443750000
1!
b100000001110 ,
b1000100000000000000000000000000000000000000000000000000000000000 %
b111100011111 )
b111100011111 (
b10001000 '
b100000001110 +
b11001000 *
#450000000
0!
#456250000
1!
b100000101110 ,
b1000110000000000000000000000000000000000000000000000000000000000 %
b111001011001 )
b111001011001 (
b10001100 '
b100000101110 +
b11001100 *
#462500000
0!
#468750000
1!
b100001100001 ,
b1001000000000000000000000000000000000000000000000000000000000000 %
b110110010110 )
b110110010110 (
b10010000 '
b100001100001 +
b11010000 *
#475000000
0!
#481250000
1!
b100010100111 ,
b1001010000000000000000000000000000000000000000000000000000000000 %
b110011011010 )
b110011011010 (
b10010100 '
b100010100111 +
b11010100 *
#487500000
0!
#493750000
1!
b100011111111 ,
b1001100000000000000000000000000000000000000000000000000000000000 %
b110000100101 )
b110000100101 (
b10011000 '
b100011111111 +
b11011000 *
#500000000
0!
#506250000
1!
b100101101001 ,
b1001110000000000000000000000000000000000000000000000000000000000 %
b101101111010 )
b101101111010 (
b10011100 '
b100101101001 +
b11011100 *
#512500000
0!
#518750000
1!
b100111100010 ,
b1010000000000000000000000000000000000000000000000000000000000000 %
b101011011011 )
b101011011011 (
b10100000 '
b100111100010 +
b11100000 *
#525000000
0!
#531250000
1!
b101001101011 ,
b1010010000000000000000000000000000000000000000000000000000000000 %
b101001000111 )
b101001000111 (
b10100100 '
b101001101011 +
b11100100 *
#537500000
0!
#543750000
1!
b101100000001 ,
b1010100000000000000000000000000000000000000000000000000000000000 %
b100111000010 )
b100111000010 (
b10101000 '
b101100000001 +
b11101000 *
#550000000
0!
#556250000
1!
b101110100100 ,
b1010110000000000000000000000000000000000000000000000000000000000 %
b100101001101 )
b100101001101 (
b10101100 '
b101110100100 +
b11101100 *
#562500000
0!
#568750000
1!
b110001010010 ,
b1011000000000000000000000000000000000000000000000000000000000000 %
b100011101000 )
b100011101000 (
b10110000 '
b110001010010 +
b11110000 *
#575000000
0!
#581250000
1!
b110100001000 ,
b1011010000000000000000000000000000000000000000000000000000000000 %
b100010010100 )
b100010010100 (
b10110100 '
b110100001000 +
b11110100 *
#587500000
0!
#593750000
1!
b110111000110 ,
b1011100000000000000000000000000000000000000000000000000000000000 %
b100001010010 )
b100001010010 (
b10111000 '
b110111000110 +
b11111000 *
#600000000
0!
#606250000
1!
b111010001010 ,
b1011110000000000000000000000000000000000000000000000000000000000 %
b100000100100 )
b100000100100 (
b10111100 '
b111010001010 +
b11111100 *
#612500000
0!
#618750000
1!
b111101010001 ,
b1100000000000000000000000000000000000000000000000000000000000000 %
b100000001001 )
b100000001001 (
b11000000 '
b111101010001 +
b0 *
#625000000
0!
#631250000
1!
b11001 ,
b1100010000000000000000000000000000000000000000000000000000000000 %
b100000000010 )
b100000000010 (
b11000100 '
b11001 +
b100 *
#637500000
0!
#643750000
1!
b11100001 ,
b1100100000000000000000000000000000000000000000000000000000000000 %
b100000001110 )
b100000001110 (
b11001000 '
b11100001 +
b1000 *
#650000000
0!
#656250000
1!
b110100111 ,
b1100110000000000000000000000000000000000000000000000000000000000 %
b100000101110 )
b100000101110 (
b11001100 '
b110100111 +
b1100 *
#662500000
0!
#668750000
1!
b1001101010 ,
b1101000000000000000000000000000000000000000000000000000000000000 %
b100001100001 )
b100001100001 (
b11010000 '
b1001101010 +
b10000 *
#675000000
0!
#681250000
1!
b1100100110 ,
b1101010000000000000000000000000000000000000000000000000000000000 %
b100010100111 )
b100010100111 (
b11010100 '
b1100100110 +
b10100 *
#687500000
0!
#693750000
1!
b1111011011 ,
b1101100000000000000000000000000000000000000000000000000000000000 %
b100011111111 )
b100011111111 (
b11011000 '
b1111011011 +
b11000 *
#700000000
0!
#706250000
1!
b10010000110 ,
b1101110000000000000000000000000000000000000000000000000000000000 %
b100101101001 )
b100101101001 (
b11011100 '
b10010000110 +
b11100 *
#712500000
0!
#718750000
1!
b10100100101 ,
b1110000000000000000000000000000000000000000000000000000000000000 %
b100111100010 )
b100111100010 (
b11100000 '
b10100100101 +
b100000 *
#725000000
0!
#731250000
1!
b10110111001 ,
b1110010000000000000000000000000000000000000000000000000000000000 %
b101001101011 )
b101001101011 (
b11100100 '
b10110111001 +
b100100 *
#737500000
0!
#743750000
1!
b11000111110 ,
b1110100000000000000000000000000000000000000000000000000000000000 %
b101100000001 )
b101100000001 (
b11101000 '
b11000111110 +
b101000 *
#750000000
0!
#756250000
1!
b11010110011 ,
b1110110000000000000000000000000000000000000000000000000000000000 %
b101110100100 )
b101110100100 (
b11101100 '
b11010110011 +
b101100 *
#762500000
0!
#768750000
1!
b11100011000 ,
b1111000000000000000000000000000000000000000000000000000000000000 %
b110001010010 )
b110001010010 (
b11110000 '
b11100011000 +
b110000 *
#775000000
0!
#781250000
1!
b11101101100 ,
b1111010000000000000000000000000000000000000000000000000000000000 %
b110100001000 )
b110100001000 (
b11110100 '
b11101101100 +
b110100 *
#787500000
0!
#793750000
1!
b11110101110 ,
b1111100000000000000000000000000000000000000000000000000000000000 %
b110111000110 )
b110111000110 (
b11111000 '
b11110101110 +
b111000 *
#800000000
0!
#806250000
1!
b11111011100 ,
b1111110000000000000000000000000000000000000000000000000000000000 %
b111010001010 )
b111010001010 (
b11111100 '
b11111011100 +
b111100 *
#812500000
0!
#818750000
1!
b11111110111 ,
b0 %
b111101010001 )
b111101010001 (
b0 '
b11111110111 +
b1000000 *
#825000000
0!
#831250000
1!
b11111111110 ,
b10000000000000000000000000000000000000000000000000000000000 %
b11001 )
b11001 (
b100 '
b11111111110 +
b1000100 *
#837500000
0!
#843750000
1!
b11111110010 ,
b100000000000000000000000000000000000000000000000000000000000 %
b11100001 )
b11100001 (
b1000 '
b11111110010 +
b1001000 *
#850000000
0!
#856250000
1!
b11111010010 ,
b110000000000000000000000000000000000000000000000000000000000 %
b110100111 )
b110100111 (
b1100 '
b11111010010 +
b1001100 *
#862500000
0!
#868750000
1!
b11110011111 ,
b1000000000000000000000000000000000000000000000000000000000000 %
b1001101010 )
b1001101010 (
b10000 '
b11110011111 +
b1010000 *
#875000000
0!
#881250000
1!
b11101011001 ,
b1010000000000000000000000000000000000000000000000000000000000 %
b1100100110 )
b1100100110 (
b10100 '
b11101011001 +
b1010100 *
#887500000
0!
#893750000
1!
b11100000001 ,
b1100000000000000000000000000000000000000000000000000000000000 %
b1111011011 )
b1111011011 (
b11000 '
b11100000001 +
b1011000 *
#900000000
0!
#906250000
1!
b11010010111 ,
b1110000000000000000000000000000000000000000000000000000000000 %
b10010000110 )
b10010000110 (
b11100 '
b11010010111 +
b1011100 *
#912500000
0!
#918750000
1!
b11000011110 ,
b10000000000000000000000000000000000000000000000000000000000000 %
b10100100101 )
b10100100101 (
b100000 '
b11000011110 +
b1100000 *
#925000000
0!
#931250000
1!
b10110010101 ,
b10010000000000000000000000000000000000000000000000000000000000 %
b10110111001 )
b10110111001 (
b100100 '
b10110010101 +
b1100100 *
#937500000
0!
#943750000
1!
b10011111111 ,
b10100000000000000000000000000000000000000000000000000000000000 %
b11000111110 )
b11000111110 (
b101000 '
b10011111111 +
b1101000 *
#950000000
0!
#956250000
1!
b10001011100 ,
b10110000000000000000000000000000000000000000000000000000000000 %
b11010110011 )
b11010110011 (
b101100 '
b10001011100 +
b1101100 *
#962500000
0!
#968750000
1!
b1110101110 ,
b11000000000000000000000000000000000000000000000000000000000000 %
b11100011000 )
b11100011000 (
b110000 '
b1110101110 +
b1110000 *
#975000000
0!
#981250000
1!
b1011111000 ,
b11010000000000000000000000000000000000000000000000000000000000 %
b11101101100 )
b11101101100 (
b110100 '
b1011111000 +
b1110100 *
#987500000
0!
#993750000
1!
b1000111010 ,
b11100000000000000000000000000000000000000000000000000000000000 %
b11110101110 )
b11110101110 (
b111000 '
b1000111010 +
b1111000 *
#1000000000
0!
#1006250000
1!
b101110110 ,
b11110000000000000000000000000000000000000000000000000000000000 %
b11111011100 )
b11111011100 (
b111100 '
b101110110 +
b1111100 *
#1012500000
0!
#1018750000
1!
b10101111 ,
b100000000000000000000000000000000000000000000000000000000000000 %
b11111110111 )
b11111110111 (
b1000000 '
b10101111 +
b10000000 *
#1025000000
0!
#1031250000
1!
b111111100111 ,
b100010000000000000000000000000000000000000000000000000000000000 %
b11111111110 )
b11111111110 (
b1000100 '
b111111100111 +
b10000100 *
#1037500000
0!
#1043750000
1!
b111100011111 ,
b100100000000000000000000000000000000000000000000000000000000000 %
b11111110010 )
b11111110010 (
b1001000 '
b111100011111 +
b10001000 *
#1050000000
0!
#1056250000
1!
b111001011001 ,
b100110000000000000000000000000000000000000000000000000000000000 %
b11111010010 )
b11111010010 (
b1001100 '
b111001011001 +
b10001100 *
#1062500000
0!
#1068750000
1!
b110110010110 ,
b101000000000000000000000000000000000000000000000000000000000000 %
b11110011111 )
b11110011111 (
b1010000 '
b110110010110 +
b10010000 *
#1075000000
0!
#1081250000
1!
b110011011010 ,
b101010000000000000000000000000000000000000000000000000000000000 %
b11101011001 )
b11101011001 (
b1010100 '
b110011011010 +
b10010100 *
#1087500000
0!
#1093750000
1!
b110000100101 ,
b101100000000000000000000000000000000000000000000000000000000000 %
b11100000001 )
b11100000001 (
b1011000 '
b110000100101 +
b10011000 *
#1100000000
0!
