2.HLSImplementation/Examples/1.Blinky/Blinky.vcd
$comment Generated by Amaranth $end
$date 2024-09-09 16:48:41.478281 $end
$timescale 1 fs $end
$scope module bench $end
$scope module top $end
$var wire 1 ! clk $end
$var wire 1 " rst $end
$var wire 21 # count $end
$var wire 8 $ leds $end
$upscope $end
$upscope $end
$enddefinitions $end
#0
$dumpvars
0!
0"
b0 #
b0 $
$end
#500000000
1!
b1 #
#1000000000
0!
#1500000000
1!
b10 #
#2000000000
0!
#2500000000
1!
b11 #
#3000000000
0!
#3500000000
1!
b100 #
#4000000000
0!
#4500000000
1!
b101 #
#5000000000
0!
#5500000000
1!
b110 #
#6000000000
0!
#6500000000
1!
b111 #
#7000000000
0!
#7500000000
1!
b1000 #
#8000000000
0!
#8500000000
1!
b1001 #
#9000000000
0!
#9500000000
1!
b1010 #
#10000000000
0!
#10500000000
1!
b1011 #
#11000000000
0!
#11500000000
1!
b1100 #
#12000000000
0!
#12500000000
1!
b1101 #
#13000000000
0!
#13500000000
1!
b1110 #
#14000000000
0!
#14500000000
1!
b1111 #
#15000000000
0!
#15500000000
1!
b10000 #
#16000000000
0!
#16500000000
1!
b10001 #
#17000000000
0!
#17500000000
1!
b10010 #
#18000000000
0!
#18500000000
1!
b10011 #
#19000000000
0!
#19500000000
1!
b10100 #
#20000000000
0!
#20500000000
1!
b10101 #
#21000000000
0!
#21500000000
1!
b10110 #
#22000000000
0!
#22500000000
1!
b10111 #
#23000000000
0!
#23500000000
1!
b11000 #
#24000000000
0!
#24500000000
1!
b11001 #
#25000000000
0!
#25500000000
1!
b11010 #
#26000000000
0!
#26500000000
1!
b11011 #
#27000000000
0!
#27500000000
1!
b11100 #
#28000000000
0!
#28500000000
1!
b11101 #
#29000000000
0!
#29500000000
1!
b11110 #
#30000000000
0!
#30500000000
1!
b11111 #
#31000000000
0!
#31500000000
1!
b100000 #
#32000000000
0!
#32500000000
1!
b100001 #
#33000000000
0!
#33500000000
1!
b100010 #
#34000000000
0!
#34500000000
1!
b100011 #
#35000000000
0!
#35500000000
1!
b100100 #
#36000000000
0!
#36500000000
1!
b100101 #
#37000000000
0!
#37500000000
1!
b100110 #
#38000000000
0!
#38500000000
1!
b100111 #
#39000000000
0!
#39500000000
1!
b101000 #
#40000000000
0!
#40500000000
1!
b101001 #
#41000000000
0!
#41500000000
1!
b101010 #
#42000000000
0!
#42500000000
1!
b101011 #
#43000000000
0!
#43500000000
1!
b101100 #
#44000000000
0!
#44500000000
1!
b101101 #
#45000000000
0!
#45500000000
1!
b101110 #
#46000000000
0!
#46500000000
1!
b101111 #
#47000000000
0!
#47500000000
1!
b110000 #
#48000000000
0!
#48500000000
1!
b110001 #
#49000000000
0!
#49500000000
1!
b110010 #
#50000000000
0!
#50500000000
1!
b110011 #
#51000000000
0!
#51500000000
1!
b110100 #
#52000000000
0!
#52500000000
1!
b110101 #
#53000000000
0!
#53500000000
1!
b110110 #
#54000000000
0!
#54500000000
1!
b110111 #
#55000000000
0!
#55500000000
1!
b111000 #
#56000000000
0!
#56500000000
1!
b111001 #
#57000000000
0!
#57500000000
1!
b111010 #
#58000000000
0!
#58500000000
1!
b111011 #
#59000000000
0!
#59500000000
1!
b111100 #
#60000000000
0!
#60500000000
1!
b111101 #
#61000000000
0!
#61500000000
1!
b111110 #
#62000000000
0!
#62500000000
1!
b111111 #
#63000000000
0!
#63500000000
1!
b1000000 #
#64000000000
0!
#64500000000
1!
b1000001 #
#65000000000
0!
#65500000000
1!
b1000010 #
#66000000000
0!
#66500000000
1!
b1000011 #
#67000000000
0!
#67500000000
1!
b1000100 #
#68000000000
0!
#68500000000
1!
b1000101 #
#69000000000
0!
#69500000000
1!
b1000110 #
#70000000000
0!
#70500000000
1!
b1000111 #
#71000000000
0!
#71500000000
1!
b1001000 #
#72000000000
0!
#72500000000
1!
b1001001 #
#73000000000
0!
#73500000000
1!
b1001010 #
#74000000000
0!
#74500000000
1!
b1001011 #
#75000000000
0!
#75500000000
1!
b1001100 #
#76000000000
0!
#76500000000
1!
b1001101 #
#77000000000
0!
#77500000000
1!
b1001110 #
#78000000000
0!
#78500000000
1!
b1001111 #
#79000000000
0!
#79500000000
1!
b1010000 #
#80000000000
0!
#80500000000
1!
b1010001 #
#81000000000
0!
#81500000000
1!
b1010010 #
#82000000000
0!
#82500000000
1!
b1010011 #
#83000000000
0!
#83500000000
1!
b1010100 #
#84000000000
0!
#84500000000
1!
b1010101 #
#85000000000
0!
#85500000000
1!
b1010110 #
#86000000000
0!
#86500000000
1!
b1010111 #
#87000000000
0!
#87500000000
1!
b1011000 #
#88000000000
0!
#88500000000
1!
b1011001 #
#89000000000
0!
#89500000000
1!
b1011010 #
#90000000000
0!
#90500000000
1!
b1011011 #
#91000000000
0!
#91500000000
1!
b1011100 #
#92000000000
0!
#92500000000
1!
b1011101 #
#93000000000
0!
#93500000000
1!
b1011110 #
#94000000000
0!
#94500000000
1!
b1011111 #
#95000000000
0!
#95500000000
1!
b1100000 #
#96000000000
0!
#96500000000
1!
b1100001 #
#97000000000
0!
#97500000000
1!
b1100010 #
#98000000000
0!
#98500000000
1!
b1100011 #
#99000000000
0!
#99500000000
1!
b1100100 #
#100000000000
0!
#100500000000
1!
b1100101 #
#101000000000
0!
#101500000000
1!
b1100110 #
#102000000000
0!
#102500000000
1!
b1100111 #
#103000000000
0!
#103500000000
1!
b1101000 #
#104000000000
0!
#104500000000
1!
b1101001 #
#105000000000
0!
#105500000000
1!
b1101010 #
#106000000000
0!
#106500000000
1!
b1101011 #
#107000000000
0!
#107500000000
1!
b1101100 #
#108000000000
0!
#108500000000
1!
b1101101 #
#109000000000
0!
#109500000000
1!
b1101110 #
#110000000000
0!
#110500000000
1!
b1101111 #
#111000000000
0!
#111500000000
1!
b1110000 #
#112000000000
0!
#112500000000
1!
b1110001 #
#113000000000
0!
#113500000000
1!
b1110010 #
#114000000000
0!
#114500000000
1!
b1110011 #
#115000000000
0!
#115500000000
1!
b1110100 #
#116000000000
0!
#116500000000
1!
b1110101 #
#117000000000
0!
#117500000000
1!
b1110110 #
#118000000000
0!
#118500000000
1!
b1110111 #
#119000000000
0!
#119500000000
1!
b1111000 #
#120000000000
0!
#120500000000
1!
b1111001 #
#121000000000
0!
#121500000000
1!
b1111010 #
#122000000000
0!
#122500000000
1!
b1111011 #
#123000000000
0!
#123500000000
1!
b1111100 #
#124000000000
0!
#124500000000
1!
b1111101 #
#125000000000
0!
#125500000000
1!
b1111110 #
#126000000000
0!
#126500000000
1!
b1111111 #
#127000000000
0!
#127500000000
1!
b10000000 #
#128000000000
0!
#128500000000
1!
b10000001 #
#129000000000
0!
#129500000000
1!
b10000010 #
#130000000000
0!
#130500000000
1!
b10000011 #
#131000000000
0!
#131500000000
1!
b10000100 #
#132000000000
0!
#132500000000
1!
b10000101 #
#133000000000
0!
#133500000000
1!
b10000110 #
#134000000000
0!
#134500000000
1!
b10000111 #
#135000000000
0!
#135500000000
1!
b10001000 #
#136000000000
0!
#136500000000
1!
b10001001 #
#137000000000
0!
#137500000000
1!
b10001010 #
#138000000000
0!
#138500000000
1!
b10001011 #
#139000000000
0!
#139500000000
1!
b10001100 #
#140000000000
0!
#140500000000
1!
b10001101 #
#141000000000
0!
#141500000000
1!
b10001110 #
#142000000000
0!
#142500000000
1!
b10001111 #
#143000000000
0!
#143500000000
1!
b10010000 #
#144000000000
0!
#144500000000
1!
b10010001 #
#145000000000
0!
#145500000000
1!
b10010010 #
#146000000000
0!
#146500000000
1!
b10010011 #
#147000000000
0!
#147500000000
1!
b10010100 #
#148000000000
0!
#148500000000
1!
b10010101 #
#149000000000
0!
#149500000000
1!
b10010110 #
#150000000000
0!
#150500000000
1!
b10010111 #
#151000000000
0!
#151500000000
1!
b10011000 #
#152000000000
0!
#152500000000
1!
b10011001 #
#153000000000
0!
#153500000000
1!
b10011010 #
#154000000000
0!
#154500000000
1!
b10011011 #
#155000000000
0!
#155500000000
1!
b10011100 #
#156000000000
0!
#156500000000
1!
b10011101 #
#157000000000
0!
#157500000000
1!
b10011110 #
#158000000000
0!
#158500000000
1!
b10011111 #
#159000000000
0!
#159500000000
1!
b10100000 #
#160000000000
0!
#160500000000
1!
b10100001 #
#161000000000
0!
#161500000000
1!
b10100010 #
#162000000000
0!
#162500000000
1!
b10100011 #
#163000000000
0!
#163500000000
1!
b10100100 #
#164000000000
0!
#164500000000
1!
b10100101 #
#165000000000
0!
#165500000000
1!
b10100110 #
#166000000000
0!
#166500000000
1!
b10100111 #
#167000000000
0!
#167500000000
1!
b10101000 #
#168000000000
0!
#168500000000
1!
b10101001 #
#169000000000
0!
#169500000000
1!
b10101010 #
#170000000000
0!
#170500000000
1!
b10101011 #
#171000000000
0!
#171500000000
1!
b10101100 #
#172000000000
0!
#172500000000
1!
b10101101 #
#173000000000
0!
#173500000000
1!
b10101110 #
#174000000000
0!
#174500000000
1!
b10101111 #
#175000000000
0!
#175500000000
1!
b10110000 #
#176000000000
0!
#176500000000
1!
b10110001 #
#177000000000
0!
#177500000000
1!
b10110010 #
#178000000000
0!
#178500000000
1!
b10110011 #
#179000000000
0!
#179500000000
1!
b10110100 #
#180000000000
0!
#180500000000
1!
b10110101 #
#181000000000
0!
#181500000000
1!
b10110110 #
#182000000000
0!
#182500000000
1!
b10110111 #
#183000000000
0!
#183500000000
1!
b10111000 #
#184000000000
0!
#184500000000
1!
b10111001 #
#185000000000
0!
#185500000000
1!
b10111010 #
#186000000000
0!
#186500000000
1!
b10111011 #
#187000000000
0!
#187500000000
1!
b10111100 #
#188000000000
0!
#188500000000
1!
b10111101 #
#189000000000
0!
#189500000000
1!
b10111110 #
#190000000000
0!
#190500000000
1!
b10111111 #
#191000000000
0!
#191500000000
1!
b11000000 #
#192000000000
0!
#192500000000
1!
b11000001 #
#193000000000
0!
#193500000000
1!
b11000010 #
#194000000000
0!
#194500000000
1!
b11000011 #
#195000000000
0!
#195500000000
1!
b11000100 #
#196000000000
0!
#196500000000
1!
b11000101 #
#197000000000
0!
#197500000000
1!
b11000110 #
#198000000000
0!
#198500000000
1!
b11000111 #
#199000000000
0!
#199500000000
1!
b11001000 #
#200000000000
0!
#200500000000
1!
b11001001 #
#201000000000
0!
#201500000000
1!
b11001010 #
#202000000000
0!
#202500000000
1!
b11001011 #
#203000000000
0!
#203500000000
1!
b11001100 #
#204000000000
0!
#204500000000
1!
b11001101 #
#205000000000
0!
#205500000000
1!
b11001110 #
#206000000000
0!
#206500000000
1!
b11001111 #
#207000000000
0!
#207500000000
1!
b11010000 #
#208000000000
0!
#208500000000
1!
b11010001 #
#209000000000
0!
#209500000000
1!
b11010010 #
#210000000000
0!
#210500000000
1!
b11010011 #
#211000000000
0!
#211500000000
1!
b11010100 #
#212000000000
0!
#212500000000
1!
b11010101 #
#213000000000
0!
#213500000000
1!
b11010110 #
#214000000000
0!
#214500000000
1!
b11010111 #
#215000000000
0!
#215500000000
1!
b11011000 #
#216000000000
0!
#216500000000
1!
b11011001 #
#217000000000
0!
#217500000000
1!
b11011010 #
#218000000000
0!
#218500000000
1!
b11011011 #
#219000000000
0!
#219500000000
1!
b11011100 #
#220000000000
0!
#220500000000
1!
b11011101 #
#221000000000
0!
#221500000000
1!
b11011110 #
#222000000000
0!
#222500000000
1!
b11011111 #
#223000000000
0!
#223500000000
1!
b11100000 #
#224000000000
0!
#224500000000
1!
b11100001 #
#225000000000
0!
#225500000000
1!
b11100010 #
#226000000000
0!
#226500000000
1!
b11100011 #
#227000000000
0!
#227500000000
1!
b11100100 #
#228000000000
0!
#228500000000
1!
b11100101 #
#229000000000
0!
#229500000000
1!
b11100110 #
#230000000000
0!
#230500000000
1!
b11100111 #
#231000000000
0!
#231500000000
1!
b11101000 #
#232000000000
0!
#232500000000
1!
b11101001 #
#233000000000
0!
#233500000000
1!
b11101010 #
#234000000000
0!
#234500000000
1!
b11101011 #
#235000000000
0!
#235500000000
1!
b11101100 #
#236000000000
0!
#236500000000
1!
b11101101 #
#237000000000
0!
#237500000000
1!
b11101110 #
#238000000000
0!
#238500000000
1!
b11101111 #
#239000000000
0!
#239500000000
1!
b11110000 #
#240000000000
0!
#240500000000
1!
b11110001 #
#241000000000
0!
#241500000000
1!
b11110010 #
#242000000000
0!
#242500000000
1!
b11110011 #
#243000000000
0!
#243500000000
1!
b11110100 #
#244000000000
0!
#244500000000
1!
b11110101 #
#245000000000
0!
#245500000000
1!
b11110110 #
#246000000000
0!
#246500000000
1!
b11110111 #
#247000000000
0!
#247500000000
1!
b11111000 #
#248000000000
0!
#248500000000
1!
b11111001 #
#249000000000
0!
#249500000000
1!
b11111010 #
#250000000000
0!
#250500000000
1!
b11111011 #
#251000000000
0!
#251500000000
1!
b11111100 #
#252000000000
0!
#252500000000
1!
b11111101 #
#253000000000
0!
#253500000000
1!
b11111110 #
#254000000000
0!
#254500000000
1!
b11111111 #
#255000000000
0!
#255500000000
1!
b100000000 #
#256000000000
0!
#256500000000
1!
b100000001 #
#257000000000
0!
#257500000000
1!
b100000010 #
#258000000000
0!
#258500000000
1!
b100000011 #
#259000000000
0!
#259500000000
1!
b100000100 #
#260000000000
0!
#260500000000
1!
b100000101 #
#261000000000
0!
#261500000000
1!
b100000110 #
#262000000000
0!
#262500000000
1!
b100000111 #
#263000000000
0!
#263500000000
1!
b100001000 #
#264000000000
0!
#264500000000
1!
b100001001 #
#265000000000
0!
#265500000000
1!
b100001010 #
#266000000000
0!
#266500000000
1!
b100001011 #
#267000000000
0!
#267500000000
1!
b100001100 #
#268000000000
0!
#268500000000
1!
b100001101 #
#269000000000
0!
#269500000000
1!
b100001110 #
#270000000000
0!
#270500000000
1!
b100001111 #
#271000000000
0!
#271500000000
1!
b100010000 #
#272000000000
0!
#272500000000
1!
b100010001 #
#273000000000
0!
#273500000000
1!
b100010010 #
#274000000000
0!
#274500000000
1!
b100010011 #
#275000000000
0!
#275500000000
1!
b100010100 #
#276000000000
0!
#276500000000
1!
b100010101 #
#277000000000
0!
#277500000000
1!
b100010110 #
#278000000000
0!
#278500000000
1!
b100010111 #
#279000000000
0!
#279500000000
1!
b100011000 #
#280000000000
0!
#280500000000
1!
b100011001 #
#281000000000
0!
#281500000000
1!
b100011010 #
#282000000000
0!
#282500000000
1!
b100011011 #
#283000000000
0!
#283500000000
1!
b100011100 #
#284000000000
0!
#284500000000
1!
b100011101 #
#285000000000
0!
#285500000000
1!
b100011110 #
#286000000000
0!
#286500000000
1!
b100011111 #
#287000000000
0!
#287500000000
1!
b100100000 #
#288000000000
0!
#288500000000
1!
b100100001 #
#289000000000
0!
#289500000000
1!
b100100010 #
#290000000000
0!
#290500000000
1!
b100100011 #
#291000000000
0!
#291500000000
1!
b100100100 #
#292000000000
0!
#292500000000
1!
b100100101 #
#293000000000
0!
#293500000000
1!
b100100110 #
#294000000000
0!
#294500000000
1!
b100100111 #
#295000000000
0!
#295500000000
1!
b100101000 #
#296000000000
0!
#296500000000
1!
b100101001 #
#297000000000
0!
#297500000000
1!
b100101010 #
#298000000000
0!
#298500000000
1!
b100101011 #
#299000000000
0!
#299500000000
1!
b100101100 #
#300000000000
0!
#300500000000
1!
b100101101 #
#301000000000
0!
#301500000000
1!
b100101110 #
#302000000000
0!
#302500000000
1!
b100101111 #
#303000000000
0!
#303500000000
1!
b100110000 #
#304000000000
0!
#304500000000
1!
b100110001 #
#305000000000
0!
#305500000000
1!
b100110010 #
#306000000000
0!
#306500000000
1!
b100110011 #
#307000000000
0!
#307500000000
1!
b100110100 #
#308000000000
0!
#308500000000
1!
b100110101 #
#309000000000
0!
#309500000000
1!
b100110110 #
#310000000000
0!
#310500000000
1!
b100110111 #
#311000000000
0!
#311500000000
1!
b100111000 #
#312000000000
0!
#312500000000
1!
b100111001 #
#313000000000
0!
#313500000000
1!
b100111010 #
#314000000000
0!
#314500000000
1!
b100111011 #
#315000000000
0!
#315500000000
1!
b100111100 #
#316000000000
0!
#316500000000
1!
b100111101 #
#317000000000
0!
#317500000000
1!
b100111110 #
#318000000000
0!
#318500000000
1!
b100111111 #
#319000000000
0!
#319500000000
1!
b101000000 #
#320000000000
0!
#320500000000
1!
b101000001 #
#321000000000
0!
#321500000000
1!
b101000010 #
#322000000000
0!
#322500000000
1!
b101000011 #
#323000000000
0!
#323500000000
1!
b101000100 #
#324000000000
0!
#324500000000
1!
b101000101 #
#325000000000
0!
#325500000000
1!
b101000110 #
#326000000000
0!
#326500000000
1!
b101000111 #
#327000000000
0!
#327500000000
1!
b101001000 #
#328000000000
0!
#328500000000
1!
b101001001 #
#329000000000
0!
#329500000000
1!
b101001010 #
#330000000000
0!
#330500000000
1!
b101001011 #
#331000000000
0!
#331500000000
1!
b101001100 #
#332000000000
0!
#332500000000
1!
b101001101 #
#333000000000
0!
#333500000000
1!
b101001110 #
#334000000000
0!
#334500000000
1!
b101001111 #
#335000000000
0!
#335500000000
1!
b101010000 #
#336000000000
0!
#336500000000
1!
b101010001 #
#337000000000
0!
#337500000000
1!
b101010010 #
#338000000000
0!
#338500000000
1!
b101010011 #
#339000000000
0!
#339500000000
1!
b101010100 #
#340000000000
0!
#340500000000
1!
b101010101 #
#341000000000
0!
#341500000000
1!
b101010110 #
#342000000000
0!
#342500000000
1!
b101010111 #
#343000000000
0!
#343500000000
1!
b101011000 #
#344000000000
0!
#344500000000
1!
b101011001 #
#345000000000
0!
#345500000000
1!
b101011010 #
#346000000000
0!
#346500000000
1!
b101011011 #
#347000000000
0!
#347500000000
1!
b101011100 #
#348000000000
0!
#348500000000
1!
b101011101 #
#349000000000
0!
#349500000000
1!
b101011110 #
#350000000000
0!
#350500000000
1!
b101011111 #
#351000000000
0!
#351500000000
1!
b101100000 #
#352000000000
0!
#352500000000
1!
b101100001 #
#353000000000
0!
#353500000000
1!
b101100010 #
#354000000000
0!
#354500000000
1!
b101100011 #
#355000000000
0!
#355500000000
1!
b101100100 #
#356000000000
0!
#356500000000
1!
b101100101 #
#357000000000
0!
#357500000000
1!
b101100110 #
#358000000000
0!
#358500000000
1!
b101100111 #
#359000000000
0!
#359500000000
1!
b101101000 #
#360000000000
0!
#360500000000
1!
b101101001 #
#361000000000
0!
#361500000000
1!
b101101010 #
#362000000000
0!
#362500000000
1!
b101101011 #
#363000000000
0!
#363500000000
1!
b101101100 #
#364000000000
0!
#364500000000
1!
b101101101 #
#365000000000
0!
#365500000000
1!
b101101110 #
#366000000000
0!
#366500000000
1!
b101101111 #
#367000000000
0!
#367500000000
1!
b101110000 #
#368000000000
0!
#368500000000
1!
b101110001 #
#369000000000
0!
#369500000000
1!
b101110010 #
#370000000000
0!
#370500000000
1!
b101110011 #
#371000000000
0!
#371500000000
1!
b101110100 #
#372000000000
0!
#372500000000
1!
b101110101 #
#373000000000
0!
#373500000000
1!
b101110110 #
#374000000000
0!
#374500000000
1!
b101110111 #
#375000000000
0!
#375500000000
1!
b101111000 #
#376000000000
0!
#376500000000
1!
b101111001 #
#377000000000
0!
#377500000000
1!
b101111010 #
#378000000000
0!
#378500000000
1!
b101111011 #
#379000000000
0!
#379500000000
1!
b101111100 #
#380000000000
0!
#380500000000
1!
b101111101 #
#381000000000
0!
#381500000000
1!
b101111110 #
#382000000000
0!
#382500000000
1!
b101111111 #
#383000000000
0!
#383500000000
1!
b110000000 #
#384000000000
0!
#384500000000
1!
b110000001 #
#385000000000
0!
#385500000000
1!
b110000010 #
#386000000000
0!
#386500000000
1!
b110000011 #
#387000000000
0!
#387500000000
1!
b110000100 #
#388000000000
0!
#388500000000
1!
b110000101 #
#389000000000
0!
#389500000000
1!
b110000110 #
#390000000000
0!
#390500000000
1!
b110000111 #
#391000000000
0!
#391500000000
1!
b110001000 #
#392000000000
0!
#392500000000
1!
b110001001 #
#393000000000
0!
#393500000000
1!
b110001010 #
#394000000000
0!
#394500000000
1!
b110001011 #
#395000000000
0!
#395500000000
1!
b110001100 #
#396000000000
0!
#396500000000
1!
b110001101 #
#397000000000
0!
#397500000000
1!
b110001110 #
#398000000000
0!
#398500000000
1!
b110001111 #
#399000000000
0!
#399500000000
1!
b110010000 #
#400000000000
0!
#400500000000
1!
b110010001 #
#401000000000
0!
#401500000000
1!
b110010010 #
#402000000000
0!
#402500000000
1!
b110010011 #
#403000000000
0!
#403500000000
1!
b110010100 #
#404000000000
0!
#404500000000
1!
b110010101 #
#405000000000
0!
#405500000000
1!
b110010110 #
#406000000000
0!
#406500000000
1!
b110010111 #
#407000000000
0!
#407500000000
1!
b110011000 #
#408000000000
0!
#408500000000
1!
b110011001 #
#409000000000
0!
#409500000000
1!
b110011010 #
#410000000000
0!
#410500000000
1!
b110011011 #
#411000000000
0!
#411500000000
1!
b110011100 #
#412000000000
0!
#412500000000
1!
b110011101 #
#413000000000
0!
#413500000000
1!
b110011110 #
#414000000000
0!
#414500000000
1!
b110011111 #
#415000000000
0!
#415500000000
1!
b110100000 #
#416000000000
0!
#416500000000
1!
b110100001 #
#417000000000
0!
#417500000000
1!
b110100010 #
#418000000000
0!
#418500000000
1!
b110100011 #
#419000000000
0!
#419500000000
1!
b110100100 #
#420000000000
0!
#420500000000
1!
b110100101 #
#421000000000
0!
#421500000000
1!
b110100110 #
#422000000000
0!
#422500000000
1!
b110100111 #
#423000000000
0!
#423500000000
1!
b110101000 #
#424000000000
0!
#424500000000
1!
b110101001 #
#425000000000
0!
#425500000000
1!
b110101010 #
#426000000000
0!
#426500000000
1!
b110101011 #
#427000000000
0!
#427500000000
1!
b110101100 #
#428000000000
0!
#428500000000
1!
b110101101 #
#429000000000
0!
#429500000000
1!
b110101110 #
#430000000000
0!
#430500000000
1!
b110101111 #
#431000000000
0!
#431500000000
1!
b110110000 #
#432000000000
0!
#432500000000
1!
b110110001 #
#433000000000
0!
#433500000000
1!
b110110010 #
#434000000000
0!
#434500000000
1!
b110110011 #
#435000000000
0!
#435500000000
1!
b110110100 #
#436000000000
0!
#436500000000
1!
b110110101 #
#437000000000
0!
#437500000000
1!
b110110110 #
#438000000000
0!
#438500000000
1!
b110110111 #
#439000000000
0!
#439500000000
1!
b110111000 #
#440000000000
0!
#440500000000
1!
b110111001 #
#441000000000
0!
#441500000000
1!
b110111010 #
#442000000000
0!
#442500000000
1!
b110111011 #
#443000000000
0!
#443500000000
1!
b110111100 #
#444000000000
0!
#444500000000
1!
b110111101 #
#445000000000
0!
#445500000000
1!
b110111110 #
#446000000000
0!
#446500000000
1!
b110111111 #
#447000000000
0!
#447500000000
1!
b111000000 #
#448000000000
0!
#448500000000
1!
b111000001 #
#449000000000
0!
#449500000000
1!
b111000010 #
#450000000000
0!
#450500000000
1!
b111000011 #
#451000000000
0!
#451500000000
1!
b111000100 #
#452000000000
0!
#452500000000
1!
b111000101 #
#453000000000
0!
#453500000000
1!
b111000110 #
#454000000000
0!
#454500000000
1!
b111000111 #
#455000000000
0!
#455500000000
1!
b111001000 #
#456000000000
0!
#456500000000
1!
b111001001 #
#457000000000
0!
#457500000000
1!
b111001010 #
#458000000000
0!
#458500000000
1!
b111001011 #
#459000000000
0!
#459500000000
1!
b111001100 #
#460000000000
0!
#460500000000
1!
b111001101 #
#461000000000
0!
#461500000000
1!
b111001110 #
#462000000000
0!
#462500000000
1!
b111001111 #
#463000000000
0!
#463500000000
1!
b111010000 #
#464000000000
0!
#464500000000
1!
b111010001 #
#465000000000
0!
#465500000000
1!
b111010010 #
#466000000000
0!
#466500000000
1!
b111010011 #
#467000000000
0!
#467500000000
1!
b111010100 #
#468000000000
0!
#468500000000
1!
b111010101 #
#469000000000
0!
#469500000000
1!
b111010110 #
#470000000000
0!
#470500000000
1!
b111010111 #
#471000000000
0!
#471500000000
1!
b111011000 #
#472000000000
0!
#472500000000
1!
b111011001 #
#473000000000
0!
#473500000000
1!
b111011010 #
#474000000000
0!
#474500000000
1!
b111011011 #
#475000000000
0!
#475500000000
1!
b111011100 #
#476000000000
0!
#476500000000
1!
b111011101 #
#477000000000
0!
#477500000000
1!
b111011110 #
#478000000000
0!
#478500000000
1!
b111011111 #
#479000000000
0!
#479500000000
1!
b111100000 #
#480000000000
0!
#480500000000
1!
b111100001 #
#481000000000
0!
#481500000000
1!
b111100010 #
#482000000000
0!
#482500000000
1!
b111100011 #
#483000000000
0!
#483500000000
1!
b111100100 #
#484000000000
0!
#484500000000
1!
b111100101 #
#485000000000
0!
#485500000000
1!
b111100110 #
#486000000000
0!
#486500000000
1!
b111100111 #
#487000000000
0!
#487500000000
1!
b111101000 #
#488000000000
0!
#488500000000
1!
b111101001 #
#489000000000
0!
#489500000000
1!
b111101010 #
#490000000000
0!
#490500000000
1!
b111101011 #
#491000000000
0!
#491500000000
1!
b111101100 #
#492000000000
0!
#492500000000
1!
b111101101 #
#493000000000
0!
#493500000000
1!
b111101110 #
#494000000000
0!
#494500000000
1!
b111101111 #
#495000000000
0!
#495500000000
1!
b111110000 #
#496000000000
0!
#496500000000
1!
b111110001 #
#497000000000
0!
#497500000000
1!
b111110010 #
#498000000000
0!
#498500000000
1!
b111110011 #
#499000000000
0!
#499500000000
1!
b111110100 #
#500000000000
0!
#500500000000
1!
b111110101 #
#501000000000
0!
#501500000000
1!
b111110110 #
#502000000000
0!
#502500000000
1!
b111110111 #
#503000000000
0!
#503500000000
1!
b111111000 #
#504000000000
0!
#504500000000
1!
b111111001 #
#505000000000
0!
#505500000000
1!
b111111010 #
#506000000000
0!
#506500000000
1!
b111111011 #
#507000000000
0!
#507500000000
1!
b111111100 #
#508000000000
0!
#508500000000
1!
b111111101 #
#509000000000
0!
#509500000000
1!
b111111110 #
#510000000000
0!
#510500000000
1!
b111111111 #
#511000000000
0!
#511500000000
1!
b1000000000 #
#512000000000
0!
#512500000000
1!
b1000000001 #
#513000000000
0!
#513500000000
1!
b1000000010 #
#514000000000
0!
#514500000000
1!
b1000000011 #
#515000000000
0!
#515500000000
1!
b1000000100 #
#516000000000
0!
#516500000000
1!
b1000000101 #
#517000000000
0!
#517500000000
1!
b1000000110 #
#518000000000
0!
#518500000000
1!
b1000000111 #
#519000000000
0!
#519500000000
1!
b1000001000 #
#520000000000
0!
#520500000000
1!
b1000001001 #
#521000000000
0!
#521500000000
1!
b1000001010 #
#522000000000
0!
#522500000000
1!
b1000001011 #
#523000000000
0!
#523500000000
1!
b1000001100 #
#524000000000
0!
#524500000000
1!
b1000001101 #
#525000000000
0!
#525500000000
1!
b1000001110 #
#526000000000
0!
#526500000000
1!
b1000001111 #
#527000000000
0!
#527500000000
1!
b1000010000 #
#528000000000
0!
#528500000000
1!
b1000010001 #
#529000000000
0!
#529500000000
1!
b1000010010 #
#530000000000
0!
#530500000000
1!
b1000010011 #
#531000000000
0!
#531500000000
1!
b1000010100 #
#532000000000
0!
#532500000000
1!
b1000010101 #
#533000000000
0!
#533500000000
1!
b1000010110 #
#534000000000
0!
#534500000000
1!
b1000010111 #
#535000000000
0!
#535500000000
1!
b1000011000 #
#536000000000
0!
#536500000000
1!
b1000011001 #
#537000000000
0!
#537500000000
1!
b1000011010 #
#538000000000
0!
#538500000000
1!
b1000011011 #
#539000000000
0!
#539500000000
1!
b1000011100 #
#540000000000
0!
#540500000000
1!
b1000011101 #
#541000000000
0!
#541500000000
1!
b1000011110 #
#542000000000
0!
#542500000000
1!
b1000011111 #
#543000000000
0!
#543500000000
1!
b1000100000 #
#544000000000
0!
#544500000000
1!
b1000100001 #
#545000000000
0!
#545500000000
1!
b1000100010 #
#546000000000
0!
#546500000000
1!
b1000100011 #
#547000000000
0!
#547500000000
1!
b1000100100 #
#548000000000
0!
#548500000000
1!
b1000100101 #
#549000000000
0!
#549500000000
1!
b1000100110 #
#550000000000
0!
#550500000000
1!
b1000100111 #
#551000000000
0!
#551500000000
1!
b1000101000 #
#552000000000
0!
#552500000000
1!
b1000101001 #
#553000000000
0!
#553500000000
1!
b1000101010 #
#554000000000
0!
#554500000000
1!
b1000101011 #
#555000000000
0!
#555500000000
1!
b1000101100 #
#556000000000
0!
#556500000000
1!
b1000101101 #
#557000000000
0!
#557500000000
1!
b1000101110 #
#558000000000
0!
#558500000000
1!
b1000101111 #
#559000000000
0!
#559500000000
1!
b1000110000 #
#560000000000
0!
#560500000000
1!
b1000110001 #
#561000000000
0!
#561500000000
1!
b1000110010 #
#562000000000
0!
#562500000000
1!
b1000110011 #
#563000000000
0!
#563500000000
1!
b1000110100 #
#564000000000
0!
#564500000000
1!
b1000110101 #
#565000000000
0!
#565500000000
1!
b1000110110 #
#566000000000
0!
#566500000000
1!
b1000110111 #
#567000000000
0!
#567500000000
1!
b1000111000 #
#568000000000
0!
#568500000000
1!
b1000111001 #
#569000000000
0!
#569500000000
1!
b1000111010 #
#570000000000
0!
#570500000000
1!
b1000111011 #
#571000000000
0!
#571500000000
1!
b1000111100 #
#572000000000
0!
#572500000000
1!
b1000111101 #
#573000000000
0!
#573500000000
1!
b1000111110 #
#574000000000
0!
#574500000000
1!
b1000111111 #
#575000000000
0!
#575500000000
1!
b1001000000 #
#576000000000
0!
#576500000000
1!
b1001000001 #
#577000000000
0!
#577500000000
1!
b1001000010 #
#578000000000
0!
#578500000000
1!
b1001000011 #
#579000000000
0!
#579500000000
1!
b1001000100 #
#580000000000
0!
#580500000000
1!
b1001000101 #
#581000000000
0!
#581500000000
1!
b1001000110 #
#582000000000
0!
#582500000000
1!
b1001000111 #
#583000000000
0!
#583500000000
1!
b1001001000 #
#584000000000
0!
#584500000000
1!
b1001001001 #
#585000000000
0!
#585500000000
1!
b1001001010 #
#586000000000
0!
#586500000000
1!
b1001001011 #
#587000000000
0!
#587500000000
1!
b1001001100 #
#588000000000
0!
#588500000000
1!
b1001001101 #
#589000000000
0!
#589500000000
1!
b1001001110 #
#590000000000
0!
#590500000000
1!
b1001001111 #
#591000000000
0!
