New Modules/MyCIC/Testbench/integrator/integrator_waves.vcd
$date
	Fri Apr 19 11:26:18 2024
$end
$version
	Icarus Verilog
$end
$timescale
	1ps
$end
$scope module integrator $end
$var wire 1 ! i_ce $end
$var wire 1 " i_clk $end
$var wire 5 # i_data [4:0] $end
$var wire 1 $ i_reset $end
$var parameter 32 % IW $end
$var parameter 32 & OW $end
$var reg 10 ' accumulator [9:0] $end
$var reg 10 ( o_data [9:0] $end
$var reg 1 ) o_ready $end
$upscope $end
$enddefinitions $end
$comment Show the parameter values. $end
$dumpall
b1010 &
b101 %
$end
#0
$dumpvars
x)
bx (
b0 '
z$
bz #
z"
z!
$end
#5000
0)
b0 (
1"
0$
1!
b0 #
#11250
0"
#17500
b11000 #
1)
1"
#23750
0"
#30000
b10101 #
b1111111000 '
1"
#36250
0"
#42500
b1 #
b1111111000 (
b1111101101 '
1"
#48750
0"
#55000
b11001 #
b1111101101 (
b1111101110 '
1"
#61250
0"
#67500
b10001 #
b1111101110 (
b1111100111 '
1"
#73750
0"
#80000
b1111100111 (
b1111011000 '
1"
#86250
0"
#92500
b11101 #
b1111011000 (
b1111001001 '
1"
#98750
0"
#105000
b1100 #
b1111001001 (
b1111000110 '
1"
#111250
0"
#117500
b0 #
b1111000110 (
b1111010010 '
1"
#123750
0"
#130000
b11000 #
b1111010010 (
1"
#136250
0"
#142500
b10000 #
b1111001010 '
1"
#148750
0"
#155000
b10001 #
b1111001010 (
b1110111010 '
1"
#161250
0"
#167500
b11100 #
b1110111010 (
b1110101011 '
1"
#173750
0"
#180000
b11110 #
b1110101011 (
b1110100111 '
1"
#186250
0"
#192500
b1110100111 (
b1110100101 '
1"
#198750
0"
#205000
b1100 #
b1110100101 (
b1110100011 '
1"
#211250
0"
#217500
b1000 #
b1110100011 (
b1110101111 '
1"
#223750
0"
#230000
b1101 #
b1110101111 (
b1110110111 '
1"
#236250
0"
#242500
b1111 #
b1110110111 (
b1111000100 '
1"
#248750
0"
#255000
b10101 #
b1111000100 (
b1111010011 '
1"
#261250
0"
#267500
b11011 #
b1111010011 (
b1111001000 '
1"
#273750
0"
#280000
b1011 #
b1111001000 (
b1111000011 '
1"
#286250
0"
#292500
b10001 #
b1111000011 (
b1111001110 '
1"
#298750
0"
#305000
b11100 #
b1111001110 (
b1110111111 '
1"
#311250
0"
#317500
b10100 #
b1110111111 (
b1110111011 '
1"
#323750
0"
#330000
b1011 #
b1110111011 (
b1110101111 '
1"
#336250
0"
#342500
b110 #
b1110101111 (
b1110111010 '
1"
#348750
0"
#355000
b10010 #
b1110111010 (
b1111000000 '
1"
#361250
0"
#367500
b10101 #
b1111000000 (
b1110110010 '
1"
#373750
0"
#380000
b1110 #
b1110110010 (
b1110100111 '
1"
#386250
0"
#392500
b11001 #
b1110100111 (
b1110110101 '
1"
#398750
0"
#405000
b1100 #
b1110110101 (
b1110101110 '
1"
#411250
0"
#417500
b11010 #
b1110101110 (
b1110111010 '
1"
#423750
0"
#430000
b10001 #
b1110111010 (
b1110110100 '
1"
#436250
0"
#442500
b11110 #
b1110110100 (
b1110100101 '
1"
#448750
0"
#455000
b1110 #
b1110100101 (
b1110100011 '
1"
#461250
0"
#467500
b0 #
b1110100011 (
b1110110001 '
1"
#473750
0"
#480000
b110 #
b1110110001 (
1"
#486250
0"
#492500
b10011 #
b1110110111 '
1"
#498750
0"
#505000
b1011 #
b1110110111 (
b1110101010 '
1"
#511250
0"
#517500
b111 #
b1110101010 (
b1110110101 '
1"
#523750
0"
#530000
b11101 #
b1110110101 (
b1110111100 '
1"
#536250
0"
#542500
b1110111100 (
b1110111001 '
1"
#548750
0"
#555000
b1 #
b1110111001 (
b1110110110 '
1"
#561250
0"
#567500
b1101 #
b1110110110 (
b1110110111 '
1"
#573750
0"
#580000
b11 #
b1110110111 (
b1111000100 '
1"
#586250
0"
#592500
b1101 #
b1111000100 (
b1111000111 '
1"
#598750
0"
#605000
b111 #
b1111000111 (
b1111010100 '
1"
#611250
0"
#617500
b11101 #
b1111010100 (
b1111011011 '
1"
#623750
0"
#630000
b1001 #
b1111011011 (
b1111011000 '
1"
#636250
0"
#642500
b10101 #
b1111011000 (
b1111100001 '
1"
#648750
0"
#655000
b10110 #
b1111100001 (
b1111010110 '
1"
#661250
0"
#667500
b1100 #
b1111010110 (
b1111001100 '
1"
#673750
0"
#680000
b1110 #
b1111001100 (
b1111011000 '
1"
#686250
0"
#692500
b11011 #
b1111011000 (
b1111100110 '
1"
#698750
0"
#705000
b11110 #
b1111100110 (
b1111100001 '
1"
#711250
0"
#717500
b10001 #
b1111100001 (
b1111011111 '
1"
#723750
0"
#730000
b10 #
b1111011111 (
b1111010000 '
1"
#736250
0"
#742500
b11100 #
b1111010000 (
b1111010010 '
1"
#748750
0"
#755000
b0 #
b1111010010 (
b1111001110 '
1"
#761250
0"
#767500
b110 #
b1111001110 (
1"
#773750
0"
#780000
b11101 #
b1111010100 '
1"
#786250
0"
#792500
b110 #
b1111010100 (
b1111010001 '
1"
#798750
0"
#805000
b10101 #
b1111010001 (
b1111010111 '
1"
#811250
0"
#817500
b10001 #
b1111010111 (
b1111001100 '
1"
#823750
0"
#830000
b11110 #
b1111001100 (
b1110111101 '
1"
#836250
0"
#842500
b1 #
b1110111101 (
b1110111011 '
1"
#848750
0"
#855000
b101 #
b1110111011 (
b1110111100 '
1"
#861250
0"
#867500
b11110 #
b1110111100 (
b1111000001 '
1"
#873750
0"
#880000
b1000 #
b1111000001 (
b1110111111 '
1"
#886250
0"
#892500
b10101 #
b1110111111 (
b1111000111 '
1"
#898750
0"
#905000
b1111000111 (
b1110111100 '
1"
#911250
0"
#917500
b1001 #
b1110111100 (
b1110110001 '
1"
#923750
0"
#930000
b110 #
b1110110001 (
b1110111010 '
1"
#936250
0"
#942500
b100 #
b1110111010 (
b1111000000 '
1"
#948750
0"
#955000
b1101 #
b1111000000 (
b1111000100 '
1"
#961250
0"
#967500
b10110 #
b1111000100 (
b1111010001 '
1"
#973750
0"
#980000
b11001 #
b1111010001 (
b1111000111 '
1"
#986250
0"
#992500
b1011 #
b1111000111 (
b1111000000 '
1"
#998750
0"
#1005000
b111 #
b1111000000 (
b1111001011 '
1"
#1011250
0"
#1017500
b10100 #
b1111001011 (
b1111010010 '
1"
#1023750
0"
#1030000
b1111010010 (
b1111000110 '
1"
#1036250
0"
#1042500
b11100 #
b1111000110 (
b1110111010 '
1"
#1048750
0"
#1055000
b1110111010 (
b1110110110 '
1"
#1061250
0"
#1067500
b1101 #
b1110110110 (
b1110110010 '
1"
#1073750
0"
#1080000
b1110110010 (
b1110111111 '
1"
#1086250
0"
#1092500
b101 #
b1110111111 (
b1111001100 '
1"
#1098750
0"
#1105000
b111 #
b1111001100 (
b1111010001 '
1"
#1111250
0"
#1117500
b1111010001 (
b1111011000 '
1"
#1123750
0"
#1130000
b11100 #
b1111011000 (
b1111011111 '
1"
#1136250
0"
#1142500
b11 #
b1111011111 (
b1111011011 '
1"
#1148750
0"
#1155000
b1 #
b1111011011 (
b1111011110 '
1"
#1161250
0"
#1167500
b10010 #
b1111011110 (
b1111011111 '
1"
#1173750
0"
#1180000
b110 #
b1111011111 (
b1111010001 '
1"
#1186250
0"
#1192500
b11011 #
b1111010001 (
b1111010111 '
1"
#1198750
0"
#1205000
b1110 #
b1111010111 (
b1111010010 '
1"
#1211250
0"
#1217500
b10010 #
b1111010010 (
b1111100000 '
1"
#1223750
0"
#1230000
b0 #
b1111100000 (
b1111010010 '
1"
#1236250
0"
#1242500
b1101 #
b1111010010 (
1"
#1248750
0"
#1255000
b10101 #
b1111011111 '
1"
#1261250
0"
#1267500
b1111011111 (
b1111010100 '
1"
