HLSImplementation/AMDemod/AMDemod.vcd
$comment Generated by Amaranth $end
$date 2024-06-10 22:04:44.547417 $end
$timescale 1 fs $end
$scope module bench $end
$scope module top $end
$var wire 1 ! clk $end
$var wire 1 " rst $end
$var wire 24 # MultResult1 $end
$var wire 12 $ I_in $end
$var wire 24 % MultResult2 $end
$var wire 12 & Q_in $end
$var wire 25 ' SquareSum $end
$var wire 24 ( sqrt_next $end
$var wire 24 ) sqrt_val $end
$var wire 24 * d_out $end
$upscope $end
$upscope $end
$enddefinitions $end
#0
$dumpvars
0!
0"
b0 #
b0 $
b0 %
b0 &
b0 '
b0 (
b0 )
b0 *
$end
#500000000
1!
b100100110111 &
b111000000110 $
#1000000000
0!
#1500000000
1!
b1011100000100111010001 %
b111110100000100100 #
#2000000000
0!
#2500000000
1!
b1100011111000111110101 '
#3000000000
0!
#3500000000
1!
#4000000000
0!
#4500000000
1!
#5000000000
0!
#5500000000
1!
b11001100000 &
b100100000001 $
#6000000000
0!
#6500000000
1!
b1010001010010000000000 %
b1100001111001000000001 #
#7000000000
0!
#7500000000
1!
b10110011001011000000001 '
#8000000000
0!
#8500000000
1!
#9000000000
0!
#9500000000
1!
#10000000000
0!
#10500000000
1!
b101000011 &
b10111101 $
#11000000000
0!
#11500000000
1!
b11001011110001001 %
b1000101110001001 #
#12000000000
0!
#12500000000
1!
b100010001100010010 '
#13000000000
0!
#13500000000
1!
#14000000000
0!
#14500000000
1!
#15000000000
0!
#15500000000
1!
b10011101011 &
b10110010110 $
#16000000000
0!
#16500000000
1!
b110000010111110111001 %
b111110011001111100100 #
#17000000000
0!
#17500000000
1!
b1101110110001110011101 '
#18000000000
0!
#18500000000
1!
#19000000000
0!
#19500000000
1!
#20000000000
0!
#20500000000
1!
b10101000100 &
b1000101111 $
#21000000000
0!
#21500000000
1!
b110111011101000010000 %
b1001100010010100001 #
#22000000000
0!
#22500000000
1!
b1000000111111010110001 '
#23000000000
0!
#23500000000
1!
#24000000000
0!
#24500000000
1!
#25000000000
0!
#25500000000
1!
b100100011001 &
b100010001010 $
#26000000000
0!
#26500000000
1!
b1011111010010001110001 %
b1101111010101001100100 #
#27000000000
0!
#27500000000
1!
b11001110100111011010101 '
#28000000000
0!
#28500000000
1!
#29000000000
0!
#29500000000
1!
#30000000000
0!
#30500000000
1!
b1101000000 &
b101101001011 $
#31000000000
0!
#31500000000
1!
b10101001000000000000 %
b101100010011111111001 #
#32000000000
0!
#32500000000
1!
b1000001011011111111001 '
#33000000000
0!
#33500000000
1!
#34000000000
0!
#34500000000
1!
#35000000000
0!
#35500000000
1!
b101001000 &
b111101001 $
#36000000000
0!
#36500000000
1!
b11010010001000000 %
b111010011000010001 #
#37000000000
0!
#37500000000
1!
b1010100101001010001 '
#38000000000
0!
#38500000000
1!
#39000000000
0!
#39500000000
1!
#40000000000
0!
#40500000000
1!
b111101100110 &
b10110101100 $
#41000000000
0!
#41500000000
1!
b101110010100100 %
b1000000010101110010000 #
#42000000000
0!
#42500000000
1!
b1000001000100000110100 '
#43000000000
0!
#43500000000
1!
#44000000000
0!
#44500000000
1!
#45000000000
0!
#45500000000
1!
b111111000111 &
b111100101001 $
#46000000000
0!
#46500000000
1!
b110010110001 %
b1011010010010001 #
#47000000000
0!
#47500000000
1!
b1100000101000010 '
#48000000000
0!
#48500000000
1!
#49000000000
0!
#49500000000
1!
#50000000000
0!
#50500000000
1!
b11001011011 &
b100011101010 $
#51000000000
0!
#51500000000
1!
b1010000110010001011001 %
b1100100011010111100100 #
#52000000000
0!
#52500000000
1!
b10110101001101000111101 '
#53000000000
0!
#53500000000
1!
#54000000000
0!
#54500000000
1!
#55000000000
0!
#55500000000
1!
b11000000010 &
b101011110 $
#56000000000
0!
#56500000000
1!
b1001000001100000000100 %
b11101111010000100 #
#57000000000
0!
#57500000000
1!
b1001011111011010001000 '
#58000000000
0!
#58500000000
1!
#59000000000
0!
#59500000000
1!
#60000000000
0!
#60500000000
1!
b100000010111 &
b10101001011 $
#61000000000
0!
#61500000000
1!
b1111101001001000010001 %
b111000000001111111001 #
#62000000000
0!
#62500000000
1!
b10110101001011000001010 '
#63000000000
0!
#63500000000
1!
#64000000000
0!
#64500000000
1!
#65000000000
0!
#65500000000
1!
b100100100011 &
b101100100100 $
#66000000000
0!
#66500000000
1!
b1011110001101011001001 %
b101111001110100010000 #
#67000000000
0!
#67500000000
1!
b10001101011011111011001 '
#68000000000
0!
#68500000000
1!
#69000000000
0!
#69500000000
1!
#70000000000
0!
#70500000000
1!
b10100001000 &
b10010000011 $
#71000000000
0!
#71500000000
1!
b110010101000001000000 %
b101000101101100001001 #
#72000000000
0!
#72500000000
1!
b1011011010101101001001 '
#73000000000
0!
#73500000000
1!
#74000000000
0!
#74500000000
1!
#75000000000
0!
#75500000000
1!
b11001111 &
b111101111011 $
#76000000000
0!
#76500000000
1!
b1010011101100001 %
b100010100011001 #
#77000000000
0!
#77500000000
1!
b1110110001111010 '
#78000000000
0!
#78500000000
1!
#79000000000
0!
#79500000000
1!
#80000000000
0!
#80500000000
1!
b10111001001 &
b111100101 $
#81000000000
0!
#81500000000
1!
b1000010111011111010001 %
b111001011011011001 #
#82000000000
0!
#82500000000
1!
b1001010000111010101010 '
#83000000000
0!
#83500000000
1!
#84000000000
0!
#84500000000
1!
#85000000000
0!
#85500000000
1!
b111111000001 &
b100110100110 $
#86000000000
0!
#86500000000
1!
b111110000001 %
b1010000101011110100100 #
#87000000000
0!
#87500000000
1!
b1010000110011100100101 '
#88000000000
0!
#88500000000
1!
#89000000000
0!
#89500000000
1!
#90000000000
0!
#90500000000
1!
b11000101001 &
b11010011110 $
#91000000000
0!
#91500000000
1!
b1001011111001010010001 %
b1010111100100110000100 #
#92000000000
0!
#92500000000
1!
b10100011011110000010101 '
#93000000000
0!
#93500000000
1!
#94000000000
0!
#94500000000
1!
#95000000000
0!
#95500000000
1!
b1100100111 &
b1110010111 $
#96000000000
0!
#96500000000
1!
b10011110111111110001 %
b11001110001100010001 #
#97000000000
0!
#97500000000
1!
b101101101001100000010 '
#98000000000
0!
#98500000000
1!
#99000000000
0!
#99500000000
1!
#100000000000
0!
#100500000000
1!
b101100011100 &
b101111000001 $
#101000000000
0!
#101500000000
1!
b101111110101100010000 %
b100100000011110000001 #
#102000000000
0!
#102500000000
1!
b1010011111001010010001 '
#103000000000
0!
#103500000000
1!
#104000000000
0!
#104500000000
1!
#105000000000
0!
#105500000000
1!
b101000110010 &
b101000101101 $
#106000000000
0!
#106500000000
1!
b1000011011000111000100 %
b1000011110101111101001 #
#107000000000
0!
#107500000000
1!
b10000111001110110101101 '
#108000000000
0!
#108500000000
1!
#109000000000
0!
#109500000000
1!
#110000000000
0!
#110500000000
1!
b110110011101 &
b110000111000 $
#111000000000
0!
#111500000000
1!
b1011011001001001001 %
b11100100110001000000 #
#112000000000
0!
#112500000000
1!
b100111111111010001001 '
#113000000000
0!
#113500000000
1!
#114000000000
0!
#114500000000
1!
#115000000000
0!
#115500000000
1!
b100110101001 &
b100111010001 $
#116000000000
0!
#116500000000
1!
b1010000011000110010001 %
b1001100011110010100001 #
#117000000000
0!
#117500000000
1!
b10011100110111000110010 '
#118000000000
0!
#118500000000
1!
#119000000000
0!
#119500000000
1!
#120000000000
0!
#120500000000
1!
b110010111101 &
b11100100110 $
#121000000000
0!
#121500000000
1!
b10101010001110001001 %
b1100110001100110100100 #
#122000000000
0!
#122500000000
1!
b1111011011110100101101 '
#123000000000
0!
#123500000000
1!
#124000000000
0!
#124500000000
1!
#125000000000
0!
#125500000000
1!
b100111100011 &
b111110001011 $
#126000000000
0!
#126500000000
1!
b1001010101111101001001 %
b11010101111001 #
#127000000000
0!
#127500000000
1!
b1001011001010011000010 '
#128000000000
0!
#128500000000
1!
#129000000000
0!
#129500000000
1!
#130000000000
0!
#130500000000
1!
b10111010011 &
b11010100110 $
#131000000000
0!
#131500000000
1!
b1000011110101111101001 %
b1011000011001110100100 #
#132000000000
0!
#132500000000
1!
b10011100001111110001101 '
#133000000000
0!
#133500000000
1!
#134000000000
0!
#134500000000
1!
#135000000000
0!
#135500000000
1!
b110011001100 &
b101001000001 $
#136000000000
0!
#136500000000
1!
b10100100001010010000 %
b1000010000010010000001 #
#137000000000
0!
#137500000000
1!
b1010110100011100010001 '
#138000000000
0!
#138500000000
1!
#139000000000
0!
#139500000000
1!
#140000000000
0!
#140500000000
1!
b111000110110 &
b10111001 $
#141000000000
0!
#141500000000
1!
b110011001101100100 %
b1000010110110001 #
#142000000000
0!
#142500000000
1!
b111011100100010101 '
#143000000000
0!
#143500000000
1!
#144000000000
0!
#144500000000
1!
#145000000000
0!
#145500000000
1!
b110011100011 &
b10010110100 $
#146000000000
0!
#146500000000
1!
b10011011000101001001 %
b101100001111010010000 #
#147000000000
0!
#147500000000
1!
b111111100111111011001 '
#148000000000
0!
#148500000000
1!
#149000000000
0!
#149500000000
1!
#150000000000
0!
#150500000000
1!
b101111111111 &
b100011100000 $
#151000000000
0!
#151500000000
1!
b100000000100000000001 %
b1100101100010000000000 #
#152000000000
0!
#152500000000
1!
b10000101100110000000001 '
#153000000000
0!
#153500000000
1!
#154000000000
0!
#154500000000
1!
#155000000000
0!
#155500000000
1!
b101100111010 &
b11000001011 $
#156000000000
0!
#156500000000
1!
b101101100100100100100 %
b1001001000010001111001 #
#157000000000
0!
#157500000000
1!
b1110110100110110011101 '
#158000000000
0!
#158500000000
1!
#159000000000
0!
#159500000000
1!
#160000000000
0!
#160500000000
1!
b100000011111 &
b1010011111 $
#161000000000
0!
#161500000000
1!
b1111100001001111000001 %
b1101101111011000001 #
#162000000000
0!
#162500000000
1!
b10001001111001010000010 '
#163000000000
0!
#163500000000
1!
#164000000000
0!
#164500000000
1!
#165000000000
0!
#165500000000
1!
b11100011100 &
b1010101 $
#166000000000
0!
#166500000000
1!
b1100101000101100010000 %
b1110000111001 #
#167000000000
0!
#167500000000
1!
b1100101010011101001001 '
#168000000000
0!
#168500000000
1!
#169000000000
0!
#169500000000
1!
#170000000000
0!
#170500000000
1!
b10111111101 &
b10101111010 $
#171000000000
0!
#171500000000
1!
b1000111101110000001001 %
b111011111111000100100 #
#172000000000
0!
#172500000000
1!
b10000011101101000101101 '
#173000000000
0!
#173500000000
1!
#174000000000
0!
#174500000000
1!
#175000000000
0!
#175500000000
1!
b100111 &
b110011111100 $
#176000000000
0!
#176500000000
1!
b10111110001 %
b10010001100000010000 #
#177000000000
0!
#177500000000
1!
b10010001111000000001 '
#178000000000
0!
#178500000000
1!
#179000000000
0!
#179500000000
1!
#180000000000
0!
#180500000000
1!
b1010110 &
b100111101110 $
#181000000000
0!
#181500000000
1!
b1110011100100 %
b1001001101100101000100 #
#182000000000
0!
#182500000000
1!
b1001001111011000101000 '
#183000000000
0!
#183500000000
1!
#184000000000
0!
#184500000000
1!
#185000000000
0!
#185500000000
1!
b111100000 &
b100011011 $
#186000000000
0!
#186500000000
1!
b111000010000000000 %
b10011100011011001 #
#187000000000
0!
#187500000000
1!
b1001011110011011001 '
#188000000000
0!
#188500000000
1!
#189000000000
0!
#189500000000
1!
#190000000000
0!
#190500000000
1!
b100100101 &
b11100011010 $
#191000000000
0!
#191500000000
1!
b10100111101011001 %
b1100100110111010100100 #
#192000000000
0!
#192500000000
1!
b1100111011110111111101 '
#193000000000
0!
#193500000000
1!
#194000000000
0!
#194500000000
1!
#195000000000
0!
#195500000000
1!
b11110101010 &
b101011011101 $
#196000000000
0!
#196500000000
1!
b1110101011110011100100 %
b110100110001011001001 #
#197000000000
0!
#197500000000
1!
b10101010001111110101101 '
#198000000000
0!
#198500000000
1!
#199000000000
0!
#199500000000
1!
#200000000000
0!
#200500000000
1!
b100011001111 &
b111001110100 $
#201000000000
0!
#201500000000
1!
b1100111011011101100001 %
b100110010010010000 #
#202000000000
0!
#202500000000
1!
b1101100001101111110001 '
#203000000000
0!
#203500000000
1!
#204000000000
0!
#204500000000
1!
#205000000000
0!
#205500000000
1!
b111110000011 &
b110000 $
#206000000000
0!
#206500000000
1!
b11110100001001 %
b100100000000 #
#207000000000
0!
#207500000000
1!
b100011000001001 '
#208000000000
0!
#208500000000
1!
#209000000000
0!
#209500000000
1!
#210000000000
0!
#210500000000
1!
b101011001101 &
b11000110010 $
#211000000000
0!
#211500000000
1!
b110110000100000101001 %
b1001100110000111000100 #
#212000000000
0!
#212500000000
1!
b10000010110100111101101 '
#213000000000
0!
#213500000000
1!
#214000000000
0!
#214500000000
1!
#215000000000
0!
#215500000000
1!
b100001101100 &
b111001001110 $
#216000000000
0!
#216500000000
1!
b1110010110110110010000 %
b101101111111000100 #
#217000000000
0!
#217500000000
1!
b1111000100110101010100 '
#218000000000
0!
#218500000000
1!
#219000000000
0!
#219500000000
1!
#220000000000
0!
#220500000000
1!
b110110010001 &
b1000010100 $
#221000000000
0!
#221500000000
1!
b1011110110000100001 %
b1000101000110010000 #
#222000000000
0!
#222500000000
1!
b10100011110110110001 '
#223000000000
0!
#223500000000
1!
#224000000000
0!
#224500000000
1!
#225000000000
0!
#225500000000
1!
b1101110111 &
b11000001011 $
#226000000000
0!
#226500000000
1!
b11000000000101010001 %
b1001001000010001111001 #
#227000000000
0!
#227500000000
1!
b1100001000010111001010 '
#228000000000
0!
#228500000000
1!
#229000000000
0!
#229500000000
1!
#230000000000
0!
#230500000000
1!
b101011001100 &
b100111100101 $
#231000000000
0!
#231500000000
1!
b110110001001010010000 %
b1001010100011011011001 #
#232000000000
0!
#232500000000
1!
b10000000101100101101001 '
#233000000000
0!
#233500000000
1!
#234000000000
0!
#234500000000
1!
#235000000000
0!
#235500000000
1!
b110110010110 &
b10101000011 $
#236000000000
0!
#236500000000
1!
b1011101001111100100 %
b110111010111110001001 #
#237000000000
0!
#237500000000
1!
b1000011000001101101101 '
#238000000000
0!
#238500000000
1!
#239000000000
0!
#239500000000
1!
#240000000000
0!
#240500000000
1!
b100100111001 &
b11001000100 $
#241000000000
0!
#241500000000
1!
b1011011110111010110001 %
b1001110100001000010000 #
#242000000000
0!
#242500000000
1!
b10101010011000011000001 '
#243000000000
0!
#243500000000
1!
#244000000000
0!
#244500000000
1!
#245000000000
0!
#245500000000
1!
b101011100101 &
b111111000110 $
#246000000000
0!
#246500000000
1!
b110100001000011011001 %
b110100100100 #
#247000000000
0!
#247500000000
1!
b110100001110111111101 '
#248000000000
0!
#248500000000
1!
#249000000000
0!
#249500000000
1!
#250000000000
0!
#250500000000
1!
b110011110010 &
b100100001010 $
#251000000000
0!
#251500000000
1!
b10010101010011000100 %
b1100000111010001100100 #
#252000000000
0!
#252500000000
1!
b1110011100100100101000 '
#253000000000
0!
#253500000000
1!
#254000000000
0!
#254500000000
1!
#255000000000
0!
#255500000000
1!
b101100001001 &
b10110110 $
#256000000000
0!
#256500000000
1!
b110001010011001010001 %
b1000000101100100 #
#257000000000
0!
#257500000000
1!
b110010010011110110101 '
#258000000000
0!
#258500000000
1!
#259000000000
0!
#259500000000
1!
#260000000000
0!
#260500000000
1!
b111000010101 &
b10110101100 $
#261000000000
0!
#261500000000
1!
b111010110110111001 %
b1000000010101110010000 #
#262000000000
0!
#262500000000
1!
b1000111101100101001001 '
#263000000000
0!
#263500000000
1!
#264000000000
0!
#264500000000
1!
#265000000000
0!
#265500000000
1!
b101111001001 &
b111100001110 $
#266000000000
0!
#266500000000
1!
b100011100001111010001 %
b1110010011000100 #
#267000000000
0!
#267500000000
1!
b100101010100010010101 '
#268000000000
0!
#268500000000
1!
#269000000000
0!
#269500000000
1!
#270000000000
0!
#270500000000
1!
b100100101110 &
b100100011011 $
#271000000000
0!
#271500000000
1!
b1011101000010001000100 %
b1011111000100011011001 #
#272000000000
0!
#272500000000
1!
b10111100000110100011101 '
#273000000000
0!
#273500000000
1!
#274000000000
0!
#274500000000
1!
#275000000000
0!
#275500000000
1!
b111001111011 &
b100010010011 $
#276000000000
0!
#276500000000
1!
b100100111100011001 %
b1101110010010001101001 #
#277000000000
0!
#277500000000
1!
b1110010111001110000010 '
#278000000000
0!
#278500000000
1!
#279000000000
0!
#279500000000
1!
#280000000000
0!
#280500000000
1!
b1011111110 &
b11101101111 $
#281000000000
0!
#281500000000
1!
b10001111010000000100 %
b1101110100001000100001 #
#282000000000
0!
#282500000000
1!
b10000000011011000100101 '
#283000000000
0!
#283500000000
1!
#284000000000
0!
#284500000000
1!
#285000000000
0!
#285500000000
1!
b111110101100 &
b11001110000 $
#286000000000
0!
#286500000000
1!
b1101110010000 %
b1010010111000100000000 #
#287000000000
0!
#287500000000
1!
b1010011000110010010000 '
#288000000000
0!
#288500000000
1!
#289000000000
0!
#289500000000
1!
#290000000000
0!
#290500000000
1!
b1010011101 &
b100001001 $
#291000000000
0!
#291500000000
1!
b1101101010001001001 %
b10001001001010001 #
#292000000000
0!
#292500000000
1!
b1111110011010011010 '
#293000000000
0!
#293500000000
1!
#294000000000
0!
#294500000000
1!
#295000000000
0!
#295500000000
1!
b111011100100 &
b101001001000 $
#296000000000
0!
#296500000000
1!
b10011101100010000 %
b1000001011010001000000 #
#297000000000
0!
#297500000000
1!
b1000011110111101010000 '
#298000000000
0!
#298500000000
1!
#299000000000
0!
#299500000000
1!
#300000000000
0!
#300500000000
1!
b1011010100 &
b10100011011 $
#301000000000
0!
#301500000000
1!
b1111111111110010000 %
b110100001000011011001 #
#302000000000
0!
#302500000000
1!
b1000100001000001101001 '
#303000000000
0!
#303500000000
1!
#304000000000
0!
#304500000000
1!
#305000000000
0!
#305500000000
1!
b110011010001 &
b101001010101 $
#306000000000
0!
#306500000000
1!
b10100010001010100001 %
b1000000010000000111001 #
#307000000000
0!
#307500000000
1!
b1010100100001011011010 '
#308000000000
0!
#308500000000
1!
#309000000000
0!
#309500000000
1!
#310000000000
0!
#310500000000
1!
b101111100111 &
b1000111100 $
#311000000000
0!
#311500000000
1!
b100001100101001110001 %
b1001111111000010000 #
#312000000000
0!
#312500000000
1!
b101011100100010000001 '
#313000000000
0!
#313500000000
1!
#314000000000
0!
#314500000000
1!
#315000000000
0!
#315500000000
1!
b110100111010 &
b100001100110 $
#316000000000
0!
#316500000000
1!
b1111011000100100100 %
b1110011100100010100100 #
#317000000000
0!
#317500000000
1!
b10000010111100111001000 '
#318000000000
0!
#318500000000
1!
#319000000000
0!
#319500000000
1!
#320000000000
0!
#320500000000
1!
b111000011100 &
b111010010111 $
#321000000000
0!
#321500000000
1!
b111001001100010000 %
b11111110100010001 #
#322000000000
0!
#322500000000
1!
b1011001000000100001 '
#323000000000
0!
#323500000000
1!
#324000000000
0!
#324500000000
1!
#325000000000
0!
#325500000000
1!
b101011111111 &
b1111100100 $
#326000000000
0!
#326500000000
1!
b110010000101000000001 %
b11110010001100010000 #
#327000000000
0!
#327500000000
1!
b1010000010110100010001 '
#328000000000
0!
#328500000000
1!
#329000000000
0!
#329500000000
1!
#330000000000
0!
#330500000000
1!
b110001101111 &
b11111011101 $
#331000000000
0!
#331500000000
1!
b11001011100000100001 %
b1111011101010011001001 #
#332000000000
0!
#332500000000
1!
b10010101000110011101010 '
#333000000000
0!
#333500000000
1!
#334000000000
0!
#334500000000
1!
#335000000000
0!
#335500000000
1!
b101011011111 &
b101100001100 $
#336000000000
0!
#336500000000
1!
b110100100111001000001 %
b110001000100010010000 #
#337000000000
0!
#337500000000
1!
b1100101101011011010001 '
#338000000000
0!
#338500000000
1!
#339000000000
0!
#339500000000
1!
#340000000000
0!
#340500000000
1!
b11010110001 &
b100110101111 $
#341000000000
0!
#341500000000
1!
b1011001100011001100001 %
b1001111110010110100001 #
#342000000000
0!
#342500000000
1!
b10101001010110000000010 '
#343000000000
0!
#343500000000
1!
#344000000000
0!
#344500000000
1!
#345000000000
0!
#345500000000
1!
b10101100 &
b10011001000 $
#346000000000
0!
#346500000000
1!
b111001110010000 %
b101101101110001000000 #
#347000000000
0!
#347500000000
1!
b101110100111111010000 '
#348000000000
0!
#348500000000
1!
#349000000000
0!
#349500000000
1!
#350000000000
0!
#350500000000
1!
b100010010100 &
b110111011101 $
#351000000000
0!
#351500000000
1!
b1101110001010110010000 %
b1001001000011001001 #
#352000000000
0!
#352500000000
1!
b1110111010011001011001 '
#353000000000
0!
#353500000000
1!
#354000000000
0!
#354500000000
1!
#355000000000
0!
#355500000000
1!
b10110000100 &
b11001100111 $
#356000000000
0!
#356500000000
1!
b111100110110000010000 %
b1010001111110101110001 #
#357000000000
0!
#357500000000
1!
b10001110110100110000001 '
#358000000000
0!
#358500000000
1!
#359000000000
0!
#359500000000
1!
#360000000000
0!
#360500000000
1!
b10100000110 &
b1100101 $
#361000000000
0!
#361500000000
1!
b110010011110000100100 %
b10011111011001 #
#362000000000
0!
#362500000000
1!
b110010110001111111101 '
#363000000000
0!
#363500000000
1!
#364000000000
0!
#364500000000
1!
#365000000000
0!
#365500000000
1!
b110111001011 &
b10010001100 $
#366000000000
0!
#366500000000
1!
b1001101111011111001 %
b101001010110010010000 #
#367000000000
0!
#367500000000
1!
b110011000101110001001 '
#368000000000
0!
#368500000000
1!
#369000000000
0!
#369500000000
1!
#370000000000
0!
#370500000000
1!
b100011110100 &
b101111001011 $
#371000000000
0!
#371500000000
1!
b1100011010100010010000 %
b100011011001011111001 #
#372000000000
0!
#372500000000
1!
b10000110101101110001001 '
#373000000000
0!
#373500000000
1!
#374000000000
0!
#374500000000
1!
#375000000000
0!
#375500000000
1!
b110010100010 &
b1010101 $
#376000000000
0!
#376500000000
1!
b10110101011010000100 %
b1110000111001 #
#377000000000
0!
#377500000000
1!
b10110111001010111101 '
#378000000000
0!
#378500000000
1!
#379000000000
0!
#379500000000
1!
#380000000000
0!
#380500000000
1!
b1010001111 &
b0 $
#381000000000
0!
#381500000000
1!
b1101000101111100001 %
b0 #
#382000000000
0!
#382500000000
1!
b1101000101111100001 '
#383000000000
0!
#383500000000
1!
#384000000000
0!
#384500000000
1!
#385000000000
0!
#385500000000
1!
b100111011001 &
b1100100101 $
#386000000000
0!
#386500000000
1!
b1001011101100111110001 %
b10011110001101011001 #
#387000000000
0!
#387500000000
1!
b1011111011110101001010 '
#388000000000
0!
#388500000000
1!
#389000000000
0!
#389500000000
1!
#390000000000
0!
#390500000000
1!
b1100010110 &
b111111000000 $
#391000000000
0!
#391500000000
1!
b10011000010111100100 %
b1000000000000 #
#392000000000
0!
#392500000000
1!
b10011001010111100100 '
#393000000000
0!
#393500000000
1!
#394000000000
0!
#394500000000
1!
#395000000000
0!
#395500000000
1!
b1101000010 &
b100000110000 $
#396000000000
0!
#396500000000
1!
b10101001110100000100 %
b1111010000100100000000 #
#397000000000
0!
#397500000000
1!
b10001111010011000000100 '
#398000000000
0!
#398500000000
1!
#399000000000
0!
#399500000000
1!
#400000000000
0!
#400500000000
1!
b10101001010 &
b110010111 $
#401000000000
0!
#401500000000
1!
b110111111100101100100 %
b101000011100010001 #
#402000000000
0!
#402500000000
1!
b111101000000001110101 '
#403000000000
0!
#403500000000
1!
#404000000000
0!
#404500000000
1!
#405000000000
0!
#405500000000
1!
b111010110111 &
b111011001011 $
#406000000000
0!
#406500000000
1!
b11010011011010001 %
b10111010011111001 #
#407000000000
0!
#407500000000
1!
b110001101111001010 '
#408000000000
0!
#408500000000
1!
#409000000000
0!
#409500000000
1!
#410000000000
0!
#410500000000
1!
b11010110111 &
b10011100101 $
#411000000000
0!
#411500000000
1!
b1011010001011011010001 %
b101111111010011011001 #
#412000000000
0!
#412500000000
1!
b10001010000101110101010 '
#413000000000
0!
#413500000000
1!
#414000000000
0!
#414500000000
1!
#415000000000
0!
#415500000000
1!
b110010111 &
b110110010000 $
#416000000000
0!
#416500000000
1!
b101000011100010001 %
b1011111000100000000 #
#417000000000
0!
#417500000000
1!
b10000111100000010001 '
#418000000000
0!
#418500000000
1!
#419000000000
0!
#419500000000
1!
#420000000000
0!
#420500000000
1!
b11001100000 &
b11100110110 $
#421000000000
0!
#421500000000
1!
b1010001010010000000000 %
b1100111111111101100100 #
#422000000000
0!
#422500000000
1!
b10111001010001101100100 '
#423000000000
0!
#423500000000
1!
#424000000000
0!
#424500000000
1!
#425000000000
0!
#425500000000
1!
b111000100011 &
b10110110100 $
#426000000000
0!
#426500000000
1!
b110111100011001001 %
b1000001000011010010000 #
#427000000000
0!
#427500000000
1!
b1000111111111101011001 '
#428000000000
0!
#428500000000
1!
#429000000000
0!
#429500000000
1!
#430000000000
0!
#430500000000
1!
b110101011110 &
b1001110111 $
#431000000000
0!
#431500000000
1!
b1101110111010000100 %
b1100001001101010001 #
#432000000000
0!
#432500000000
1!
b11010000000111010101 '
#433000000000
0!
#433500000000
1!
#434000000000
0!
#434500000000
1!
#435000000000
0!
#435500000000
1!
b10100010111 &
b11000010010 $
#436000000000
0!
#436500000000
1!
b110011110100000010001 %
b1001001101100101000100 #
#437000000000
0!
#437500000000
1!
b1111101100000101010101 '
#438000000000
0!
#438500000000
1!
#439000000000
0!
#439500000000
1!
#440000000000
0!
#440500000000
1!
b101101011 &
b111011011001 $
#441000000000
0!
#441500000000
1!
b100000001010111001 %
b10101001111110001 #
#442000000000
0!
#442500000000
1!
b110101011010101010 '
#443000000000
0!
#443500000000
1!
#444000000000
0!
#444500000000
1!
#445000000000
0!
#445500000000
1!
b10110011000 &
b111011000111 $
#446000000000
0!
#446500000000
1!
b111110100101001000000 %
b10111111010110001 #
#447000000000
0!
#447500000000
1!
b1000001100100011110001 '
#448000000000
0!
#448500000000
1!
#449000000000
0!
#449500000000
1!
#450000000000
0!
#450500000000
1!
b11101111 &
b10000000000 $
#451000000000
0!
#451500000000
1!
b1101111100100001 %
b100000000000000000000 #
#452000000000
0!
#452500000000
1!
b100001101111100100001 '
#453000000000
0!
#453500000000
1!
#454000000000
0!
#454500000000
1!
#455000000000
0!
#455500000000
1!
b100011001100 &
b11010011100 $
#456000000000
0!
#456500000000
1!
b1100111110001010010000 %
b1010111010111100010000 #
#457000000000
0!
#457500000000
1!
b10111111001000110100000 '
#458000000000
0!
#458500000000
1!
#459000000000
0!
#459500000000
1!
#460000000000
0!
#460500000000
1!
b100110101000 &
b11011111010 $
#461000000000
0!
#461500000000
1!
b1010000011111001000000 %
b1100001010110000100100 #
#462000000000
0!
#462500000000
1!
b10110001110101001100100 '
#463000000000
0!
#463500000000
1!
#464000000000
0!
#464500000000
1!
#465000000000
0!
#465500000000
1!
b1111101 &
b110101100111 $
#466000000000
0!
#466500000000
1!
b11110100001001 %
b1101011111101110001 #
#467000000000
0!
#467500000000
1!
b1101111110001111010 '
#468000000000
0!
#468500000000
1!
#469000000000
0!
#469500000000
1!
#470000000000
0!
#470500000000
1!
b100111000 &
b10111111101 $
#471000000000
0!
#471500000000
1!
b10111110001000000 %
b1000111101110000001001 #
#472000000000
0!
#472500000000
1!
b1001010101100001001001 '
#473000000000
0!
#473500000000
1!
#474000000000
0!
#474500000000
1!
#475000000000
0!
#475500000000
1!
b110101100101 &
b111101111001 $
#476000000000
0!
#476500000000
1!
b1101100100111011001 %
b100011100110001 #
#477000000000
0!
#477500000000
1!
b1110001000100001010 '
#478000000000
0!
#478500000000
1!
#479000000000
0!
#479500000000
1!
#480000000000
0!
#480500000000
1!
b11001101111 &
b10110110 $
#481000000000
0!
#481500000000
1!
b1010010110010000100001 %
b1000000101100100 #
#482000000000
0!
#482500000000
1!
b1010011110010110000101 '
#483000000000
0!
#483500000000
1!
#484000000000
0!
#484500000000
1!
#485000000000
0!
#485500000000
1!
b10011 &
b110101111011 $
#486000000000
0!
#486500000000
1!
b101101001 %
b1100101100100011001 #
#487000000000
0!
#487500000000
1!
b1100101101010000010 '
#488000000000
0!
#488500000000
1!
#489000000000
0!
#489500000000
1!
#490000000000
0!
#490500000000
1!
b111110011 &
b100010001000 $
#491000000000
0!
#491500000000
1!
b111100110010101001 %
b1101111100100001000000 #
#492000000000
0!
#492500000000
1!
b1110111001010011101001 '
#493000000000
0!
#493500000000
1!
#494000000000
0!
#494500000000
1!
#495000000000
0!
#495500000000
1!
b110001111000 &
b10011111000 $
#496000000000
0!
#496500000000
1!
b11000111100001000000 %
b110001011000001000000 #
#497000000000
0!
#497500000000
1!
b1001010010100010000000 '
