HLSImplementation/AMDemod/drv.vcd
$comment Generated by Amaranth $end
$date 2024-06-03 01:11:24.488384 $end
$timescale 1 fs $end
$scope module bench $end
$scope module top $end
$var wire 1 ! clk $end
$var wire 1 " rst $end
$var wire 12 # MultDataA $end
$var wire 12 $ I_in $end
$var wire 12 % MultDataB $end
$var wire 12 & MultDataC $end
$var wire 12 ' Q_in $end
$var wire 12 ( MultDataD $end
$var wire 24 ) MultResult1 $end
$var wire 24 * MultResult2 $end
$var wire 25 + SquareSum $end
$var wire 25 , d_out $end
$upscope $end
$upscope $end
$enddefinitions $end
#0
$dumpvars
0!
0"
b0 #
b0 $
b0 %
b0 &
b0 '
b0 (
b0 )
b0 *
b0 +
b0 ,
$end
#500000000
1!
#1000000000
0!
#1500000000
1!
b100000000000 '
b100000000000 $
b100000000000 #
b100000000000 %
b100000000000 &
b100000000000 (
#2000000000
0!
#2500000000
1!
b101000000000 '
b10000000000000000000000 *
b101000000000 &
b101000000000 (
b10000000000000000000000 )
#3000000000
0!
#3500000000
1!
b110000000000 '
b1001000000000000000000 *
b100000000000000000000000 +
b110000000000 (
b110000000000 &
b100000000000000000000000 ,
#4000000000
0!
#4500000000
1!
b111000000000 '
b100000000000000000000 *
b11001000000000000000000 +
b111000000000 (
b111000000000 &
b11001000000000000000000 ,
#5000000000
0!
#5500000000
1!
b0 '
b1000000000000000000 *
b10100000000000000000000 +
b0 (
b0 &
b10100000000000000000000 ,
#6000000000
0!
#6500000000
1!
b1000000000 '
b0 *
b10001000000000000000000 +
b1000000000 (
b1000000000 &
b10001000000000000000000 ,
#7000000000
0!
#7500000000
1!
b10000000000 '
b1000000000000000000 *
b10000000000000000000000 +
b10000000000 (
b10000000000 &
b10000000000000000000000 ,
#8000000000
0!
#8500000000
1!
b11000000000 '
b100000000000000000000 *
b10001000000000000000000 +
b11000000000 (
b11000000000 &
b10001000000000000000000 ,
#9000000000
0!
#9500000000
1!
b100000000000 '
b101000000000 $
b10100000000000000000000 +
b100000000000 (
b101000000000 #
b101000000000 %
b1001000000000000000000 *
b100000000000 &
b10100000000000000000000 ,
#10000000000
0!
#10500000000
1!
b101000000000 '
b11001000000000000000000 +
b101000000000 (
b1001000000000000000000 )
b10000000000000000000000 *
b101000000000 &
b11001000000000000000000 ,
#11000000000
0!
#11500000000
1!
b110000000000 '
b1001000000000000000000 *
b110000000000 &
b110000000000 (
#12000000000
0!
#12500000000
1!
b111000000000 '
b100000000000000000000 *
b10010000000000000000000 +
b111000000000 (
b111000000000 &
b10010000000000000000000 ,
#13000000000
0!
#13500000000
1!
b0 '
b1000000000000000000 *
b1101000000000000000000 +
b0 (
b0 &
b1101000000000000000000 ,
#14000000000
0!
#14500000000
1!
b1000000000 '
b0 *
b1010000000000000000000 +
b1000000000 (
b1000000000 &
b1010000000000000000000 ,
#15000000000
0!
#15500000000
1!
b10000000000 '
b1000000000000000000 *
b1001000000000000000000 +
b10000000000 (
b10000000000 &
b1001000000000000000000 ,
#16000000000
0!
#16500000000
1!
b11000000000 '
b100000000000000000000 *
b1010000000000000000000 +
b11000000000 (
b11000000000 &
b1010000000000000000000 ,
#17000000000
0!
#17500000000
1!
b100000000000 '
b110000000000 $
b1101000000000000000000 +
b100000000000 (
b110000000000 #
b110000000000 %
b1001000000000000000000 *
b100000000000 &
b1101000000000000000000 ,
#18000000000
0!
#18500000000
1!
b101000000000 '
b10010000000000000000000 +
b101000000000 (
b100000000000000000000 )
b10000000000000000000000 *
b101000000000 &
b10010000000000000000000 ,
#19000000000
0!
#19500000000
1!
b110000000000 '
b1001000000000000000000 *
b10100000000000000000000 +
b110000000000 (
b110000000000 &
b10100000000000000000000 ,
#20000000000
0!
#20500000000
1!
b111000000000 '
b100000000000000000000 *
b1101000000000000000000 +
b111000000000 (
b111000000000 &
b1101000000000000000000 ,
#21000000000
0!
#21500000000
1!
b0 '
b1000000000000000000 *
b1000000000000000000000 +
b0 (
b0 &
b1000000000000000000000 ,
#22000000000
0!
#22500000000
1!
b1000000000 '
b0 *
b101000000000000000000 +
b1000000000 (
b1000000000 &
b101000000000000000000 ,
#23000000000
0!
#23500000000
1!
b10000000000 '
b1000000000000000000 *
b100000000000000000000 +
b10000000000 (
b10000000000 &
b100000000000000000000 ,
#24000000000
0!
#24500000000
1!
b11000000000 '
b100000000000000000000 *
b101000000000000000000 +
b11000000000 (
b11000000000 &
b101000000000000000000 ,
#25000000000
0!
#25500000000
1!
b100000000000 '
b111000000000 $
b1000000000000000000000 +
b100000000000 (
b111000000000 #
b111000000000 %
b1001000000000000000000 *
b100000000000 &
b1000000000000000000000 ,
#26000000000
0!
#26500000000
1!
b101000000000 '
b1101000000000000000000 +
b101000000000 (
b1000000000000000000 )
b10000000000000000000000 *
b101000000000 &
b1101000000000000000000 ,
#27000000000
0!
#27500000000
1!
b110000000000 '
b1001000000000000000000 *
b10001000000000000000000 +
b110000000000 (
b110000000000 &
b10001000000000000000000 ,
#28000000000
0!
#28500000000
1!
b111000000000 '
b100000000000000000000 *
b1010000000000000000000 +
b111000000000 (
b111000000000 &
b1010000000000000000000 ,
#29000000000
0!
#29500000000
1!
b0 '
b1000000000000000000 *
b101000000000000000000 +
b0 (
b0 &
b101000000000000000000 ,
#30000000000
0!
#30500000000
1!
b1000000000 '
b0 *
b10000000000000000000 +
b1000000000 (
b1000000000 &
b10000000000000000000 ,
#31000000000
0!
#31500000000
1!
b10000000000 '
b1000000000000000000 *
b1000000000000000000 +
b10000000000 (
b10000000000 &
b1000000000000000000 ,
#32000000000
0!
#32500000000
1!
b11000000000 '
b100000000000000000000 *
b10000000000000000000 +
b11000000000 (
b11000000000 &
b10000000000000000000 ,
#33000000000
0!
#33500000000
1!
b100000000000 '
b0 $
b101000000000000000000 +
b100000000000 (
b0 #
b0 %
b1001000000000000000000 *
b100000000000 &
b101000000000000000000 ,
#34000000000
0!
#34500000000
1!
b101000000000 '
b1010000000000000000000 +
b101000000000 (
b0 )
b10000000000000000000000 *
b101000000000 &
b1010000000000000000000 ,
#35000000000
0!
#35500000000
1!
b110000000000 '
b1001000000000000000000 *
b10000000000000000000000 +
b110000000000 (
b110000000000 &
b10000000000000000000000 ,
#36000000000
0!
#36500000000
1!
b111000000000 '
b100000000000000000000 *
b1001000000000000000000 +
b111000000000 (
b111000000000 &
b1001000000000000000000 ,
#37000000000
0!
#37500000000
1!
b0 '
b1000000000000000000 *
b100000000000000000000 +
b0 (
b0 &
b100000000000000000000 ,
#38000000000
0!
#38500000000
1!
b1000000000 '
b0 *
b1000000000000000000 +
b1000000000 (
b1000000000 &
b1000000000000000000 ,
#39000000000
0!
#39500000000
1!
b10000000000 '
b1000000000000000000 *
b0 +
b10000000000 (
b10000000000 &
b0 ,
#40000000000
0!
#40500000000
1!
b11000000000 '
b100000000000000000000 *
b1000000000000000000 +
b11000000000 (
b11000000000 &
b1000000000000000000 ,
#41000000000
0!
#41500000000
1!
b100000000000 '
b1000000000 $
b100000000000000000000 +
b100000000000 (
b1000000000 #
b1000000000 %
b1001000000000000000000 *
b100000000000 &
b100000000000000000000 ,
#42000000000
0!
#42500000000
1!
b101000000000 '
b1001000000000000000000 +
b101000000000 (
b1000000000000000000 )
b10000000000000000000000 *
b101000000000 &
b1001000000000000000000 ,
#43000000000
0!
#43500000000
1!
b110000000000 '
b1001000000000000000000 *
b10001000000000000000000 +
b110000000000 (
b110000000000 &
b10001000000000000000000 ,
#44000000000
0!
#44500000000
1!
b111000000000 '
b100000000000000000000 *
b1010000000000000000000 +
b111000000000 (
b111000000000 &
b1010000000000000000000 ,
#45000000000
0!
#45500000000
1!
b0 '
b1000000000000000000 *
b101000000000000000000 +
b0 (
b0 &
b101000000000000000000 ,
#46000000000
0!
#46500000000
1!
b1000000000 '
b0 *
b10000000000000000000 +
b1000000000 (
b1000000000 &
b10000000000000000000 ,
#47000000000
0!
#47500000000
1!
b10000000000 '
b1000000000000000000 *
b1000000000000000000 +
b10000000000 (
b10000000000 &
b1000000000000000000 ,
#48000000000
0!
#48500000000
1!
b11000000000 '
b100000000000000000000 *
b10000000000000000000 +
b11000000000 (
b11000000000 &
b10000000000000000000 ,
#49000000000
0!
#49500000000
1!
b100000000000 '
b10000000000 $
b101000000000000000000 +
b100000000000 (
b10000000000 #
b10000000000 %
b1001000000000000000000 *
b100000000000 &
b101000000000000000000 ,
#50000000000
0!
#50500000000
1!
b101000000000 '
b1010000000000000000000 +
b101000000000 (
b100000000000000000000 )
b10000000000000000000000 *
b101000000000 &
b1010000000000000000000 ,
#51000000000
0!
#51500000000
1!
b110000000000 '
b1001000000000000000000 *
b10100000000000000000000 +
b110000000000 (
b110000000000 &
b10100000000000000000000 ,
#52000000000
0!
#52500000000
1!
b111000000000 '
b100000000000000000000 *
b1101000000000000000000 +
b111000000000 (
b111000000000 &
b1101000000000000000000 ,
#53000000000
0!
#53500000000
1!
b0 '
b1000000000000000000 *
b1000000000000000000000 +
b0 (
b0 &
b1000000000000000000000 ,
#54000000000
0!
#54500000000
1!
b1000000000 '
b0 *
b101000000000000000000 +
b1000000000 (
b1000000000 &
b101000000000000000000 ,
#55000000000
0!
#55500000000
1!
b10000000000 '
b1000000000000000000 *
b100000000000000000000 +
b10000000000 (
b10000000000 &
b100000000000000000000 ,
#56000000000
0!
#56500000000
1!
b11000000000 '
b100000000000000000000 *
b101000000000000000000 +
b11000000000 (
b11000000000 &
b101000000000000000000 ,
#57000000000
0!
#57500000000
1!
b100000000000 '
b11000000000 $
b1000000000000000000000 +
b100000000000 (
b11000000000 #
b11000000000 %
b1001000000000000000000 *
b100000000000 &
b1000000000000000000000 ,
#58000000000
0!
#58500000000
1!
b101000000000 '
b1101000000000000000000 +
b101000000000 (
b1001000000000000000000 )
b10000000000000000000000 *
b101000000000 &
b1101000000000000000000 ,
#59000000000
0!
#59500000000
1!
b110000000000 '
b1001000000000000000000 *
b11001000000000000000000 +
b110000000000 (
b110000000000 &
b11001000000000000000000 ,
#60000000000
0!
#60500000000
1!
b111000000000 '
b100000000000000000000 *
b10010000000000000000000 +
b111000000000 (
b111000000000 &
b10010000000000000000000 ,
#61000000000
0!
#61500000000
1!
b0 '
b1000000000000000000 *
b1101000000000000000000 +
b0 (
b0 &
b1101000000000000000000 ,
#62000000000
0!
#62500000000
1!
b1000000000 '
b0 *
b1010000000000000000000 +
b1000000000 (
b1000000000 &
b1010000000000000000000 ,
#63000000000
0!
#63500000000
1!
b10000000000 '
b1000000000000000000 *
b1001000000000000000000 +
b10000000000 (
b10000000000 &
b1001000000000000000000 ,
#64000000000
0!
#64500000000
1!
b11000000000 '
b100000000000000000000 *
b1010000000000000000000 +
b11000000000 (
b11000000000 &
b1010000000000000000000 ,
#65000000000
0!
#65500000000
1!
b1001000000000000000000 *
b1101000000000000000000 +
b1101000000000000000000 ,
