HLSImplementation/SineLUT/simpleSine_waves.vcd
$comment Generated by Amaranth $end
$date 2024-05-31 22:45:08.373482 $end
$timescale 1 fs $end
$scope module bench $end
$scope module top $end
$var wire 1 ! clk $end
$var wire 1 " rst $end
$var wire 1 # rst$2 $end
$var wire 1 $ sample_clock_ce $end
$var wire 64 % phase $end
$var wire 64 & phase_inc_carrGen $end
$var wire 12 ' sinewave $end
$upscope $end
$upscope $end
$enddefinitions $end
#0
$dumpvars
0!
0"
1#
0$
b0 %
b0 &
b0 '
$end
#500000000
1!
0#
b11001 '
b1 &
1$
#1000000000
0!
#1500000000
1!
b1 %
#2000000000
0!
#2500000000
1!
b10 %
#3000000000
0!
#3500000000
1!
b11 %
#4000000000
0!
#4500000000
1!
b100 %
#5000000000
0!
#5500000000
1!
b101 %
#6000000000
0!
#6500000000
1!
b110 %
#7000000000
0!
#7500000000
1!
b111 %
#8000000000
0!
#8500000000
1!
b1000 %
#9000000000
0!
#9500000000
1!
b1001 %
#10000000000
0!
#10500000000
1!
b1010 %
#11000000000
0!
#11500000000
1!
b1011 %
#12000000000
0!
#12500000000
1!
b1100 %
#13000000000
0!
#13500000000
1!
b1101 %
#14000000000
0!
#14500000000
1!
b1110 %
#15000000000
0!
#15500000000
1!
b1111 %
#16000000000
0!
#16500000000
1!
b10000 %
#17000000000
0!
#17500000000
1!
b10001 %
#18000000000
0!
#18500000000
1!
b10010 %
#19000000000
0!
#19500000000
1!
b10011 %
#20000000000
0!
#20500000000
1!
b10100 %
#21000000000
0!
#21500000000
1!
b10101 %
#22000000000
0!
#22500000000
1!
b10110 %
#23000000000
0!
#23500000000
1!
b10111 %
#24000000000
0!
#24500000000
1!
b11000 %
#25000000000
0!
#25500000000
1!
b11001 %
#26000000000
0!
#26500000000
1!
b11010 %
#27000000000
0!
#27500000000
1!
b11011 %
#28000000000
0!
#28500000000
1!
b11100 %
#29000000000
0!
#29500000000
1!
b11101 %
#30000000000
0!
#30500000000
1!
b11110 %
#31000000000
0!
#31500000000
1!
b11111 %
#32000000000
0!
#32500000000
1!
b100000 %
#33000000000
0!
#33500000000
1!
b100001 %
#34000000000
0!
#34500000000
1!
b100010 %
#35000000000
0!
#35500000000
1!
b100011 %
#36000000000
0!
#36500000000
1!
b100100 %
#37000000000
0!
#37500000000
1!
b100101 %
#38000000000
0!
#38500000000
1!
b100110 %
#39000000000
0!
#39500000000
1!
b100111 %
#40000000000
0!
#40500000000
1!
b101000 %
#41000000000
0!
#41500000000
1!
b101001 %
#42000000000
0!
#42500000000
1!
b101010 %
#43000000000
0!
#43500000000
1!
b101011 %
#44000000000
0!
#44500000000
1!
b101100 %
#45000000000
0!
#45500000000
1!
b101101 %
#46000000000
0!
#46500000000
1!
b101110 %
#47000000000
0!
#47500000000
1!
b101111 %
#48000000000
0!
#48500000000
1!
b110000 %
#49000000000
0!
#49500000000
1!
b110001 %
#50000000000
0!
#50500000000
1!
b110010 %
#51000000000
0!
#51500000000
1!
b110011 %
#52000000000
0!
#52500000000
1!
b110100 %
#53000000000
0!
#53500000000
1!
b110101 %
#54000000000
0!
#54500000000
1!
b110110 %
#55000000000
0!
#55500000000
1!
b110111 %
#56000000000
0!
#56500000000
1!
b111000 %
#57000000000
0!
#57500000000
1!
b111001 %
#58000000000
0!
#58500000000
1!
b111010 %
#59000000000
0!
#59500000000
1!
b111011 %
#60000000000
0!
#60500000000
1!
b111100 %
#61000000000
0!
#61500000000
1!
b111101 %
#62000000000
0!
#62500000000
1!
b111110 %
#63000000000
0!
#63500000000
1!
b111111 %
#64000000000
0!
#64500000000
1!
b1000000 %
#65000000000
0!
#65500000000
1!
b1000001 %
#66000000000
0!
#66500000000
1!
b1000010 %
#67000000000
0!
#67500000000
1!
b1000011 %
#68000000000
0!
#68500000000
1!
b1000100 %
#69000000000
0!
#69500000000
1!
b1000101 %
#70000000000
0!
#70500000000
1!
b1000110 %
#71000000000
0!
#71500000000
1!
b1000111 %
#72000000000
0!
#72500000000
1!
b1001000 %
#73000000000
0!
#73500000000
1!
b1001001 %
#74000000000
0!
#74500000000
1!
b1001010 %
#75000000000
0!
#75500000000
1!
b1001011 %
#76000000000
0!
#76500000000
1!
b1001100 %
#77000000000
0!
#77500000000
1!
b1001101 %
#78000000000
0!
#78500000000
1!
b1001110 %
#79000000000
0!
#79500000000
1!
b1001111 %
#80000000000
0!
#80500000000
1!
b1010000 %
#81000000000
0!
#81500000000
1!
b1010001 %
#82000000000
0!
#82500000000
1!
b1010010 %
#83000000000
0!
#83500000000
1!
b1010011 %
#84000000000
0!
#84500000000
1!
b1010100 %
#85000000000
0!
#85500000000
1!
b1010101 %
#86000000000
0!
#86500000000
1!
b1010110 %
#87000000000
0!
#87500000000
1!
b1010111 %
#88000000000
0!
#88500000000
1!
b1011000 %
#89000000000
0!
#89500000000
1!
b1011001 %
#90000000000
0!
#90500000000
1!
b1011010 %
#91000000000
0!
#91500000000
1!
b1011011 %
#92000000000
0!
#92500000000
1!
b1011100 %
#93000000000
0!
#93500000000
1!
b1011101 %
#94000000000
0!
#94500000000
1!
b1011110 %
#95000000000
0!
#95500000000
1!
b1011111 %
#96000000000
0!
#96500000000
1!
b1100000 %
#97000000000
0!
#97500000000
1!
b1100001 %
#98000000000
0!
#98500000000
1!
b1100010 %
#99000000000
0!
#99500000000
1!
b1100011 %
#100000000000
0!
#100500000000
1!
b1100100 %
#101000000000
0!
#101500000000
1!
b1100101 %
#102000000000
0!
#102500000000
1!
b1100110 %
#103000000000
0!
#103500000000
1!
b1100111 %
#104000000000
0!
#104500000000
1!
b1101000 %
#105000000000
0!
#105500000000
1!
b1101001 %
#106000000000
0!
#106500000000
1!
b1101010 %
#107000000000
0!
#107500000000
1!
b1101011 %
#108000000000
0!
#108500000000
1!
b1101100 %
#109000000000
0!
#109500000000
1!
b1101101 %
#110000000000
0!
#110500000000
1!
b1101110 %
#111000000000
0!
#111500000000
1!
b1101111 %
#112000000000
0!
#112500000000
1!
b1110000 %
#113000000000
0!
#113500000000
1!
b1110001 %
#114000000000
0!
#114500000000
1!
b1110010 %
#115000000000
0!
#115500000000
1!
b1110011 %
#116000000000
0!
#116500000000
1!
b1110100 %
#117000000000
0!
#117500000000
1!
b1110101 %
#118000000000
0!
#118500000000
1!
b1110110 %
#119000000000
0!
#119500000000
1!
b1110111 %
#120000000000
0!
#120500000000
1!
b1111000 %
#121000000000
0!
#121500000000
1!
b1111001 %
#122000000000
0!
#122500000000
1!
b1111010 %
#123000000000
0!
#123500000000
1!
b1111011 %
#124000000000
0!
#124500000000
1!
b1111100 %
#125000000000
0!
#125500000000
1!
b1111101 %
#126000000000
0!
#126500000000
1!
b1111110 %
#127000000000
0!
#127500000000
1!
b1111111 %
#128000000000
0!
#128500000000
1!
b10000000 %
#129000000000
0!
#129500000000
1!
b10000001 %
#130000000000
0!
#130500000000
1!
b10000010 %
#131000000000
0!
#131500000000
1!
b10000011 %
#132000000000
0!
#132500000000
1!
b10000100 %
#133000000000
0!
#133500000000
1!
b10000101 %
#134000000000
0!
#134500000000
1!
b10000110 %
#135000000000
0!
#135500000000
1!
b10000111 %
#136000000000
0!
#136500000000
1!
b10001000 %
#137000000000
0!
#137500000000
1!
b10001001 %
#138000000000
0!
#138500000000
1!
b10001010 %
#139000000000
0!
#139500000000
1!
b10001011 %
#140000000000
0!
#140500000000
1!
b10001100 %
#141000000000
0!
#141500000000
1!
b10001101 %
#142000000000
0!
#142500000000
1!
b10001110 %
#143000000000
0!
#143500000000
1!
b10001111 %
#144000000000
0!
#144500000000
1!
b10010000 %
#145000000000
0!
#145500000000
1!
b10010001 %
#146000000000
0!
#146500000000
1!
b10010010 %
#147000000000
0!
#147500000000
1!
b10010011 %
#148000000000
0!
#148500000000
1!
b10010100 %
#149000000000
0!
#149500000000
1!
b10010101 %
#150000000000
0!
#150500000000
1!
b10010110 %
#151000000000
0!
#151500000000
1!
b10010111 %
#152000000000
0!
#152500000000
1!
b10011000 %
#153000000000
0!
#153500000000
1!
b10011001 %
#154000000000
0!
#154500000000
1!
b10011010 %
#155000000000
0!
#155500000000
1!
b10011011 %
#156000000000
0!
#156500000000
1!
b10011100 %
#157000000000
0!
#157500000000
1!
b10011101 %
#158000000000
0!
#158500000000
1!
b10011110 %
#159000000000
0!
#159500000000
1!
b10011111 %
#160000000000
0!
#160500000000
1!
b10100000 %
#161000000000
0!
#161500000000
1!
b10100001 %
#162000000000
0!
#162500000000
1!
b10100010 %
#163000000000
0!
#163500000000
1!
b10100011 %
#164000000000
0!
#164500000000
1!
b10100100 %
#165000000000
0!
#165500000000
1!
b10100101 %
#166000000000
0!
#166500000000
1!
b10100110 %
#167000000000
0!
#167500000000
1!
b10100111 %
#168000000000
0!
#168500000000
1!
b10101000 %
#169000000000
0!
#169500000000
1!
b10101001 %
#170000000000
0!
#170500000000
1!
b10101010 %
#171000000000
0!
#171500000000
1!
b10101011 %
#172000000000
0!
#172500000000
1!
b10101100 %
#173000000000
0!
#173500000000
1!
b10101101 %
#174000000000
0!
#174500000000
1!
b10101110 %
#175000000000
0!
#175500000000
1!
b10101111 %
#176000000000
0!
#176500000000
1!
b10110000 %
#177000000000
0!
#177500000000
1!
b10110001 %
#178000000000
0!
#178500000000
1!
b10110010 %
#179000000000
0!
#179500000000
1!
b10110011 %
#180000000000
0!
#180500000000
1!
b10110100 %
#181000000000
0!
#181500000000
1!
b10110101 %
#182000000000
0!
#182500000000
1!
b10110110 %
#183000000000
0!
#183500000000
1!
b10110111 %
#184000000000
0!
#184500000000
1!
b10111000 %
#185000000000
0!
#185500000000
1!
b10111001 %
#186000000000
0!
#186500000000
1!
b10111010 %
#187000000000
0!
#187500000000
1!
b10111011 %
#188000000000
0!
#188500000000
1!
b10111100 %
#189000000000
0!
#189500000000
1!
b10111101 %
#190000000000
0!
#190500000000
1!
b10111110 %
#191000000000
0!
#191500000000
1!
b10111111 %
#192000000000
0!
#192500000000
1!
b11000000 %
#193000000000
0!
#193500000000
1!
b11000001 %
#194000000000
0!
#194500000000
1!
b11000010 %
#195000000000
0!
#195500000000
1!
b11000011 %
#196000000000
0!
#196500000000
1!
b11000100 %
#197000000000
0!
#197500000000
1!
b11000101 %
#198000000000
0!
#198500000000
1!
b11000110 %
#199000000000
0!
#199500000000
1!
b11000111 %
#200000000000
0!
#200500000000
1!
b11001000 %
#201000000000
0!
#201500000000
1!
b11001001 %
#202000000000
0!
#202500000000
1!
b11001010 %
#203000000000
0!
#203500000000
1!
b11001011 %
#204000000000
0!
#204500000000
1!
b11001100 %
#205000000000
0!
#205500000000
1!
b11001101 %
#206000000000
0!
#206500000000
1!
b11001110 %
#207000000000
0!
#207500000000
1!
b11001111 %
#208000000000
0!
#208500000000
1!
b11010000 %
#209000000000
0!
#209500000000
1!
b11010001 %
#210000000000
0!
#210500000000
1!
b11010010 %
#211000000000
0!
#211500000000
1!
b11010011 %
#212000000000
0!
#212500000000
1!
b11010100 %
#213000000000
0!
#213500000000
1!
b11010101 %
#214000000000
0!
#214500000000
1!
b11010110 %
#215000000000
0!
#215500000000
1!
b11010111 %
#216000000000
0!
#216500000000
1!
b11011000 %
#217000000000
0!
#217500000000
1!
b11011001 %
#218000000000
0!
#218500000000
1!
b11011010 %
#219000000000
0!
#219500000000
1!
b11011011 %
#220000000000
0!
#220500000000
1!
b11011100 %
#221000000000
0!
#221500000000
1!
b11011101 %
#222000000000
0!
#222500000000
1!
b11011110 %
#223000000000
0!
#223500000000
1!
b11011111 %
#224000000000
0!
#224500000000
1!
b11100000 %
#225000000000
0!
#225500000000
1!
b11100001 %
#226000000000
0!
#226500000000
1!
b11100010 %
#227000000000
0!
#227500000000
1!
b11100011 %
#228000000000
0!
#228500000000
1!
b11100100 %
#229000000000
0!
#229500000000
1!
b11100101 %
#230000000000
0!
#230500000000
1!
b11100110 %
#231000000000
0!
#231500000000
1!
b11100111 %
#232000000000
0!
#232500000000
1!
b11101000 %
#233000000000
0!
#233500000000
1!
b11101001 %
#234000000000
0!
#234500000000
1!
b11101010 %
#235000000000
0!
#235500000000
1!
b11101011 %
#236000000000
0!
#236500000000
1!
b11101100 %
#237000000000
0!
#237500000000
1!
b11101101 %
#238000000000
0!
#238500000000
1!
b11101110 %
#239000000000
0!
#239500000000
1!
b11101111 %
#240000000000
0!
#240500000000
1!
b11110000 %
#241000000000
0!
#241500000000
1!
b11110001 %
#242000000000
0!
#242500000000
1!
b11110010 %
#243000000000
0!
#243500000000
1!
b11110011 %
#244000000000
0!
#244500000000
1!
b11110100 %
#245000000000
0!
#245500000000
1!
b11110101 %
#246000000000
0!
#246500000000
1!
b11110110 %
#247000000000
0!
#247500000000
1!
b11110111 %
#248000000000
0!
#248500000000
1!
b11111000 %
#249000000000
0!
#249500000000
1!
b11111001 %
#250000000000
0!
#250500000000
1!
b11111010 %
#251000000000
0!
#251500000000
1!
b11111011 %
#252000000000
0!
#252500000000
1!
b11111100 %
#253000000000
0!
#253500000000
1!
b11111101 %
#254000000000
0!
#254500000000
1!
b11111110 %
#255000000000
0!
#255500000000
1!
b11111111 %
#256000000000
0!
#256500000000
1!
b100000000 %
