2.HLSImplementation/AMDemod/AMDemod_waves.vcd
$date
	Mon Jul  1 10:16:22 2024
$end
$version
	Icarus Verilog
$end
$timescale
	1ps
$end
$scope module top $end
$var wire 12 ! I_in [11:0] $end
$var wire 12 " Q_in [11:0] $end
$var wire 1 # clk $end
$var wire 1 $ rst $end
$var wire 1 % valid $end
$var wire 32 & root [31:0] $end
$var wire 25 ' \$3 [24:0] $end
$var wire 24 ( \$2 [23:0] $end
$var wire 24 ) \$1 [23:0] $end
$var reg 25 * \$10 [24:0] $end
$var reg 32 + \$11 [31:0] $end
$var reg 1 , \$12 $end
$var reg 25 - \$13 [24:0] $end
$var reg 12 . \$4 [11:0] $end
$var reg 12 / \$5 [11:0] $end
$var reg 12 0 \$6 [11:0] $end
$var reg 12 1 \$7 [11:0] $end
$var reg 24 2 \$8 [23:0] $end
$var reg 24 3 \$9 [23:0] $end
$var reg 1 4 \$auto$verilog_backend.cc:2352:dump_module$1 $end
$var reg 12 5 MultDataA [11:0] $end
$var reg 12 6 MultDataB [11:0] $end
$var reg 12 7 MultDataC [11:0] $end
$var reg 12 8 MultDataD [11:0] $end
$var reg 24 9 MultResult1 [23:0] $end
$var reg 24 : MultResult2 [23:0] $end
$var reg 25 ; SquareSum [24:0] $end
$var reg 25 < d_out [24:0] $end
$var reg 32 = rad [31:0] $end
$var reg 1 > start $end
$scope module sqrt $end
$var wire 1 # clk $end
$var wire 32 ? rad [31:0] $end
$var wire 1 $ rst $end
$var wire 1 > start $end
$var wire 34 @ test_res [33:0] $end
$var wire 5 A \$5 [4:0] $end
$var wire 1 B \$4 $end
$var wire 33 C \$3 [32:0] $end
$var wire 1 D \$2 $end
$var wire 35 E \$1 [34:0] $end
$var reg 32 F \$10 [31:0] $end
$var reg 34 G \$11 [33:0] $end
$var reg 32 H \$12 [31:0] $end
$var reg 32 I \$13 [31:0] $end
$var reg 1 J \$6 $end
$var reg 1 K \$7 $end
$var reg 4 L \$8 [3:0] $end
$var reg 32 M \$9 [31:0] $end
$var reg 1 N \$auto$verilog_backend.cc:2352:dump_module$2 $end
$var reg 34 O ac [33:0] $end
$var reg 32 P ac_next [31:0] $end
$var reg 1 Q busy $end
$var reg 4 R i [3:0] $end
$var reg 32 S q [31:0] $end
$var reg 32 T q_next [31:0] $end
$var reg 32 U rem [31:0] $end
$var reg 32 V root [31:0] $end
$var reg 1 % valid $end
$var reg 32 W x [31:0] $end
$var reg 32 X x_next [31:0] $end
$upscope $end
$upscope $end
$scope module top $end
$scope module sqrt $end
$upscope $end
$upscope $end
$enddefinitions $end
$comment Show the parameter values. $end
$dumpall
$end
#0
$dumpvars
b0 X
b0 W
b0 V
b0 U
b0 T
b0 S
b0 R
0Q
b0 P
b0 O
0N
b0 M
b0 L
0K
1J
b0 I
b0 H
b0 G
b0 F
b11111111111111111111111111111111111 E
0D
b0 C
0B
b1 A
b1111111111111111111111111111111111 @
b0 ?
1>
b0 =
b0 <
b0 ;
b0 :
b0 9
b0 8
b0 7
b0 6
b0 5
04
b0 3
b0 2
b0 1
b0 0
b0 /
b0 .
b0 -
1,
b0 +
b0 *
b0 )
b0 (
b0 '
b0 &
0%
z$
1#
b0 "
b0 !
$end
#6250
0#
#12500
1Q
1#
#18750
0#
#25000
1#
#31250
0#
#37500
1#
#43750
0#
#50000
1#
#56250
0#
#62500
1#
#68750
0#
#75000
1#
#81250
0#
#87500
1#
#93750
0#
#100000
1#
#106250
0#
#112500
1#
#118750
0#
#125000
1#
#131250
0#
#137500
1#
#143750
0#
#150000
1#
#156250
0#
#162500
1#
#168750
0#
#175000
1#
#181250
0#
#187500
1#
#193750
0#
#200000
1#
#206250
0#
#212500
1#
#218750
0#
#225000
1#
#231250
0#
#237500
1#
#243750
0#
#250000
1#
#256250
0#
#262500
1#
#268750
0#
#275000
1#
#281250
0#
#287500
1#
#293750
0#
#300000
1#
#306250
0#
#312500
1#
#318750
0#
#325000
1#
#331250
0#
#337500
1#
#343750
0#
#350000
1#
#356250
0#
#362500
1#
#368750
0#
#375000
1#
#381250
0#
#387500
1#
#393750
0#
#400000
1#
#406250
0#
#412500
b11111111111 1
b11111111111 0
b11111111111 /
b11111111111 .
b11111111111 "
b11111111111 !
1#
#418750
0#
#425000
b1111111111000000000001 2
b1111111111000000000001 3
b1111111111000000000001 )
b11111111111 5
b11111111111 6
b1111111111000000000001 (
b11111111111 7
b11111111111 8
1#
#431250
0#
#437500
b11111111110000000000010 *
b1111111111000000000001 :
b11111111110000000000010 '
b1111111111000000000001 9
1#
#443750
0#
#450000
b11111111110000000000010 +
b11111111110000000000010 ;
1#
#456250
0#
#462500
b11111111110000000000010 F
b11111111110000000000010 =
b11111111110000000000010 ?
1#
#468750
0#
#475000
b1111111111000000000001000 X
b11111111110000000000010 W
1#
