2.HLSImplementation/AMDemod/sqrt.vcd
$comment Generated by Amaranth $end
$date 2024-06-11 13:34:25.900910 $end
$timescale 1 fs $end
$scope module bench $end
$scope module top $end
$var wire 1 ! clk $end
$var wire 1 " rst $end
$scope module top $end
$var wire 1 ! clk $end
$var wire 1 " rst $end
$var wire 32 # num $end
$var wire 32 $ num$1 $end
$var wire 16 % sqrt $end
$var wire 16 & sqrt$3 $end
$scope module sqrt_module $end
$var wire 1 ! clk $end
$var wire 1 " rst $end
$var wire 32 # num $end
$var wire 16 & sqrt $end
$var string 1 ' fsm_state $end
$var wire 32 ( a $end
$var wire 16 ) q $end
$var wire 4 * i $end
$var wire 18 + left $end
$var wire 18 , right $end
$var wire 18 - r $end
$upscope $end
$upscope $end
$upscope $end
$upscope $end
$enddefinitions $end
#0
$dumpvars
0!
0"
b1111111 #
b1111111 $
b0 %
b0 &
sINIT/0 '
b0 (
b0 )
b0 *
b0 +
b0 ,
b0 -
$end
#500000000
1!
sCALCULATE/1 '
b1111111 (
#1000000000
0!
#1500000000
1!
b1 *
b100000000000000000 ,
b100000000000000 )
#2000000000
0!
#2500000000
1!
b10 *
b100100000000000000 ,
b100000000000000000 -
#3000000000
0!
#3500000000
1!
b0 )
b11 *
b110100000000000000 ,
b100100000000000000 -
#4000000000
0!
#4500000000
1!
b100 *
b100000000000000 +
b110000000000000000 ,
b110100000000000000 -
#5000000000
0!
#5500000000
1!
b101 *
#6000000000
0!
#6500000000
1!
b110 *
#7000000000
0!
#7500000000
1!
b111 *
#8000000000
0!
#8500000000
1!
b1000 *
#9000000000
0!
#9500000000
1!
b1001 *
#10000000000
0!
#10500000000
1!
b1010 *
#11000000000
0!
#11500000000
1!
b1011 *
#12000000000
0!
#12500000000
1!
b1100 *
#13000000000
0!
#13500000000
1!
b1101 *
#14000000000
0!
#14500000000
1!
b1110 *
#15000000000
0!
#15500000000
1!
b1111 *
#16000000000
0!
#16500000000
1!
b0 *
#17000000000
0!
#17500000000
1!
b1 *
