5.NewModules/SineGenerator/Testbench/simpleSine_waves.vcd
$date
	Mon Apr 15 21:46:01 2024
$end
$version
	Icarus Verilog
$end
$timescale
	1ps
$end
$scope module simpleSine $end
$var wire 1 ! clk $end
$var wire 64 " phase_inc_carrGen [63:0] $end
$var wire 1 # rst $end
$var wire 1 $ sample_clock_ce $end
$var parameter 32 % LB $end
$var parameter 32 & PB $end
$var parameter 32 ' SB $end
$var reg 64 ( phase [63:0] $end
$var reg 12 ) sinewave [11:0] $end
$upscope $end
$enddefinitions $end
$comment Show the parameter values. $end
$dumpall
b1100 '
b1000000 &
b1000 %
$end
#0
$dumpvars
b0 )
b10000000000000000000000000000000000000000000000000000000000 (
1$
z#
b10000000000000000000000000000000000000000000000000000000000 "
1!
$end
#6250
0!
#12500
b11001000 )
b100000000000000000000000000000000000000000000000000000000000 (
1!
#18750
0!
#25000
b110001111 )
b110000000000000000000000000000000000000000000000000000000000 (
1!
#31250
0!
#37500
b1001010010 )
b1000000000000000000000000000000000000000000000000000000000000 (
1!
#43750
0!
#50000
b1100001111 )
b1010000000000000000000000000000000000000000000000000000000000 (
1!
#56250
0!
#62500
b1111000100 )
b1100000000000000000000000000000000000000000000000000000000000 (
1!
#68750
0!
#75000
b10001110001 )
b1110000000000000000000000000000000000000000000000000000000000 (
1!
#81250
0!
#87500
b10100010010 )
b10000000000000000000000000000000000000000000000000000000000000 (
1!
#93750
0!
#100000
b10110100111 )
b10010000000000000000000000000000000000000000000000000000000000 (
1!
#106250
0!
#112500
b11000101110 )
b10100000000000000000000000000000000000000000000000000000000000 (
1!
#118750
0!
#125000
b11010100110 )
b10110000000000000000000000000000000000000000000000000000000000 (
1!
#131250
0!
#137500
b11100001101 )
b11000000000000000000000000000000000000000000000000000000000000 (
1!
#143750
0!
#150000
b11101100011 )
b11010000000000000000000000000000000000000000000000000000000000 (
1!
#156250
0!
#162500
b11110100110 )
b11100000000000000000000000000000000000000000000000000000000000 (
1!
#168750
0!
#175000
b11111010111 )
b11110000000000000000000000000000000000000000000000000000000000 (
1!
#181250
0!
#187500
b11111110101 )
b100000000000000000000000000000000000000000000000000000000000000 (
1!
#193750
0!
#200000
b11111111111 )
b100010000000000000000000000000000000000000000000000000000000000 (
1!
#206250
0!
#212500
b11111110101 )
b100100000000000000000000000000000000000000000000000000000000000 (
1!
#218750
0!
#225000
b11111010111 )
b100110000000000000000000000000000000000000000000000000000000000 (
1!
#231250
0!
#237500
b11110100110 )
b101000000000000000000000000000000000000000000000000000000000000 (
1!
#243750
0!
#250000
b11101100011 )
b101010000000000000000000000000000000000000000000000000000000000 (
1!
#256250
0!
#262500
b11100001101 )
b101100000000000000000000000000000000000000000000000000000000000 (
1!
#268750
0!
#275000
b11010100110 )
b101110000000000000000000000000000000000000000000000000000000000 (
1!
#281250
0!
#287500
b11000101110 )
b110000000000000000000000000000000000000000000000000000000000000 (
1!
#293750
0!
#300000
b10110100111 )
b110010000000000000000000000000000000000000000000000000000000000 (
1!
#306250
0!
#312500
b10100010010 )
b110100000000000000000000000000000000000000000000000000000000000 (
1!
#318750
0!
#325000
b10001110001 )
b110110000000000000000000000000000000000000000000000000000000000 (
1!
#331250
0!
#337500
b1111000100 )
b111000000000000000000000000000000000000000000000000000000000000 (
1!
#343750
0!
#350000
b1100001111 )
b111010000000000000000000000000000000000000000000000000000000000 (
1!
#356250
0!
#362500
b1001010010 )
b111100000000000000000000000000000000000000000000000000000000000 (
1!
#368750
0!
#375000
b110001111 )
b111110000000000000000000000000000000000000000000000000000000000 (
1!
#381250
0!
#387500
b11001000 )
b1000000000000000000000000000000000000000000000000000000000000000 (
1!
#393750
0!
#400000
b0 )
b1000010000000000000000000000000000000000000000000000000000000000 (
1!
#406250
0!
#412500
b111100111000 )
b1000100000000000000000000000000000000000000000000000000000000000 (
1!
#418750
0!
#425000
b111001110001 )
b1000110000000000000000000000000000000000000000000000000000000000 (
1!
#431250
0!
#437500
b110110101110 )
b1001000000000000000000000000000000000000000000000000000000000000 (
1!
#443750
0!
#450000
b110011110001 )
b1001010000000000000000000000000000000000000000000000000000000000 (
1!
#456250
0!
#462500
b110000111100 )
b1001100000000000000000000000000000000000000000000000000000000000 (
1!
#468750
0!
#475000
b101110001111 )
b1001110000000000000000000000000000000000000000000000000000000000 (
1!
#481250
0!
#487500
b101011101110 )
b1010000000000000000000000000000000000000000000000000000000000000 (
1!
#493750
0!
#500000
b101001011001 )
b1010010000000000000000000000000000000000000000000000000000000000 (
1!
#506250
0!
#512500
b100111010010 )
b1010100000000000000000000000000000000000000000000000000000000000 (
1!
#518750
0!
#525000
b100101011010 )
b1010110000000000000000000000000000000000000000000000000000000000 (
1!
#531250
0!
#537500
b100011110011 )
b1011000000000000000000000000000000000000000000000000000000000000 (
1!
#543750
0!
#550000
b100010011101 )
b1011010000000000000000000000000000000000000000000000000000000000 (
1!
#556250
0!
#562500
b100001011010 )
b1011100000000000000000000000000000000000000000000000000000000000 (
1!
#568750
0!
#575000
b100000101001 )
b1011110000000000000000000000000000000000000000000000000000000000 (
1!
#581250
0!
#587500
b100000001011 )
b1100000000000000000000000000000000000000000000000000000000000000 (
1!
#593750
0!
#600000
b100000000001 )
b1100010000000000000000000000000000000000000000000000000000000000 (
1!
#606250
0!
#612500
b100000001011 )
b1100100000000000000000000000000000000000000000000000000000000000 (
1!
#618750
0!
#625000
b100000101001 )
b1100110000000000000000000000000000000000000000000000000000000000 (
1!
#631250
0!
#637500
b100001011010 )
b1101000000000000000000000000000000000000000000000000000000000000 (
1!
#643750
0!
#650000
b100010011101 )
b1101010000000000000000000000000000000000000000000000000000000000 (
1!
#656250
0!
#662500
b100011110011 )
b1101100000000000000000000000000000000000000000000000000000000000 (
1!
#668750
0!
#675000
b100101011010 )
b1101110000000000000000000000000000000000000000000000000000000000 (
1!
#681250
0!
#687500
b100111010010 )
b1110000000000000000000000000000000000000000000000000000000000000 (
1!
#693750
0!
#700000
b101001011001 )
b1110010000000000000000000000000000000000000000000000000000000000 (
1!
#706250
0!
#712500
b101011101110 )
b1110100000000000000000000000000000000000000000000000000000000000 (
1!
#718750
0!
#725000
b101110001111 )
b1110110000000000000000000000000000000000000000000000000000000000 (
1!
#731250
0!
#737500
b110000111100 )
b1111000000000000000000000000000000000000000000000000000000000000 (
1!
#743750
0!
#750000
b110011110001 )
b1111010000000000000000000000000000000000000000000000000000000000 (
1!
#756250
0!
#762500
b110110101110 )
b1111100000000000000000000000000000000000000000000000000000000000 (
1!
#768750
0!
#775000
b111001110001 )
b1111110000000000000000000000000000000000000000000000000000000000 (
1!
#781250
0!
#787500
b111100111000 )
b0 (
1!
#793750
0!
#800000
b0 )
b10000000000000000000000000000000000000000000000000000000000 (
1!
#806250
0!
#812500
b11001000 )
b100000000000000000000000000000000000000000000000000000000000 (
1!
#818750
0!
#825000
b110001111 )
b110000000000000000000000000000000000000000000000000000000000 (
1!
#831250
0!
#837500
b1001010010 )
b1000000000000000000000000000000000000000000000000000000000000 (
1!
#843750
0!
#850000
b1100001111 )
b1010000000000000000000000000000000000000000000000000000000000 (
1!
#856250
0!
#862500
b1111000100 )
b1100000000000000000000000000000000000000000000000000000000000 (
1!
#868750
0!
#875000
b10001110001 )
b1110000000000000000000000000000000000000000000000000000000000 (
1!
#881250
0!
#887500
b10100010010 )
b10000000000000000000000000000000000000000000000000000000000000 (
1!
#893750
0!
#900000
b10110100111 )
b10010000000000000000000000000000000000000000000000000000000000 (
1!
#906250
0!
#912500
b11000101110 )
b10100000000000000000000000000000000000000000000000000000000000 (
1!
#918750
0!
#925000
b11010100110 )
b10110000000000000000000000000000000000000000000000000000000000 (
1!
#931250
0!
#937500
b11100001101 )
b11000000000000000000000000000000000000000000000000000000000000 (
1!
#943750
0!
#950000
b11101100011 )
b11010000000000000000000000000000000000000000000000000000000000 (
1!
#956250
0!
#962500
b11110100110 )
b11100000000000000000000000000000000000000000000000000000000000 (
1!
#968750
0!
#975000
b11111010111 )
b11110000000000000000000000000000000000000000000000000000000000 (
1!
#981250
0!
#987500
b11111110101 )
b100000000000000000000000000000000000000000000000000000000000000 (
1!
#993750
0!
#1000000
b11111111111 )
b100010000000000000000000000000000000000000000000000000000000000 (
1!
#1006250
0!
#1012500
b11111110101 )
b100100000000000000000000000000000000000000000000000000000000000 (
1!
#1018750
0!
#1025000
b11111010111 )
b100110000000000000000000000000000000000000000000000000000000000 (
1!
#1031250
0!
#1037500
b11110100110 )
b101000000000000000000000000000000000000000000000000000000000000 (
1!
#1043750
0!
#1050000
b11101100011 )
b101010000000000000000000000000000000000000000000000000000000000 (
1!
#1056250
0!
#1062500
b11100001101 )
b101100000000000000000000000000000000000000000000000000000000000 (
1!
#1068750
0!
#1075000
b11010100110 )
b101110000000000000000000000000000000000000000000000000000000000 (
1!
#1081250
0!
#1087500
b11000101110 )
b110000000000000000000000000000000000000000000000000000000000000 (
1!
#1093750
0!
#1100000
b10110100111 )
b110010000000000000000000000000000000000000000000000000000000000 (
1!
#1106250
0!
#1112500
b10100010010 )
b110100000000000000000000000000000000000000000000000000000000000 (
1!
#1118750
0!
#1125000
b10001110001 )
b110110000000000000000000000000000000000000000000000000000000000 (
1!
#1131250
0!
#1137500
b1111000100 )
b111000000000000000000000000000000000000000000000000000000000000 (
1!
#1143750
0!
#1150000
b1100001111 )
b111010000000000000000000000000000000000000000000000000000000000 (
1!
#1156250
0!
#1162500
b1001010010 )
b111100000000000000000000000000000000000000000000000000000000000 (
1!
#1168750
0!
#1175000
b110001111 )
b111110000000000000000000000000000000000000000000000000000000000 (
1!
#1181250
0!
#1187500
b11001000 )
b1000000000000000000000000000000000000000000000000000000000000000 (
1!
#1193750
0!
#1200000
b0 )
b1000010000000000000000000000000000000000000000000000000000000000 (
1!
#1206250
0!
#1212500
b111100111000 )
b1000100000000000000000000000000000000000000000000000000000000000 (
1!
#1218750
0!
#1225000
b111001110001 )
b1000110000000000000000000000000000000000000000000000000000000000 (
1!
#1231250
0!
#1237500
b110110101110 )
b1001000000000000000000000000000000000000000000000000000000000000 (
1!
#1243750
0!
#1250000
b110011110001 )
b1001010000000000000000000000000000000000000000000000000000000000 (
1!
#1256250
0!
#1262500
b110000111100 )
b1001100000000000000000000000000000000000000000000000000000000000 (
1!
#1268750
0!
#1275000
b101110001111 )
b1001110000000000000000000000000000000000000000000000000000000000 (
1!
#1281250
0!
#1287500
b101011101110 )
b1010000000000000000000000000000000000000000000000000000000000000 (
1!
#1293750
0!
#1300000
b101001011001 )
b1010010000000000000000000000000000000000000000000000000000000000 (
1!
#1306250
0!
#1312500
b100111010010 )
b1010100000000000000000000000000000000000000000000000000000000000 (
1!
#1318750
0!
#1325000
b100101011010 )
b1010110000000000000000000000000000000000000000000000000000000000 (
1!
#1331250
0!
#1337500
b100011110011 )
b1011000000000000000000000000000000000000000000000000000000000000 (
1!
#1343750
0!
#1350000
b100010011101 )
b1011010000000000000000000000000000000000000000000000000000000000 (
1!
#1356250
0!
#1362500
b100001011010 )
b1011100000000000000000000000000000000000000000000000000000000000 (
1!
#1368750
0!
#1375000
b100000101001 )
b1011110000000000000000000000000000000000000000000000000000000000 (
1!
#1381250
0!
#1387500
b100000001011 )
b1100000000000000000000000000000000000000000000000000000000000000 (
1!
#1393750
0!
#1400000
b100000000001 )
b1100010000000000000000000000000000000000000000000000000000000000 (
1!
#1406250
0!
#1412500
b100000001011 )
b1100100000000000000000000000000000000000000000000000000000000000 (
1!
#1418750
0!
#1425000
b100000101001 )
b1100110000000000000000000000000000000000000000000000000000000000 (
1!
#1431250
0!
#1437500
b100001011010 )
b1101000000000000000000000000000000000000000000000000000000000000 (
1!
#1443750
0!
#1450000
b100010011101 )
b1101010000000000000000000000000000000000000000000000000000000000 (
1!
#1456250
0!
#1462500
b100011110011 )
b1101100000000000000000000000000000000000000000000000000000000000 (
1!
#1468750
0!
#1475000
b100101011010 )
b1101110000000000000000000000000000000000000000000000000000000000 (
1!
#1481250
0!
#1487500
b100111010010 )
b1110000000000000000000000000000000000000000000000000000000000000 (
1!
#1493750
0!
#1500000
b101001011001 )
b1110010000000000000000000000000000000000000000000000000000000000 (
1!
#1506250
0!
#1512500
b101011101110 )
b1110100000000000000000000000000000000000000000000000000000000000 (
1!
#1518750
0!
#1525000
b101110001111 )
b1110110000000000000000000000000000000000000000000000000000000000 (
1!
#1531250
0!
#1537500
b110000111100 )
b1111000000000000000000000000000000000000000000000000000000000000 (
1!
#1543750
0!
#1550000
b110011110001 )
b1111010000000000000000000000000000000000000000000000000000000000 (
1!
#1556250
0!
#1562500
b110110101110 )
b1111100000000000000000000000000000000000000000000000000000000000 (
1!
#1568750
0!
#1575000
b111001110001 )
b1111110000000000000000000000000000000000000000000000000000000000 (
1!
#1581250
0!
#1587500
b111100111000 )
b0 (
1!
#1593750
0!
#1600000
b0 )
b10000000000000000000000000000000000000000000000000000000000 (
1!
#1606250
0!
#1612500
b11001000 )
b100000000000000000000000000000000000000000000000000000000000 (
1!
#1618750
0!
#1625000
b110001111 )
b110000000000000000000000000000000000000000000000000000000000 (
1!
#1631250
0!
#1637500
b1001010010 )
b1000000000000000000000000000000000000000000000000000000000000 (
1!
#1643750
0!
#1650000
b1100001111 )
b1010000000000000000000000000000000000000000000000000000000000 (
1!
#1656250
0!
#1662500
b1111000100 )
b1100000000000000000000000000000000000000000000000000000000000 (
1!
#1668750
0!
#1675000
b10001110001 )
b1110000000000000000000000000000000000000000000000000000000000 (
1!
#1681250
0!
#1687500
b10100010010 )
b10000000000000000000000000000000000000000000000000000000000000 (
1!
#1693750
0!
#1700000
b10110100111 )
b10010000000000000000000000000000000000000000000000000000000000 (
1!
#1706250
0!
#1712500
b11000101110 )
b10100000000000000000000000000000000000000000000000000000000000 (
1!
#1718750
0!
#1725000
b11010100110 )
b10110000000000000000000000000000000000000000000000000000000000 (
1!
#1731250
0!
#1737500
b11100001101 )
b11000000000000000000000000000000000000000000000000000000000000 (
1!
#1743750
0!
#1750000
b11101100011 )
b11010000000000000000000000000000000000000000000000000000000000 (
1!
#1756250
0!
#1762500
b11110100110 )
b11100000000000000000000000000000000000000000000000000000000000 (
1!
#1768750
0!
#1775000
b11111010111 )
b11110000000000000000000000000000000000000000000000000000000000 (
1!
#1781250
0!
#1787500
b11111110101 )
b100000000000000000000000000000000000000000000000000000000000000 (
1!
#1793750
0!
#1800000
b11111111111 )
b100010000000000000000000000000000000000000000000000000000000000 (
1!
#1806250
0!
#1812500
b11111110101 )
b100100000000000000000000000000000000000000000000000000000000000 (
1!
#1818750
0!
#1825000
b11111010111 )
b100110000000000000000000000000000000000000000000000000000000000 (
1!
#1831250
0!
#1837500
b11110100110 )
b101000000000000000000000000000000000000000000000000000000000000 (
1!
#1843750
0!
#1850000
b11101100011 )
b101010000000000000000000000000000000000000000000000000000000000 (
1!
#1856250
0!
#1862500
b11100001101 )
b101100000000000000000000000000000000000000000000000000000000000 (
1!
#1868750
0!
#1875000
b11010100110 )
b101110000000000000000000000000000000000000000000000000000000000 (
1!
#1881250
0!
#1887500
b11000101110 )
b110000000000000000000000000000000000000000000000000000000000000 (
1!
#1893750
0!
#1900000
b10110100111 )
b110010000000000000000000000000000000000000000000000000000000000 (
1!
#1906250
0!
#1912500
b10100010010 )
b110100000000000000000000000000000000000000000000000000000000000 (
1!
#1918750
0!
#1925000
b10001110001 )
b110110000000000000000000000000000000000000000000000000000000000 (
1!
#1931250
0!
#1937500
b1111000100 )
b111000000000000000000000000000000000000000000000000000000000000 (
1!
#1943750
0!
#1950000
b1100001111 )
b111010000000000000000000000000000000000000000000000000000000000 (
1!
#1956250
0!
#1962500
b1001010010 )
b111100000000000000000000000000000000000000000000000000000000000 (
1!
#1968750
0!
#1975000
b110001111 )
b111110000000000000000000000000000000000000000000000000000000000 (
1!
#1981250
0!
#1987500
b11001000 )
b1000000000000000000000000000000000000000000000000000000000000000 (
1!
#1993750
0!
#2000000
b0 )
b1000010000000000000000000000000000000000000000000000000000000000 (
1!
#2006250
0!
#2012500
b111100111000 )
b1000100000000000000000000000000000000000000000000000000000000000 (
1!
#2018750
0!
#2025000
b111001110001 )
b1000110000000000000000000000000000000000000000000000000000000000 (
1!
#2031250
0!
#2037500
b110110101110 )
b1001000000000000000000000000000000000000000000000000000000000000 (
1!
#2043750
0!
#2050000
b110011110001 )
b1001010000000000000000000000000000000000000000000000000000000000 (
1!
#2056250
0!
#2062500
b110000111100 )
b1001100000000000000000000000000000000000000000000000000000000000 (
1!
#2068750
0!
#2075000
b101110001111 )
b1001110000000000000000000000000000000000000000000000000000000000 (
1!
#2081250
0!
#2087500
b101011101110 )
b1010000000000000000000000000000000000000000000000000000000000000 (
1!
#2093750
0!
#2100000
b101001011001 )
b1010010000000000000000000000000000000000000000000000000000000000 (
1!
#2106250
0!
#2112500
b100111010010 )
b1010100000000000000000000000000000000000000000000000000000000000 (
1!
#2118750
0!
#2125000
b100101011010 )
b1010110000000000000000000000000000000000000000000000000000000000 (
1!
#2131250
0!
#2137500
b100011110011 )
b1011000000000000000000000000000000000000000000000000000000000000 (
1!
#2143750
0!
#2150000
b100010011101 )
b1011010000000000000000000000000000000000000000000000000000000000 (
1!
#2156250
0!
#2162500
b100001011010 )
b1011100000000000000000000000000000000000000000000000000000000000 (
1!
#2168750
0!
#2175000
b100000101001 )
b1011110000000000000000000000000000000000000000000000000000000000 (
1!
#2181250
0!
#2187500
b100000001011 )
b1100000000000000000000000000000000000000000000000000000000000000 (
1!
#2193750
0!
#2200000
b100000000001 )
b1100010000000000000000000000000000000000000000000000000000000000 (
1!
#2206250
0!
#2212500
b100000001011 )
b1100100000000000000000000000000000000000000000000000000000000000 (
1!
#2218750
0!
#2225000
b100000101001 )
b1100110000000000000000000000000000000000000000000000000000000000 (
1!
#2231250
0!
#2237500
b100001011010 )
b1101000000000000000000000000000000000000000000000000000000000000 (
1!
#2243750
0!
#2250000
b100010011101 )
b1101010000000000000000000000000000000000000000000000000000000000 (
1!
#2256250
0!
#2262500
b100011110011 )
b1101100000000000000000000000000000000000000000000000000000000000 (
1!
#2268750
0!
#2275000
b100101011010 )
b1101110000000000000000000000000000000000000000000000000000000000 (
1!
#2281250
0!
#2287500
b100111010010 )
b1110000000000000000000000000000000000000000000000000000000000000 (
1!
#2293750
0!
#2300000
b101001011001 )
b1110010000000000000000000000000000000000000000000000000000000000 (
1!
#2306250
0!
#2312500
b101011101110 )
b1110100000000000000000000000000000000000000000000000000000000000 (
1!
#2318750
0!
#2325000
b101110001111 )
b1110110000000000000000000000000000000000000000000000000000000000 (
1!
#2331250
0!
#2337500
b110000111100 )
b1111000000000000000000000000000000000000000000000000000000000000 (
1!
#2343750
0!
#2350000
b110011110001 )
b1111010000000000000000000000000000000000000000000000000000000000 (
1!
#2356250
0!
#2362500
b110110101110 )
b1111100000000000000000000000000000000000000000000000000000000000 (
1!
#2368750
0!
#2375000
b111001110001 )
b1111110000000000000000000000000000000000000000000000000000000000 (
1!
#2381250
0!
#2387500
b111100111000 )
b0 (
1!
#2393750
0!
#2400000
b0 )
b10000000000000000000000000000000000000000000000000000000000 (
1!
#2406250
0!
#2412500
b11001000 )
b100000000000000000000000000000000000000000000000000000000000 (
1!
#2418750
0!
#2425000
b110001111 )
b110000000000000000000000000000000000000000000000000000000000 (
1!
#2431250
0!
#2437500
b1001010010 )
b1000000000000000000000000000000000000000000000000000000000000 (
1!
#2443750
0!
#2450000
b1100001111 )
b1010000000000000000000000000000000000000000000000000000000000 (
1!
#2456250
0!
#2462500
b1111000100 )
b1100000000000000000000000000000000000000000000000000000000000 (
1!
#2468750
0!
#2475000
b10001110001 )
b1110000000000000000000000000000000000000000000000000000000000 (
1!
#2481250
0!
#2487500
b10100010010 )
b10000000000000000000000000000000000000000000000000000000000000 (
1!
