5.NewModules/SquareRoot/sequential/amaranth/sqrt_sequential.vcd
$comment Generated by Amaranth $end
$date 2024-07-12 10:54:05.863475 $end
$timescale 1 fs $end
$scope module bench $end
$scope module top $end
$var wire 1 ! clk $end
$var wire 1 " rst $end
$var wire 1 # reset $end
$var wire 2 $ sqrt_state $end
$var wire 1 % valid $end
$var wire 32 & a $end
$var wire 32 ' num $end
$var wire 4 ( current_count $end
$var wire 1 ) ready $end
$var wire 16 * q $end
$var wire 18 + r_reg $end
$var wire 18 , r $end
$var wire 18 - left $end
$var wire 18 . right $end
$var wire 16 / res $end
$upscope $end
$upscope $end
$enddefinitions $end
#0
$dumpvars
0!
0"
0#
b0 $
0%
b0 &
b0 '
b0 (
0)
b0 *
b0 +
b111111111111111111 ,
b0 -
b1 .
b0 /
$end
#500000000
1!
1#
#1000000000
0!
#1500000000
1!
b1 '
1%
#2000000000
0!
#2500000000
1!
b1 &
b1 $
#3000000000
0!
#3500000000
1!
b1 (
b111111111111111111 +
b100 &
b11 .
b1 ,
b111111111111111100 -
b111111111111111111 ,
#4000000000
0!
#4500000000
1!
b10 (
b10000 &
#5000000000
0!
#5500000000
1!
b11 (
b1000000 &
0%
#6000000000
0!
#6500000000
1!
b100 (
b100000000 &
#7000000000
0!
#7500000000
1!
b101 (
b10000000000 &
#8000000000
0!
#8500000000
1!
b110 (
b1000000000000 &
#9000000000
0!
#9500000000
1!
b111 (
b100000000000000 &
#10000000000
0!
#10500000000
1!
b1000 (
b10000000000000000 &
#11000000000
0!
#11500000000
1!
b1001 (
b1000000000000000000 &
#12000000000
0!
#12500000000
1!
b1010 (
b100000000000000000000 &
#13000000000
0!
#13500000000
1!
b1011 (
b10000000000000000000000 &
#14000000000
0!
#14500000000
1!
b1100 (
b1000000000000000000000000 &
#15000000000
0!
#15500000000
1!
b1101 (
b100000000000000000000000000 &
#16000000000
0!
#16500000000
1!
b1110 (
b10000000000000000000000000000 &
#17000000000
0!
#17500000000
1!
b1111 (
b1000000000000000000000000000000 &
b111111111111111101 -
b0 ,
#18000000000
0!
#18500000000
1!
b1 *
b0 +
1)
b10 $
b0 (
b0 &
b101 .
b111111111111111010 ,
b0 -
b1 /
b111111111111111011 ,
1%
#19000000000
0!
#19500000000
1!
b0 *
0)
b0 $
b1 .
b0 /
b111111111111111111 ,
#20000000000
0!
#20500000000
1!
b1 &
b1 $
#21000000000
0!
#21500000000
1!
b1 (
b111111111111111111 +
b100 &
b11 .
b1 ,
b111111111111111100 -
b111111111111111111 ,
#22000000000
0!
#22500000000
1!
b10 (
b10000 &
0%
#23000000000
0!
#23500000000
1!
b11 (
b1000000 &
#24000000000
0!
#24500000000
1!
b100 (
b100000000 &
#25000000000
0!
#25500000000
1!
b101 (
b10000000000 &
#26000000000
0!
#26500000000
1!
b110 (
b1000000000000 &
#27000000000
0!
#27500000000
1!
b111 (
b100000000000000 &
#28000000000
0!
#28500000000
1!
b1000 (
b10000000000000000 &
#29000000000
0!
#29500000000
1!
b1001 (
b1000000000000000000 &
#30000000000
0!
#30500000000
1!
b1010 (
b100000000000000000000 &
#31000000000
0!
#31500000000
1!
b1011 (
b10000000000000000000000 &
#32000000000
0!
#32500000000
1!
b1100 (
b1000000000000000000000000 &
#33000000000
0!
#33500000000
1!
b1101 (
b100000000000000000000000000 &
#34000000000
0!
#34500000000
1!
b1110 (
b10000000000000000000000000000 &
#35000000000
0!
#35500000000
1!
b1111 (
b1000000000000000000000000000000 &
b111111111111111101 -
b0 ,
#36000000000
0!
#36500000000
1!
b1 *
b0 +
1)
b10 $
b0 (
b0 &
b101 .
b111111111111111010 ,
b0 -
b1 /
b111111111111111011 ,
1%
#37000000000
0!
#37500000000
1!
b0 *
0)
b0 $
b1 .
b0 /
b111111111111111111 ,
#38000000000
0!
#38500000000
1!
b1 &
b1 $
#39000000000
0!
#39500000000
1!
b1 (
b111111111111111111 +
b100 &
b11 .
b1 ,
b111111111111111100 -
b111111111111111111 ,
#40000000000
0!
#40500000000
1!
b10 (
b10000 &
0%
#41000000000
0!
#41500000000
1!
b11 (
b1000000 &
#42000000000
0!
#42500000000
1!
b100 (
b100000000 &
#43000000000
0!
#43500000000
1!
b101 (
b10000000000 &
#44000000000
0!
#44500000000
1!
b110 (
b1000000000000 &
#45000000000
0!
#45500000000
1!
b111 (
b100000000000000 &
#46000000000
0!
#46500000000
1!
b1000 (
b10000000000000000 &
#47000000000
0!
#47500000000
1!
b1001 (
b1000000000000000000 &
#48000000000
0!
#48500000000
1!
b1010 (
b100000000000000000000 &
#49000000000
0!
#49500000000
1!
b1011 (
b10000000000000000000000 &
#50000000000
0!
#50500000000
1!
b1100 (
b1000000000000000000000000 &
#51000000000
0!
#51500000000
1!
b1101 (
b100000000000000000000000000 &
#52000000000
0!
#52500000000
1!
b1110 (
b10000000000000000000000000000 &
#53000000000
0!
#53500000000
1!
b1111 (
b1000000000000000000000000000000 &
b111111111111111101 -
b0 ,
#54000000000
0!
#54500000000
1!
b1 *
b0 +
1)
b10 $
b0 (
b0 &
b101 .
b111111111111111010 ,
b0 -
b1 /
b111111111111111011 ,
1%
#55000000000
0!
#55500000000
1!
b0 *
0)
b0 $
b1 .
b0 /
b111111111111111111 ,
#56000000000
0!
#56500000000
1!
b1 &
b1 $
#57000000000
0!
#57500000000
1!
b1 (
b111111111111111111 +
b100 &
b11 .
b1 ,
b111111111111111100 -
b111111111111111111 ,
#58000000000
0!
#58500000000
1!
b10 (
b10000 &
0%
#59000000000
0!
#59500000000
1!
b11 (
b1000000 &
#60000000000
0!
#60500000000
1!
b100 (
b100000000 &
#61000000000
0!
#61500000000
1!
b101 (
b10000000000 &
#62000000000
0!
#62500000000
1!
b110 (
b1000000000000 &
#63000000000
0!
#63500000000
1!
b111 (
b100000000000000 &
#64000000000
0!
#64500000000
1!
b1000 (
b10000000000000000 &
#65000000000
0!
#65500000000
1!
b1001 (
b1000000000000000000 &
#66000000000
0!
#66500000000
1!
b1010 (
b100000000000000000000 &
#67000000000
0!
#67500000000
1!
b1011 (
b10000000000000000000000 &
#68000000000
0!
#68500000000
1!
b1100 (
b1000000000000000000000000 &
#69000000000
0!
#69500000000
1!
b1101 (
b100000000000000000000000000 &
#70000000000
0!
#70500000000
1!
b1110 (
b10000000000000000000000000000 &
#71000000000
0!
#71500000000
1!
b1111 (
b1000000000000000000000000000000 &
b111111111111111101 -
b0 ,
#72000000000
0!
#72500000000
1!
b1 *
b0 +
1)
b10 $
b0 (
b0 &
b101 .
b111111111111111010 ,
b0 -
b1 /
b111111111111111011 ,
1%
#73000000000
0!
#73500000000
1!
b0 *
0)
b0 $
b1 .
b0 /
b111111111111111111 ,
#74000000000
0!
#74500000000
1!
b1 &
b1 $
#75000000000
0!
#75500000000
1!
b1 (
b111111111111111111 +
b100 &
b11 .
b1 ,
b111111111111111100 -
b111111111111111111 ,
#76000000000
0!
#76500000000
1!
b10 (
b10000 &
0%
#77000000000
0!
#77500000000
1!
b11 (
b1000000 &
#78000000000
0!
#78500000000
1!
b100 (
b100000000 &
#79000000000
0!
#79500000000
1!
b101 (
b10000000000 &
#80000000000
0!
#80500000000
1!
b110 (
b1000000000000 &
#81000000000
0!
#81500000000
1!
b111 (
b100000000000000 &
#82000000000
0!
#82500000000
1!
b1000 (
b10000000000000000 &
#83000000000
0!
#83500000000
1!
b1001 (
b1000000000000000000 &
#84000000000
0!
#84500000000
1!
b1010 (
b100000000000000000000 &
#85000000000
0!
#85500000000
1!
b1011 (
b10000000000000000000000 &
#86000000000
0!
#86500000000
1!
b1100 (
b1000000000000000000000000 &
#87000000000
0!
#87500000000
1!
b1101 (
b100000000000000000000000000 &
#88000000000
0!
#88500000000
1!
b1110 (
b10000000000000000000000000000 &
#89000000000
0!
#89500000000
1!
b1111 (
b1000000000000000000000000000000 &
b111111111111111101 -
b0 ,
#90000000000
0!
#90500000000
1!
b1 *
b0 +
1)
b10 $
b0 (
b0 &
b101 .
b111111111111111010 ,
b0 -
b1 /
b111111111111111011 ,
1%
#91000000000
0!
#91500000000
1!
b0 *
0)
b0 $
b1 .
b0 /
b111111111111111111 ,
#92000000000
0!
#92500000000
1!
b1 &
b1 $
#93000000000
0!
#93500000000
1!
b1 (
b111111111111111111 +
b100 &
b11 .
b1 ,
b111111111111111100 -
b111111111111111111 ,
#94000000000
0!
#94500000000
1!
b10 (
b10000 &
0%
#95000000000
0!
#95500000000
1!
b11 (
b1000000 &
#96000000000
0!
#96500000000
1!
b100 (
b100000000 &
#97000000000
0!
#97500000000
1!
b101 (
b10000000000 &
#98000000000
0!
#98500000000
1!
b110 (
b1000000000000 &
#99000000000
0!
#99500000000
1!
b111 (
b100000000000000 &
#100000000000
0!
#100500000000
1!
b1000 (
b10000000000000000 &
#101000000000
0!
#101500000000
1!
b1001 (
b1000000000000000000 &
#102000000000
0!
#102500000000
1!
b1010 (
b100000000000000000000 &
#103000000000
0!
#103500000000
1!
b1011 (
b10000000000000000000000 &
#104000000000
0!
#104500000000
1!
b1100 (
b1000000000000000000000000 &
#105000000000
0!
#105500000000
1!
b1101 (
b100000000000000000000000000 &
#106000000000
0!
#106500000000
1!
b1110 (
b10000000000000000000000000000 &
#107000000000
0!
#107500000000
1!
b1111 (
b1000000000000000000000000000000 &
b111111111111111101 -
b0 ,
#108000000000
0!
#108500000000
1!
b1 *
b0 +
1)
b10 $
b0 (
b0 &
b101 .
b111111111111111010 ,
b0 -
b1 /
b111111111111111011 ,
1%
#109000000000
0!
#109500000000
1!
b0 *
0)
b0 $
b1 .
b0 /
b111111111111111111 ,
#110000000000
0!
#110500000000
1!
b1 &
b1 $
#111000000000
0!
#111500000000
1!
b1 (
b111111111111111111 +
b100 &
b11 .
b1 ,
b111111111111111100 -
b111111111111111111 ,
#112000000000
0!
#112500000000
1!
b10 (
b10000 &
0%
#113000000000
0!
#113500000000
1!
b11 (
b1000000 &
#114000000000
0!
#114500000000
1!
b100 (
b100000000 &
#115000000000
0!
#115500000000
1!
b101 (
b10000000000 &
#116000000000
0!
#116500000000
1!
b110 (
b1000000000000 &
#117000000000
0!
#117500000000
1!
b111 (
b100000000000000 &
#118000000000
0!
#118500000000
1!
b1000 (
b10000000000000000 &
#119000000000
0!
#119500000000
1!
b1001 (
b1000000000000000000 &
#120000000000
0!
#120500000000
1!
b1010 (
b100000000000000000000 &
#121000000000
0!
#121500000000
1!
b1011 (
b10000000000000000000000 &
#122000000000
0!
#122500000000
1!
b1100 (
b1000000000000000000000000 &
#123000000000
0!
#123500000000
1!
b1101 (
b100000000000000000000000000 &
#124000000000
0!
#124500000000
1!
b1110 (
b10000000000000000000000000000 &
#125000000000
0!
#125500000000
1!
b1111 (
b1000000000000000000000000000000 &
b111111111111111101 -
b0 ,
#126000000000
0!
#126500000000
1!
b1 *
b0 +
1)
b10 $
b0 (
b0 &
b101 .
b111111111111111010 ,
b0 -
b1 /
b111111111111111011 ,
1%
#127000000000
0!
#127500000000
1!
b0 *
0)
b0 $
b1 .
b0 /
b111111111111111111 ,
#128000000000
0!
#128500000000
1!
b1 &
b1 $
#129000000000
0!
#129500000000
1!
b1 (
b111111111111111111 +
b100 &
b11 .
b1 ,
b111111111111111100 -
b111111111111111111 ,
#130000000000
0!
#130500000000
1!
b10 (
b10000 &
0%
#131000000000
0!
#131500000000
1!
b11 (
b1000000 &
#132000000000
0!
#132500000000
1!
b100 (
b100000000 &
#133000000000
0!
#133500000000
1!
b101 (
b10000000000 &
#134000000000
0!
#134500000000
1!
b110 (
b1000000000000 &
#135000000000
0!
#135500000000
1!
b111 (
b100000000000000 &
#136000000000
0!
#136500000000
1!
b1000 (
b10000000000000000 &
#137000000000
0!
#137500000000
1!
b1001 (
b1000000000000000000 &
#138000000000
0!
#138500000000
1!
b1010 (
b100000000000000000000 &
#139000000000
0!
#139500000000
1!
b1011 (
b10000000000000000000000 &
#140000000000
0!
#140500000000
1!
b1100 (
b1000000000000000000000000 &
#141000000000
0!
#141500000000
1!
b1101 (
b100000000000000000000000000 &
#142000000000
0!
#142500000000
1!
b1110 (
b10000000000000000000000000000 &
#143000000000
0!
#143500000000
1!
b1111 (
b1000000000000000000000000000000 &
b111111111111111101 -
b0 ,
#144000000000
0!
#144500000000
1!
b1 *
b0 +
1)
b10 $
b0 (
b0 &
b101 .
b111111111111111010 ,
b0 -
b1 /
b111111111111111011 ,
1%
#145000000000
0!
#145500000000
1!
b0 *
0)
b0 $
b1 .
b0 /
b111111111111111111 ,
#146000000000
0!
#146500000000
1!
b1 &
b1 $
#147000000000
0!
#147500000000
1!
b1 (
b111111111111111111 +
b100 &
b11 .
b1 ,
b111111111111111100 -
b111111111111111111 ,
#148000000000
0!
#148500000000
1!
b10 (
b10000 &
0%
#149000000000
0!
#149500000000
1!
b11 (
b1000000 &
#150000000000
0!
#150500000000
1!
b100 (
b100000000 &
#151000000000
0!
#151500000000
1!
b101 (
b10000000000 &
#152000000000
0!
#152500000000
1!
b110 (
b1000000000000 &
#153000000000
0!
#153500000000
1!
b111 (
b100000000000000 &
#154000000000
0!
#154500000000
1!
b1000 (
b10000000000000000 &
#155000000000
0!
#155500000000
1!
b1001 (
b1000000000000000000 &
#156000000000
0!
#156500000000
1!
b1010 (
b100000000000000000000 &
#157000000000
0!
#157500000000
1!
b1011 (
b10000000000000000000000 &
#158000000000
0!
#158500000000
1!
b1100 (
b1000000000000000000000000 &
#159000000000
0!
#159500000000
1!
b1101 (
b100000000000000000000000000 &
#160000000000
0!
#160500000000
1!
b1110 (
b10000000000000000000000000000 &
#161000000000
0!
#161500000000
1!
b1111 (
b1000000000000000000000000000000 &
b111111111111111101 -
b0 ,
#162000000000
0!
#162500000000
1!
b1 *
b0 +
1)
b10 $
b0 (
b0 &
b101 .
b111111111111111010 ,
b0 -
b1 /
b111111111111111011 ,
1%
#163000000000
0!
#163500000000
1!
b0 *
0)
b0 $
b1 .
b0 /
b111111111111111111 ,
#164000000000
0!
#164500000000
1!
b1 &
b1 $
#165000000000
0!
#165500000000
1!
b1 (
b111111111111111111 +
b100 &
b11 .
b1 ,
b111111111111111100 -
b111111111111111111 ,
#166000000000
0!
#166500000000
1!
b10 (
b10000 &
0%
#167000000000
0!
#167500000000
1!
b11 (
b1000000 &
#168000000000
0!
#168500000000
1!
b100 (
b100000000 &
#169000000000
0!
#169500000000
1!
b101 (
b10000000000 &
#170000000000
0!
#170500000000
1!
b110 (
b1000000000000 &
#171000000000
0!
#171500000000
1!
b111 (
b100000000000000 &
#172000000000
0!
#172500000000
1!
b1000 (
b10000000000000000 &
#173000000000
0!
#173500000000
1!
b1001 (
b1000000000000000000 &
#174000000000
0!
#174500000000
1!
b1010 (
b100000000000000000000 &
#175000000000
0!
#175500000000
1!
b1011 (
b10000000000000000000000 &
#176000000000
0!
#176500000000
1!
b1100 (
b1000000000000000000000000 &
#177000000000
0!
#177500000000
1!
b1101 (
b100000000000000000000000000 &
#178000000000
0!
#178500000000
1!
b1110 (
b10000000000000000000000000000 &
#179000000000
0!
#179500000000
1!
b1111 (
b1000000000000000000000000000000 &
b111111111111111101 -
b0 ,
#180000000000
0!
#180500000000
1!
b1 *
b0 +
1)
b10 $
b0 (
b0 &
b101 .
b111111111111111010 ,
b0 -
b1 /
b111111111111111011 ,
