5.NewModules/SquareRoot/sequential/amaranth/sqrt_sequential.vcd
$comment Generated by Amaranth $end
$date 2024-07-06 14:50:18.189346 $end
$timescale 1 fs $end
$scope module bench $end
$scope module top $end
$var wire 1 ! clk $end
$var wire 1 " rst $end
$var wire 1 # reset $end
$var wire 2 $ sqrt_state $end
$var wire 1 % valid $end
$var wire 32 & a $end
$var wire 32 ' num $end
$var wire 4 ( current_count $end
$var wire 1 ) ready $end
$var wire 16 * q $end
$var wire 18 + r_reg $end
$var wire 18 , r $end
$var wire 18 - left $end
$var wire 18 . right $end
$var wire 16 / res $end
$upscope $end
$upscope $end
$enddefinitions $end
#0
$dumpvars
0!
0"
0#
b0 $
0%
b0 &
b0 '
b0 (
0)
b0 *
b0 +
b111111111111111111 ,
b0 -
b1 .
b0 /
$end
#500000000
1!
1#
#1000000000
0!
#1500000000
1!
b1 '
1%
#2000000000
0!
#2500000000
1!
b1 &
b1 $
#3000000000
0!
#3500000000
1!
b100 &
b1 (
b111111111111111111 +
b1 ,
b111111111111111100 -
b11 .
b111111111111111111 ,
#4000000000
0!
#4500000000
1!
b10000 &
b10 (
#5000000000
0!
#5500000000
1!
b1000000 &
b11 (
0%
#6000000000
0!
#6500000000
1!
b100000000 &
b100 (
#7000000000
0!
#7500000000
1!
b10000000000 &
b101 (
#8000000000
0!
#8500000000
1!
b1000000000000 &
b110 (
#9000000000
0!
#9500000000
1!
b100000000000000 &
b111 (
#10000000000
0!
#10500000000
1!
b10000000000000000 &
b1000 (
#11000000000
0!
#11500000000
1!
b1000000000000000000 &
b1001 (
#12000000000
0!
#12500000000
1!
b100000000000000000000 &
b1010 (
#13000000000
0!
#13500000000
1!
b10000000000000000000000 &
b1011 (
#14000000000
0!
#14500000000
1!
b1000000000000000000000000 &
b1100 (
#15000000000
0!
#15500000000
1!
b100000000000000000000000000 &
b1101 (
#16000000000
0!
#16500000000
1!
b10000000000000000000000000000 &
b1110 (
#17000000000
0!
#17500000000
1!
b1000000000000000000000000000000 &
b1111 (
b111111111111111101 -
b0 ,
#18000000000
0!
#18500000000
1!
b10 $
b0 (
b0 &
b1 *
1)
b0 +
b111111111111111010 ,
b0 -
b101 .
b1 /
b111111111111111011 ,
