1.RTLImplementation/1.hw/version2/systemverilog/not working/sim/nco_waves.vcd
$date
	Tue Aug 27 19:08:07 2024
$end
$version
	Icarus Verilog
$end
$timescale
	1ps
$end
$scope module nco $end
$var wire 1 ! arst $end
$var wire 1 " clk $end
$var wire 64 # phase_increment [63:0] $end
$var wire 16 $ sinewave [15:0] $end
$var wire 16 % cosinewave [15:0] $end
$var parameter 32 & ACCUMULATOR_WIDTH $end
$var parameter 32 ' DATA_WIDTH $end
$var parameter 32 ( QLUT_DEPTH $end
$var reg 16 ) cosinewave_out [15:0] $end
$var reg 64 * phase_accumulator [63:0] $end
$var reg 16 + sinewave_out [15:0] $end
$scope module lut $end
$var wire 1 ! arst $end
$var wire 1 " clk $end
$var wire 11 , theta [10:0] $end
$var wire 11 - sinewave_data [10:0] $end
$var wire 11 . cosinewave_data [10:0] $end
$var parameter 32 / DATA_WIDTH $end
$var parameter 32 0 QLUT_DEPTH $end
$var parameter 32 1 QLUT_SIZE $end
$var reg 9 2 cosinewave_address [8:0] $end
$var reg 16 3 cosinewave_out [15:0] $end
$var reg 9 4 sinewave_address [8:0] $end
$var reg 16 5 sinewave_out [15:0] $end
$var reg 11 6 theta_reg [10:0] $end
$scope module cosinewave_inst $end
$var wire 9 7 address [8:0] $end
$var parameter 32 8 DATA_WIDTH $end
$var parameter 32 9 QLUT_DEPTH $end
$var reg 16 : value [15:0] $end
$upscope $end
$scope module sinewave_inst $end
$var wire 9 ; address [8:0] $end
$var parameter 32 < DATA_WIDTH $end
$var parameter 32 = QLUT_DEPTH $end
$var reg 16 > value [15:0] $end
$upscope $end
$upscope $end
$upscope $end
$enddefinitions $end
$comment Show the parameter values. $end
$dumpall
b1011 =
b10000 <
b1011 9
b10000 8
b1000000000 1
b1011 0
b10000 /
b1011 (
b10000 '
b1000000 &
$end
#0
$dumpvars
b110010 >
b0 ;
b110010 :
b0 7
b0 6
b0 5
b0 4
b0 3
b0 2
b110010 .
b110010 -
b0 ,
b0 +
b0 *
b0 )
b0 %
b0 $
bz #
1"
0!
$end
#6250
0"
#12500
b11111111110 .
b100000 ,
b110010 )
b110010 +
b111111111111110 :
b10000000000000000000000000000000000000000000000000000000000 *
b110010 %
b110010 3
b110010 $
b110010 5
b111111111 2
b111111111 7
b10000000000000000000000000000000000000000000000000000000000 #
1"
#18750
0"
#25000
b1111111111111110 )
b1000000 ,
b1111111111111110 %
b1111111111111110 3
b100000 6
b100000000000000000000000000000000000000000000000000000000000 *
1"
#31250
0"
#37500
b11101011100 .
b10010111101 -
b1100000 ,
b111111101011100 :
b110010111101 >
b110000000000000000000000000000000000000000000000000000000000 *
b111011111 2
b111011111 7
b100000 4
b100000 ;
b1000000 6
1"
#43750
0"
#50000
b10101111111 .
b100101001 -
b1111111101011100 )
b1111110010111101 +
b111110101111111 :
b1100100101001 >
b10000000 ,
b1111111101011100 %
b1111111101011100 3
b1111110010111101 $
b1111110010111101 5
b110111111 2
b110111111 7
b1000000 4
b1000000 ;
b1100000 6
b1000000000000000000000000000000000000000000000000000000000000 *
1"
#56250
0"
#62500
b1001101101 .
b10101010111 -
b10100000 ,
b1111110101111111 )
b100101001 +
b111101001101101 :
b10010101010111 >
b1010000000000000000000000000000000000000000000000000000000000 *
b1111110101111111 %
b1111110101111111 3
b100101001 $
b100101001 5
b110011111 2
b110011111 7
b1100000 4
b1100000 ;
b10000000 6
1"
#68750
0"
#75000
b11000101101 .
b100101001 -
b1001101101 )
b1111110101010111 +
b111011000101101 :
b11000100101001 >
b11000000 ,
b1001101101 %
b1001101101 3
b1111110101010111 $
b1111110101010111 5
b101111111 2
b101111111 7
b10000000 4
b10000000 ;
b10100000 6
b1100000000000000000000000000000000000000000000000000000000000 *
1"
#81250
0"
#87500
b11001010 .
b10010000010 -
b11100000 ,
b1111111000101101 )
b100101001 +
b111000011001010 :
b11110010000010 >
b1110000000000000000000000000000000000000000000000000000000000 *
b1111111000101101 %
b1111111000101101 3
b100101001 $
b100101001 5
b101011111 2
b101011111 7
b10100000 4
b10100000 ;
b11000000 6
1"
#93750
0"
#100000
b1001010000 .
b11101000110 -
b11001010 )
b1111110010000010 +
b110101001010000 :
b100011101000110 >
b100000000 ,
b11001010 %
b11001010 3
b1111110010000010 $
b1111110010000010 5
b100111111 2
b100111111 7
b11000000 4
b11000000 ;
b11100000 6
b10000000000000000000000000000000000000000000000000000000000000 *
1"
#106250
0"
#112500
b1011010001 .
b101011001 -
b100100000 ,
b1001010000 )
b1111111101000110 +
b110001011010001 :
b101000101011001 >
b10010000000000000000000000000000000000000000000000000000000000 *
b1001010000 %
b1001010000 3
b1111111101000110 $
b1111111101000110 5
b100011111 2
b100011111 7
b11100000 4
b11100000 ;
b100000000 6
1"
#118750
0"
#125000
b1001011110 .
b1010100101 -
b1011010001 )
b101011001 +
b101101001011110 :
b101101010100101 >
b101000000 ,
b1011010001 %
b1011010001 3
b101011001 $
b101011001 5
b11111111 2
b11111111 7
b100000000 4
b100000000 ;
b100100000 6
b10100000000000000000000000000000000000000000000000000000000000 *
1"
#131250
0"
#137500
b100001100 .
b1100010001 -
b101100000 ,
b1001011110 )
b1010100101 +
b101000100001100 :
b110001100010001 >
b10110000000000000000000000000000000000000000000000000000000000 *
b1001011110 %
b1001011110 3
b1010100101 $
b1010100101 5
b11011111 2
b11011111 7
b100100000 4
b100100000 ;
b101000000 6
1"
#143750
0"
#150000
b11011110010 .
b1010001000 -
b100001100 )
b1100010001 +
b100011011110010 :
b110101010001000 >
b110000000 ,
b100001100 %
b100001100 3
b1100010001 $
b1100010001 5
b10111111 2
b10111111 7
b101000000 4
b101000000 ;
b101100000 6
b11000000000000000000000000000000000000000000000000000000000000 *
1"
#156250
0"
#162500
b10000101001 .
b11111001 -
b110100000 ,
b1111111011110010 )
b1010001000 +
b11110000101001 :
b111000011111001 >
b11010000000000000000000000000000000000000000000000000000000000 *
b1111111011110010 %
b1111111011110010 3
b1010001000 $
b1010001000 5
b10011111 2
b10011111 7
b101100000 4
b101100000 ;
b110000000 6
1"
#168750
0"
#175000
b11001100 .
b11001010011 -
b1111110000101001 )
b11111001 +
b11000011001100 :
b111011001010011 >
b111000000 ,
b1111110000101001 %
b1111110000101001 3
b11111001 $
b11111001 5
b1111111 2
b1111111 7
b110000000 4
b110000000 ;
b110100000 6
b11100000000000000000000000000000000000000000000000000000000000 *
1"
#181250
0"
#187500
b10011110111 .
b1010001010 -
b111100000 ,
b11001100 )
b1111111001010011 +
b10010011110111 :
b111101010001010 >
b11110000000000000000000000000000000000000000000000000000000000 *
b11001100 %
b11001100 3
b1111111001010011 $
b1111111001010011 5
b1011111 2
b1011111 7
b110100000 4
b110100000 ;
b111000000 6
1"
#193750
0"
#200000
b11000111 .
b10110010011 -
b1111110011110111 )
b1010001010 +
b1100011000111 :
b111110110010011 >
b1000000000 ,
b1111110011110111 %
b1111110011110111 3
b1010001010 $
b1010001010 5
b111111 2
b111111 7
b111000000 4
b111000000 ;
b111100000 6
b100000000000000000000000000000000000000000000000000000000000000 *
1"
#206250
0"
#212500
b10001011001 .
b11101100110 -
b1000100000 ,
b11000111 )
b1111110110010011 +
b110001011001 :
b111111101100110 >
b100010000000000000000000000000000000000000000000000000000000000 *
b11000111 %
b11000111 3
b1111110110010011 $
b1111110110010011 5
b11111 2
b11111 7
b111100000 4
b111100000 ;
b1000000000 6
1"
#218750
0"
#225000
b110010 .
b11111111110 -
b1111110001011001 )
b1111111101100110 +
b110010 :
b111111111111110 >
b1001000000 ,
b1111110001011001 %
b1111110001011001 3
b1111111101100110 $
b1111111101100110 5
b0 2
b0 7
b111111111 4
b111111111 ;
b1000100000 6
b100100000000000000000000000000000000000000000000000000000000000 *
1"
#231250
0"
#237500
b10010111101 .
b11101011100 -
b1001100000 ,
b110010 )
b1111111111111110 +
b110010111101 :
b111111101011100 >
b100110000000000000000000000000000000000000000000000000000000000 *
b110010 %
b110010 3
b1111111111111110 $
b1111111111111110 5
b100000 2
b100000 7
b111011111 4
b111011111 ;
b1001000000 6
1"
#243750
0"
#250000
b100101001 .
b10101111111 -
b1101000011 )
b1111111101011100 +
b1100100101001 :
b111110101111111 >
b1010000000 ,
b1101000011 %
b1101000011 3
b1111111101011100 $
b1111111101011100 5
b1000000 2
b1000000 7
b110111111 4
b110111111 ;
b1001100000 6
b101000000000000000000000000000000000000000000000000000000000000 *
1"
#256250
0"
#262500
b10101010111 .
b1001101101 -
b1010100000 ,
b1111111011010111 )
b1111110101111111 +
b10010101010111 :
b111101001101101 >
b101010000000000000000000000000000000000000000000000000000000000 *
b1111111011010111 %
b1111111011010111 3
b1111110101111111 $
b1111110101111111 5
b1100000 2
b1100000 7
b110011111 4
b110011111 ;
b1010000000 6
1"
#268750
0"
#275000
b100101001 .
b11000101101 -
b1010101001 )
b1001101101 +
b11000100101001 :
b111011000101101 >
b1011000000 ,
b1010101001 %
b1010101001 3
b1001101101 $
b1001101101 5
b10000000 2
b10000000 7
b101111111 4
b101111111 ;
b1010100000 6
b101100000000000000000000000000000000000000000000000000000000000 *
1"
#281250
0"
#287500
b10010000010 .
b11001010 -
b1011100000 ,
b1111111011010111 )
b1111111000101101 +
b11110010000010 :
b111000011001010 >
b101110000000000000000000000000000000000000000000000000000000000 *
b1111111011010111 %
b1111111011010111 3
b1111111000101101 $
b1111111000101101 5
b10100000 2
b10100000 7
b101011111 4
b101011111 ;
b1011000000 6
1"
#293750
0"
#300000
b11101000110 .
b1001010000 -
b1101111110 )
b11001010 +
b100011101000110 :
b110101001010000 >
b1100000000 ,
b1101111110 %
b1101111110 3
b11001010 $
b11001010 5
b11000000 2
b11000000 7
b100111111 4
b100111111 ;
b1011100000 6
b110000000000000000000000000000000000000000000000000000000000000 *
1"
#306250
0"
#312500
b101011001 .
b1011010001 -
b1100100000 ,
b10111010 )
b1001010000 +
b101000101011001 :
b110001011010001 >
b110010000000000000000000000000000000000000000000000000000000000 *
b10111010 %
b10111010 3
b1001010000 $
b1001010000 5
b11100000 2
b11100000 7
b100011111 4
b100011111 ;
b1100000000 6
1"
#318750
0"
#325000
b1010100101 .
b1001011110 -
b1111111010100111 )
b1011010001 +
b101101010100101 :
b101101001011110 >
b1101000000 ,
b1111111010100111 %
b1111111010100111 3
b1011010001 $
b1011010001 5
b100000000 2
b100000000 7
b11111111 4
b11111111 ;
b1100100000 6
b110100000000000000000000000000000000000000000000000000000000000 *
1"
#331250
0"
#337500
b1100010001 .
b100001100 -
b1101100000 ,
b1111110101011011 )
b1001011110 +
b110001100010001 :
b101000100001100 >
b110110000000000000000000000000000000000000000000000000000000000 *
b1111110101011011 %
b1111110101011011 3
b1001011110 $
b1001011110 5
b100100000 2
b100100000 7
b11011111 4
b11011111 ;
b1101000000 6
1"
#343750
0"
#350000
b1010001000 .
b11011110010 -
b1111110011101111 )
b100001100 +
b110101010001000 :
b100011011110010 >
b1110000000 ,
b1111110011101111 %
b1111110011101111 3
b100001100 $
b100001100 5
b101000000 2
b101000000 7
b10111111 4
b10111111 ;
b1101100000 6
b111000000000000000000000000000000000000000000000000000000000000 *
1"
#356250
0"
#362500
b11111001 .
b10000101001 -
b1110100000 ,
b1111110101111000 )
b1111111011110010 +
b111000011111001 :
b11110000101001 >
b111010000000000000000000000000000000000000000000000000000000000 *
b1111110101111000 %
b1111110101111000 3
b1111111011110010 $
b1111111011110010 5
b101100000 2
b101100000 7
b10011111 4
b10011111 ;
b1110000000 6
1"
#368750
0"
#375000
b11001010011 .
b11001100 -
b1111111100000111 )
b1111110000101001 +
b111011001010011 :
b11000011001100 >
b1111000000 ,
b1111111100000111 %
b1111111100000111 3
b1111110000101001 $
b1111110000101001 5
b110000000 2
b110000000 7
b1111111 4
b1111111 ;
b1110100000 6
b111100000000000000000000000000000000000000000000000000000000000 *
1"
#381250
0"
#387500
b1010001010 .
b10011110111 -
b1111100000 ,
b110101101 )
b11001100 +
b111101010001010 :
b10010011110111 >
b111110000000000000000000000000000000000000000000000000000000000 *
b110101101 %
b110101101 3
b11001100 $
b11001100 5
b110100000 2
b110100000 7
b1011111 4
b1011111 ;
b1111000000 6
1"
#393750
0"
#400000
b10110010011 .
b11000111 -
b1111110101110110 )
b1111110011110111 +
b111110110010011 :
b1100011000111 >
b10000000000 ,
b1111110101110110 %
b1111110101110110 3
b1111110011110111 $
b1111110011110111 5
b111000000 2
b111000000 7
b111111 4
b111111 ;
b1111100000 6
b1000000000000000000000000000000000000000000000000000000000000000 *
1"
#406250
0"
#412500
b11101100110 .
b10001011001 -
b10000100000 ,
b1001101101 )
b11000111 +
b111111101100110 :
b110001011001 >
b1000010000000000000000000000000000000000000000000000000000000000 *
b1001101101 %
b1001101101 3
b11000111 $
b11000111 5
b111100000 2
b111100000 7
b11111 4
b11111 ;
b10000000000 6
1"
#418750
0"
#425000
b11111111110 .
b110010 -
b10011010 )
b1111110001011001 +
b111111111111110 :
b110010 >
b10001000000 ,
b10011010 %
b10011010 3
b1111110001011001 $
b1111110001011001 5
b111111111 2
b111111111 7
b0 4
b0 ;
b10000100000 6
b1000100000000000000000000000000000000000000000000000000000000000 *
1"
#431250
0"
#437500
b11101011100 .
b10010111101 -
b10001100000 ,
b10 )
b110010 +
b111111101011100 :
b110010111101 >
b1000110000000000000000000000000000000000000000000000000000000000 *
b10 %
b10 3
b110010 $
b110010 5
b111011111 2
b111011111 7
b100000 4
b100000 ;
b10001000000 6
1"
#443750
0"
#450000
b10101111111 .
b100101001 -
b10100100 )
b1101000011 +
b111110101111111 :
b1100100101001 >
b10010000000 ,
b10100100 %
b10100100 3
b1101000011 $
b1101000011 5
b110111111 2
b110111111 7
b1000000 4
b1000000 ;
b10001100000 6
b1001000000000000000000000000000000000000000000000000000000000000 *
1"
#456250
0"
#462500
b1001101101 .
b10101010111 -
b10010100000 ,
b1010000001 )
b1111111011010111 +
b111101001101101 :
b10010101010111 >
b1001010000000000000000000000000000000000000000000000000000000000 *
b1010000001 %
b1010000001 3
b1111111011010111 $
b1111111011010111 5
b110011111 2
b110011111 7
b1100000 4
b1100000 ;
b10010000000 6
1"
#468750
0"
#475000
b11000101101 .
b100101001 -
b1111110110010011 )
b1010101001 +
b111011000101101 :
b11000100101001 >
b10011000000 ,
b1111110110010011 %
b1111110110010011 3
b1010101001 $
b1010101001 5
b101111111 2
b101111111 7
b10000000 4
b10000000 ;
b10010100000 6
b1001100000000000000000000000000000000000000000000000000000000000 *
1"
#481250
0"
#487500
b11001010 .
b10010000010 -
b10011100000 ,
b111010011 )
b1111111011010111 +
b111000011001010 :
b11110010000010 >
b1001110000000000000000000000000000000000000000000000000000000000 *
b111010011 %
b111010011 3
b1111111011010111 $
b1111111011010111 5
b101011111 2
b101011111 7
b10100000 4
b10100000 ;
b10011000000 6
1"
#493750
0"
#500000
b1001010000 .
b11101000110 -
b1111111100110110 )
b1101111110 +
b110101001010000 :
b100011101000110 >
b10100000000 ,
b1111111100110110 %
b1111111100110110 3
b1101111110 $
b1101111110 5
b100111111 2
b100111111 7
b11000000 4
b11000000 ;
b10011100000 6
b1010000000000000000000000000000000000000000000000000000000000000 *
1"
#506250
0"
#512500
b1011010001 .
b101011001 -
b10100100000 ,
b1111110110110000 )
b10111010 +
b110001011010001 :
b101000101011001 >
b1010010000000000000000000000000000000000000000000000000000000000 *
b1111110110110000 %
b1111110110110000 3
b10111010 $
b10111010 5
b100011111 2
b100011111 7
b11100000 4
b11100000 ;
b10100000000 6
1"
#518750
0"
#525000
b1001011110 .
b1010100101 -
b1111110100101111 )
b1111111010100111 +
b101101001011110 :
b101101010100101 >
b10101000000 ,
b1111110100101111 %
b1111110100101111 3
b1111111010100111 $
b1111111010100111 5
b11111111 2
b11111111 7
b100000000 4
b100000000 ;
b10100100000 6
b1010100000000000000000000000000000000000000000000000000000000000 *
1"
#531250
0"
#537500
b100001100 .
b1100010001 -
b10101100000 ,
b1111110110100010 )
b1111110101011011 +
b101000100001100 :
b110001100010001 >
b1010110000000000000000000000000000000000000000000000000000000000 *
b1111110110100010 %
b1111110110100010 3
b1111110101011011 $
b1111110101011011 5
b11011111 2
b11011111 7
b100100000 4
b100100000 ;
b10101000000 6
1"
#543750
0"
#550000
b11011110010 .
b1010001000 -
b1111111011110100 )
b1111110011101111 +
b100011011110010 :
b110101010001000 >
b10110000000 ,
b1111111011110100 %
b1111111011110100 3
b1111110011101111 $
b1111110011101111 5
b10111111 2
b10111111 7
b101000000 4
b101000000 ;
b10101100000 6
b1011000000000000000000000000000000000000000000000000000000000000 *
1"
#556250
0"
#562500
b10000101001 .
b11111001 -
b10110100000 ,
b100001110 )
b1111110101111000 +
b11110000101001 :
b111000011111001 >
b1011010000000000000000000000000000000000000000000000000000000000 *
b100001110 %
b100001110 3
b1111110101111000 $
b1111110101111000 5
b10011111 2
b10011111 7
b101100000 4
b101100000 ;
b10110000000 6
1"
#568750
0"
#575000
b11001100 .
b11001010011 -
b1111010111 )
b1111111100000111 +
b11000011001100 :
b111011001010011 >
b10111000000 ,
b1111010111 %
b1111010111 3
b1111111100000111 $
b1111111100000111 5
b1111111 2
b1111111 7
b110000000 4
b110000000 ;
b10110100000 6
b1011100000000000000000000000000000000000000000000000000000000000 *
1"
#581250
0"
#587500
b10011110111 .
b1010001010 -
b10111100000 ,
b1111111100110100 )
b110101101 +
b10010011110111 :
b111101010001010 >
b1011110000000000000000000000000000000000000000000000000000000000 *
b1111111100110100 %
b1111111100110100 3
b110101101 $
b110101101 5
b1011111 2
b1011111 7
b110100000 4
b110100000 ;
b10111000000 6
1"
#593750
0"
#600000
b11000111 .
b10110010011 -
b1100001001 )
b1111110101110110 +
b1100011000111 :
b111110110010011 >
b11000000000 ,
b1100001001 %
b1100001001 3
b1111110101110110 $
b1111110101110110 5
b111111 2
b111111 7
b111000000 4
b111000000 ;
b10111100000 6
b1100000000000000000000000000000000000000000000000000000000000000 *
1"
#606250
0"
#612500
b10001011001 .
b11101100110 -
b11000100000 ,
b1111111100111001 )
b1001101101 +
b110001011001 :
b111111101100110 >
b1100010000000000000000000000000000000000000000000000000000000000 *
b1111111100111001 %
b1111111100111001 3
b1001101101 $
b1001101101 5
b11111 2
b11111 7
b111100000 4
b111100000 ;
b11000000000 6
1"
#618750
0"
#625000
b110010 .
b11111111110 -
b1110100111 )
b10011010 +
b110010 :
b111111111111110 >
b11001000000 ,
b1110100111 %
b1110100111 3
b10011010 $
b10011010 5
b0 2
b0 7
b111111111 4
b111111111 ;
b11000100000 6
b1100100000000000000000000000000000000000000000000000000000000000 *
1"
#631250
0"
#637500
b10010111101 .
b11101011100 -
b11001100000 ,
b1111111111001110 )
b10 +
b110010111101 :
b111111101011100 >
b1100110000000000000000000000000000000000000000000000000000000000 *
b1111111111001110 %
b1111111111001110 3
b10 $
b10 5
b100000 2
b100000 7
b111011111 4
b111011111 ;
b11001000000 6
1"
#643750
0"
#650000
b100101001 .
b10101111111 -
b1111110010111101 )
b10100100 +
b1100100101001 :
b111110101111111 >
b11010000000 ,
b1111110010111101 %
b1111110010111101 3
b10100100 $
b10100100 5
b1000000 2
b1000000 7
b110111111 4
b110111111 ;
b11001100000 6
b1101000000000000000000000000000000000000000000000000000000000000 *
1"
#656250
0"
#662500
b10101010111 .
b1001101101 -
b11010100000 ,
b100101001 )
b1010000001 +
b10010101010111 :
b111101001101101 >
b1101010000000000000000000000000000000000000000000000000000000000 *
b100101001 %
b100101001 3
b1010000001 $
b1010000001 5
b1100000 2
b1100000 7
b110011111 4
b110011111 ;
b11010000000 6
1"
#668750
0"
#675000
b100101001 .
b11000101101 -
b1111110101010111 )
b1111110110010011 +
b11000100101001 :
b111011000101101 >
b11011000000 ,
b1111110101010111 %
b1111110101010111 3
b1111110110010011 $
b1111110110010011 5
b10000000 2
b10000000 7
b101111111 4
b101111111 ;
b11010100000 6
b1101100000000000000000000000000000000000000000000000000000000000 *
1"
#681250
0"
#687500
b10010000010 .
b11001010 -
b11011100000 ,
b100101001 )
b111010011 +
b11110010000010 :
b111000011001010 >
b1101110000000000000000000000000000000000000000000000000000000000 *
b100101001 %
b100101001 3
b111010011 $
b111010011 5
b10100000 2
b10100000 7
b101011111 4
b101011111 ;
b11011000000 6
1"
#693750
0"
#700000
b11101000110 .
b1001010000 -
b1111110010000010 )
b1111111100110110 +
b100011101000110 :
b110101001010000 >
b11100000000 ,
b1111110010000010 %
b1111110010000010 3
b1111111100110110 $
b1111111100110110 5
b11000000 2
b11000000 7
b100111111 4
b100111111 ;
b11011100000 6
b1110000000000000000000000000000000000000000000000000000000000000 *
1"
#706250
0"
#712500
b101011001 .
b1011010001 -
b11100100000 ,
b1111111101000110 )
b1111110110110000 +
b101000101011001 :
b110001011010001 >
b1110010000000000000000000000000000000000000000000000000000000000 *
b1111111101000110 %
b1111111101000110 3
b1111110110110000 $
b1111110110110000 5
b11100000 2
b11100000 7
b100011111 4
b100011111 ;
b11100000000 6
1"
#718750
0"
#725000
b1010100101 .
b1001011110 -
b101011001 )
b1111110100101111 +
b101101010100101 :
b101101001011110 >
b11101000000 ,
b101011001 %
b101011001 3
b1111110100101111 $
b1111110100101111 5
b100000000 2
b100000000 7
b11111111 4
b11111111 ;
b11100100000 6
b1110100000000000000000000000000000000000000000000000000000000000 *
1"
#731250
0"
#737500
b1100010001 .
b100001100 -
b11101100000 ,
b1010100101 )
b1111110110100010 +
b110001100010001 :
b101000100001100 >
b1110110000000000000000000000000000000000000000000000000000000000 *
b1010100101 %
b1010100101 3
b1111110110100010 $
b1111110110100010 5
b100100000 2
b100100000 7
b11011111 4
b11011111 ;
b11101000000 6
1"
#743750
0"
#750000
b1010001000 .
b11011110010 -
b1100010001 )
b1111111011110100 +
b110101010001000 :
b100011011110010 >
b11110000000 ,
b1100010001 %
b1100010001 3
b1111111011110100 $
b1111111011110100 5
b101000000 2
b101000000 7
b10111111 4
b10111111 ;
b11101100000 6
b1111000000000000000000000000000000000000000000000000000000000000 *
1"
#756250
0"
#762500
b11111001 .
b10000101001 -
b11110100000 ,
b1010001000 )
b100001110 +
b111000011111001 :
b11110000101001 >
b1111010000000000000000000000000000000000000000000000000000000000 *
b1010001000 %
b1010001000 3
b100001110 $
b100001110 5
b101100000 2
b101100000 7
b10011111 4
b10011111 ;
b11110000000 6
1"
#768750
0"
#775000
b11001010011 .
b11001100 -
b11111001 )
b1111010111 +
b111011001010011 :
b11000011001100 >
b11111000000 ,
b11111001 %
b11111001 3
b1111010111 $
b1111010111 5
b110000000 2
b110000000 7
b1111111 4
b1111111 ;
b11110100000 6
b1111100000000000000000000000000000000000000000000000000000000000 *
1"
#781250
0"
#787500
b1010001010 .
b10011110111 -
b11111100000 ,
b1111111001010011 )
b1111111100110100 +
b111101010001010 :
b10010011110111 >
b1111110000000000000000000000000000000000000000000000000000000000 *
b1111111001010011 %
b1111111001010011 3
b1111111100110100 $
b1111111100110100 5
b110100000 2
b110100000 7
b1011111 4
b1011111 ;
b11111000000 6
1"
#793750
0"
#800000
b10110010011 .
b11000111 -
b1010001010 )
b1100001001 +
b111110110010011 :
b1100011000111 >
b0 ,
b1010001010 %
b1010001010 3
b1100001001 $
b1100001001 5
b111000000 2
b111000000 7
b111111 4
b111111 ;
b11111100000 6
b0 *
1"
#806250
0"
#812500
b11101100110 .
b10001011001 -
b100000 ,
b1111110110010011 )
b1111111100111001 +
b111111101100110 :
b110001011001 >
b10000000000000000000000000000000000000000000000000000000000 *
b1111110110010011 %
b1111110110010011 3
b1111111100111001 $
b1111111100111001 5
b111100000 2
b111100000 7
b11111 4
b11111 ;
b0 6
1"
#818750
0"
#825000
b11111111110 .
b110010 -
b1111111101100110 )
b1110100111 +
b111111111111110 :
b110010 >
b1000000 ,
b1111111101100110 %
b1111111101100110 3
b1110100111 $
b1110100111 5
b111111111 2
b111111111 7
b0 4
b0 ;
b100000 6
b100000000000000000000000000000000000000000000000000000000000 *
1"
#831250
0"
#837500
b11101011100 .
b10010111101 -
b1100000 ,
b1111111111111110 )
b1111111111001110 +
b111111101011100 :
b110010111101 >
b110000000000000000000000000000000000000000000000000000000000 *
b1111111111111110 %
b1111111111111110 3
b1111111111001110 $
b1111111111001110 5
b111011111 2
b111011111 7
b100000 4
b100000 ;
b1000000 6
1"
#843750
0"
#850000
b10101111111 .
b100101001 -
b1111111101011100 )
b1111110010111101 +
b111110101111111 :
b1100100101001 >
b10000000 ,
b1111111101011100 %
b1111111101011100 3
b1111110010111101 $
b1111110010111101 5
b110111111 2
b110111111 7
b1000000 4
b1000000 ;
b1100000 6
b1000000000000000000000000000000000000000000000000000000000000 *
1"
#856250
0"
#862500
b1001101101 .
b10101010111 -
b10100000 ,
b1111110101111111 )
b100101001 +
b111101001101101 :
b10010101010111 >
b1010000000000000000000000000000000000000000000000000000000000 *
b1111110101111111 %
b1111110101111111 3
b100101001 $
b100101001 5
b110011111 2
b110011111 7
b1100000 4
b1100000 ;
b10000000 6
1"
#868750
0"
#875000
b11000101101 .
b100101001 -
b1001101101 )
b1111110101010111 +
b111011000101101 :
b11000100101001 >
b11000000 ,
b1001101101 %
b1001101101 3
b1111110101010111 $
b1111110101010111 5
b101111111 2
b101111111 7
b10000000 4
b10000000 ;
b10100000 6
b1100000000000000000000000000000000000000000000000000000000000 *
1"
#881250
0"
#887500
b11001010 .
b10010000010 -
b11100000 ,
b1111111000101101 )
b100101001 +
b111000011001010 :
b11110010000010 >
b1110000000000000000000000000000000000000000000000000000000000 *
b1111111000101101 %
b1111111000101101 3
b100101001 $
b100101001 5
b101011111 2
b101011111 7
b10100000 4
b10100000 ;
b11000000 6
1"
#893750
0"
#900000
b1001010000 .
b11101000110 -
b11001010 )
b1111110010000010 +
b110101001010000 :
b100011101000110 >
b100000000 ,
b11001010 %
b11001010 3
b1111110010000010 $
b1111110010000010 5
b100111111 2
b100111111 7
b11000000 4
b11000000 ;
b11100000 6
b10000000000000000000000000000000000000000000000000000000000000 *
1"
#906250
0"
#912500
b1011010001 .
b101011001 -
b100100000 ,
b1001010000 )
b1111111101000110 +
b110001011010001 :
b101000101011001 >
b10010000000000000000000000000000000000000000000000000000000000 *
b1001010000 %
b1001010000 3
b1111111101000110 $
b1111111101000110 5
b100011111 2
b100011111 7
b11100000 4
b11100000 ;
b100000000 6
1"
#918750
0"
#925000
b1001011110 .
b1010100101 -
b1011010001 )
b101011001 +
b101101001011110 :
b101101010100101 >
b101000000 ,
b1011010001 %
b1011010001 3
b101011001 $
b101011001 5
b11111111 2
b11111111 7
b100000000 4
b100000000 ;
b100100000 6
b10100000000000000000000000000000000000000000000000000000000000 *
1"
#931250
0"
#937500
b100001100 .
b1100010001 -
b101100000 ,
b1001011110 )
b1010100101 +
b101000100001100 :
b110001100010001 >
b10110000000000000000000000000000000000000000000000000000000000 *
b1001011110 %
b1001011110 3
b1010100101 $
b1010100101 5
b11011111 2
b11011111 7
b100100000 4
b100100000 ;
b101000000 6
1"
#943750
0"
#950000
b11011110010 .
b1010001000 -
b100001100 )
b1100010001 +
b100011011110010 :
b110101010001000 >
b110000000 ,
b100001100 %
b100001100 3
b1100010001 $
b1100010001 5
b10111111 2
b10111111 7
b101000000 4
b101000000 ;
b101100000 6
b11000000000000000000000000000000000000000000000000000000000000 *
1"
#956250
0"
#962500
b10000101001 .
b11111001 -
b110100000 ,
b1111111011110010 )
b1010001000 +
b11110000101001 :
b111000011111001 >
b11010000000000000000000000000000000000000000000000000000000000 *
b1111111011110010 %
b1111111011110010 3
b1010001000 $
b1010001000 5
b10011111 2
b10011111 7
b101100000 4
b101100000 ;
b110000000 6
1"
#968750
0"
#975000
b11001100 .
b11001010011 -
b1111110000101001 )
b11111001 +
b11000011001100 :
b111011001010011 >
b111000000 ,
b1111110000101001 %
b1111110000101001 3
b11111001 $
b11111001 5
b1111111 2
b1111111 7
b110000000 4
b110000000 ;
b110100000 6
b11100000000000000000000000000000000000000000000000000000000000 *
1"
#981250
0"
#987500
b10011110111 .
b1010001010 -
b111100000 ,
b11001100 )
b1111111001010011 +
b10010011110111 :
b111101010001010 >
b11110000000000000000000000000000000000000000000000000000000000 *
b11001100 %
b11001100 3
b1111111001010011 $
b1111111001010011 5
b1011111 2
b1011111 7
b110100000 4
b110100000 ;
b111000000 6
1"
#993750
0"
#1000000
b11000111 .
b10110010011 -
b1111110011110111 )
b1010001010 +
b1100011000111 :
b111110110010011 >
b1000000000 ,
b1111110011110111 %
b1111110011110111 3
b1010001010 $
b1010001010 5
b111111 2
b111111 7
b111000000 4
b111000000 ;
b111100000 6
b100000000000000000000000000000000000000000000000000000000000000 *
1"
#1006250
0"
#1012500
b10001011001 .
b11101100110 -
b1000100000 ,
b11000111 )
b1111110110010011 +
b110001011001 :
b111111101100110 >
b100010000000000000000000000000000000000000000000000000000000000 *
b11000111 %
b11000111 3
b1111110110010011 $
b1111110110010011 5
b11111 2
b11111 7
b111100000 4
b111100000 ;
b1000000000 6
1"
#1018750
0"
#1025000
b110010 .
b11111111110 -
b1111110001011001 )
b1111111101100110 +
b110010 :
b111111111111110 >
b1001000000 ,
b1111110001011001 %
b1111110001011001 3
b1111111101100110 $
b1111111101100110 5
b0 2
b0 7
b111111111 4
b111111111 ;
b1000100000 6
b100100000000000000000000000000000000000000000000000000000000000 *
1"
#1031250
0"
#1037500
b10010111101 .
b11101011100 -
b1001100000 ,
b110010 )
b1111111111111110 +
b110010111101 :
b111111101011100 >
b100110000000000000000000000000000000000000000000000000000000000 *
b110010 %
b110010 3
b1111111111111110 $
b1111111111111110 5
b100000 2
b100000 7
b111011111 4
b111011111 ;
b1001000000 6
1"
#1043750
0"
